EESchema Schematic File Version 4
EELAYER 30 0
EELAYER END
$Descr A4 11693 8268
encoding utf-8
Sheet 3 14
Title ""
Date ""
Rev ""
Comp ""
Comment1 ""
Comment2 ""
Comment3 ""
Comment4 ""
$EndDescr
$Comp
L roket-rescue:CC1200RHBR-CC1200RHBR U3
U 1 1 609B095B
P 5800 3550
F 0 "U3" H 5800 5420 50  0000 C CNN
F 1 "CC1200RHBR" H 5800 5329 50  0000 C CNN
F 2 "others:CC1200RHBR" H 5800 3550 50  0001 L BNN
F 3 "" H 5800 3550 50  0001 L BNN
	1    5800 3550
	1    0    0    -1  
$EndComp
$Comp
L roket-rescue:Bob-805_bobbin L6
U 1 1 609B4013
P 7450 5500
F 0 "L6" V 7404 5555 50  0000 L CNN
F 1 "7.5nH" V 7495 5555 50  0000 L CNN
F 2 "Inductor_SMD:L_0805_2012Metric" H 7450 5500 50  0001 L BNN
F 3 "" H 7450 5500 50  0001 L BNN
	1    7450 5500
	0    1    1    0   
$EndComp
$Comp
L roket-rescue:Bob-805_bobbin L7
U 1 1 609B2AF8
P 5850 5750
F 0 "L7" H 5850 5942 50  0000 C CNN
F 1 "12nH" H 5850 5851 50  0000 C CNN
F 2 "Inductor_SMD:L_0805_2012Metric" H 5850 5750 50  0001 L BNN
F 3 "" H 5850 5750 50  0001 L BNN
	1    5850 5750
	1    0    0    -1  
$EndComp
$Comp
L roket-rescue:Bob-805_bobbin L8
U 1 1 609B57C5
P 8250 5750
F 0 "L8" H 8250 5942 50  0000 C CNN
F 1 "18nH" H 8250 5851 50  0000 C CNN
F 2 "Inductor_SMD:L_0805_2012Metric" H 8250 5750 50  0001 L BNN
F 3 "" H 8250 5750 50  0001 L BNN
	1    8250 5750
	1    0    0    -1  
$EndComp
$Comp
L roket-rescue:Bob-805_bobbin L9
U 1 1 609B5A65
P 9000 5750
F 0 "L9" H 9000 5942 50  0000 C CNN
F 1 "12nH" H 9000 5851 50  0000 C CNN
F 2 "Inductor_SMD:L_0805_2012Metric" H 9000 5750 50  0001 L BNN
F 3 "" H 9000 5750 50  0001 L BNN
	1    9000 5750
	1    0    0    -1  
$EndComp
$Comp
L roket-rescue:Bob-805_bobbin L5
U 1 1 609B5E86
P 8350 4950
F 0 "L5" H 8350 5142 50  0000 C CNN
F 1 "10nH" H 8350 5051 50  0000 C CNN
F 2 "Inductor_SMD:L_0805_2012Metric" H 8350 4950 50  0001 L BNN
F 3 "" H 8350 4950 50  0001 L BNN
	1    8350 4950
	1    0    0    -1  
$EndComp
$Comp
L roket-rescue:Bob-805_bobbin L4
U 1 1 609B65A4
P 3950 4550
F 0 "L4" H 3950 4742 50  0000 C CNN
F 1 "12nH" H 3950 4651 50  0000 C CNN
F 2 "Inductor_SMD:L_0805_2012Metric" H 3950 4550 50  0001 L BNN
F 3 "" H 3950 4550 50  0001 L BNN
	1    3950 4550
	1    0    0    -1  
$EndComp
$Comp
L roket-rescue:Bob-805_bobbin L3
U 1 1 609B6E94
P 4450 4750
F 0 "L3" V 4404 4805 50  0000 L CNN
F 1 "15nH" V 4495 4805 50  0000 L CNN
F 2 "Inductor_SMD:L_0805_2012Metric" H 4450 4750 50  0001 L BNN
F 3 "" H 4450 4750 50  0001 L BNN
	1    4450 4750
	0    1    1    0   
$EndComp
$Comp
L roket-rescue:Bob-805_bobbin L2
U 1 1 609B7242
P 4250 5200
F 0 "L2" V 4204 5255 50  0000 L CNN
F 1 "12nH" V 4295 5255 50  0000 L CNN
F 2 "Inductor_SMD:L_0805_2012Metric" H 4250 5200 50  0001 L BNN
F 3 "" H 4250 5200 50  0001 L BNN
	1    4250 5200
	0    -1   -1   0   
$EndComp
$Comp
L roket-rescue:Cap-805_cap C?
U 1 1 609B9EB2
P 7800 5400
AR Path="/609302C0/609B9EB2" Ref="C?"  Part="1" 
AR Path="/6093034B/609B9EB2" Ref="C25"  Part="1" 
F 0 "C25" V 7804 5503 50  0000 L CNN
F 1 "1pF" V 7895 5503 50  0000 L CNN
F 2 "Capacitor_SMD:C_0805_2012Metric" H 7800 5400 50  0001 L BNN
F 3 "" H 7800 5400 50  0001 L BNN
	1    7800 5400
	0    1    1    0   
$EndComp
$Comp
L roket-rescue:Cap-805_cap C?
U 1 1 609BA0DF
P 8650 5900
AR Path="/609302C0/609BA0DF" Ref="C?"  Part="1" 
AR Path="/6093034B/609BA0DF" Ref="C27"  Part="1" 
F 0 "C27" V 8654 6003 50  0000 L CNN
F 1 "3pF" V 8745 6003 50  0000 L CNN
F 2 "Capacitor_SMD:C_0805_2012Metric" H 8650 5900 50  0001 L BNN
F 3 "" H 8650 5900 50  0001 L BNN
	1    8650 5900
	0    1    1    0   
$EndComp
$Comp
L roket-rescue:Cap-805_cap C?
U 1 1 609BA432
P 4300 4350
AR Path="/609302C0/609BA432" Ref="C?"  Part="1" 
AR Path="/6093034B/609BA432" Ref="C22"  Part="1" 
F 0 "C22" V 4304 4453 50  0000 L CNN
F 1 "3.3pF" V 4395 4453 50  0000 L CNN
F 2 "Capacitor_SMD:C_0805_2012Metric" H 4300 4350 50  0001 L BNN
F 3 "" H 4300 4350 50  0001 L BNN
	1    4300 4350
	0    -1   -1   0   
$EndComp
$Comp
L roket-rescue:Cap-805_cap C?
U 1 1 609BA47E
P 7100 2100
AR Path="/609302C0/609BA47E" Ref="C?"  Part="1" 
AR Path="/6093034B/609BA47E" Ref="C11"  Part="1" 
F 0 "C11" V 7104 2203 50  0000 L CNN
F 1 "220nF" V 7195 2203 50  0000 L CNN
F 2 "Capacitor_SMD:C_0805_2012Metric" H 7100 2100 50  0001 L BNN
F 3 "" H 7100 2100 50  0001 L BNN
	1    7100 2100
	0    1    1    0   
$EndComp
$Comp
L roket-rescue:Cap-805_cap C?
U 1 1 609BA5CE
P 7550 2100
AR Path="/609302C0/609BA5CE" Ref="C?"  Part="1" 
AR Path="/6093034B/609BA5CE" Ref="C12"  Part="1" 
F 0 "C12" V 7554 2203 50  0000 L CNN
F 1 "220nF" V 7645 2203 50  0000 L CNN
F 2 "Capacitor_SMD:C_0805_2012Metric" H 7550 2100 50  0001 L BNN
F 3 "" H 7550 2100 50  0001 L BNN
	1    7550 2100
	0    1    1    0   
$EndComp
$Comp
L Device:R_US R?
U 1 1 609BB991
P 9000 4950
AR Path="/609302C0/609BB991" Ref="R?"  Part="1" 
AR Path="/609304A1/609BB991" Ref="R?"  Part="1" 
AR Path="/6093034B/609BB991" Ref="R8"  Part="1" 
F 0 "R8" V 9068 4996 50  0000 L CNN
F 1 "10" V 9068 4905 50  0000 R CNN
F 2 "Resistor_SMD:R_0805_2012Metric" V 9040 4940 50  0001 C CNN
F 3 "~" H 9000 4950 50  0001 C CNN
	1    9000 4950
	0    -1   -1   0   
$EndComp
$Comp
L roket-rescue:Cap-805_cap C?
U 1 1 609BBC50
P 8950 5250
AR Path="/609302C0/609BBC50" Ref="C?"  Part="1" 
AR Path="/609304A1/609BBC50" Ref="C?"  Part="1" 
AR Path="/6093034B/609BBC50" Ref="C23"  Part="1" 
F 0 "C23" H 8954 5353 50  0000 R BNN
F 1 "33pF" H 9045 5353 50  0000 L BNN
F 2 "Capacitor_SMD:C_0805_2012Metric" H 8950 5250 50  0001 L BNN
F 3 "" H 8950 5250 50  0001 L BNN
	1    8950 5250
	1    0    0    -1  
$EndComp
$Comp
L roket-rescue:Cap-805_cap C?
U 1 1 609BBE25
P 9550 4950
AR Path="/609302C0/609BBE25" Ref="C?"  Part="1" 
AR Path="/609304A1/609BBE25" Ref="C?"  Part="1" 
AR Path="/6093034B/609BBE25" Ref="C20"  Part="1" 
F 0 "C20" H 9554 5053 50  0000 R BNN
F 1 "10nF" H 9645 5053 50  0000 L BNN
F 2 "Capacitor_SMD:C_0805_2012Metric" H 9550 4950 50  0001 L BNN
F 3 "" H 9550 4950 50  0001 L BNN
	1    9550 4950
	1    0    0    -1  
$EndComp
$Comp
L roket-rescue:Cap-805_cap C?
U 1 1 609BBF68
P 9550 5250
AR Path="/609302C0/609BBF68" Ref="C?"  Part="1" 
AR Path="/609304A1/609BBF68" Ref="C?"  Part="1" 
AR Path="/6093034B/609BBF68" Ref="C24"  Part="1" 
F 0 "C24" H 9554 5353 50  0000 R BNN
F 1 "100pF" H 9645 5353 50  0000 L BNN
F 2 "Capacitor_SMD:C_0805_2012Metric" H 9550 5250 50  0001 L BNN
F 3 "" H 9550 5250 50  0001 L BNN
	1    9550 5250
	1    0    0    -1  
$EndComp
$Comp
L roket-rescue:Cap-805_cap C?
U 1 1 609BC3CB
P 6900 5750
AR Path="/609302C0/609BC3CB" Ref="C?"  Part="1" 
AR Path="/609304A1/609BC3CB" Ref="C?"  Part="1" 
AR Path="/6093034B/609BC3CB" Ref="C26"  Part="1" 
F 0 "C26" H 6904 5853 50  0000 R BNN
F 1 "2.2pF" H 6995 5853 50  0000 L BNN
F 2 "Capacitor_SMD:C_0805_2012Metric" H 6900 5750 50  0001 L BNN
F 3 "" H 6900 5750 50  0001 L BNN
	1    6900 5750
	1    0    0    -1  
$EndComp
$Comp
L roket-rescue:Cap-805_cap C?
U 1 1 609BC69C
P 3850 4950
AR Path="/609302C0/609BC69C" Ref="C?"  Part="1" 
AR Path="/609304A1/609BC69C" Ref="C?"  Part="1" 
AR Path="/6093034B/609BC69C" Ref="C19"  Part="1" 
F 0 "C19" H 3854 5053 50  0000 R BNN
F 1 "3.3pF" H 3945 5053 50  0000 L BNN
F 2 "Capacitor_SMD:C_0805_2012Metric" H 3850 4950 50  0001 L BNN
F 3 "" H 3850 4950 50  0001 L BNN
	1    3850 4950
	1    0    0    -1  
$EndComp
$Comp
L roket-rescue:Cap-805_cap C?
U 1 1 609BCD61
P 4650 3800
AR Path="/609302C0/609BCD61" Ref="C?"  Part="1" 
AR Path="/6093034B/609BCD61" Ref="C18"  Part="1" 
F 0 "C18" V 4654 3903 50  0000 L CNN
F 1 "1.5nF" V 4745 3903 50  0000 L CNN
F 2 "Capacitor_SMD:C_0805_2012Metric" H 4650 3800 50  0001 L BNN
F 3 "" H 4650 3800 50  0001 L BNN
	1    4650 3800
	0    1    1    0   
$EndComp
Wire Wire Line
	6700 5150 6750 5150
Wire Wire Line
	6750 5150 6750 5750
Wire Wire Line
	6750 5750 6800 5750
Wire Wire Line
	6050 5750 6750 5750
Connection ~ 6750 5750
Wire Wire Line
	7100 5750 7450 5750
Wire Wire Line
	7450 5750 7450 5700
Wire Wire Line
	7450 5750 7800 5750
Wire Wire Line
	7800 5750 7800 5600
Connection ~ 7450 5750
Wire Wire Line
	7800 5750 8050 5750
Connection ~ 7800 5750
Wire Wire Line
	8450 5750 8650 5750
Wire Wire Line
	8650 5800 8650 5750
Connection ~ 8650 5750
Wire Wire Line
	8650 5750 8800 5750
Wire Wire Line
	8550 4950 8700 4950
Wire Wire Line
	8850 5250 8700 5250
Wire Wire Line
	8700 5250 8700 4950
Connection ~ 8700 4950
Wire Wire Line
	8700 4950 8850 4950
Wire Wire Line
	9150 5250 9300 5250
Wire Wire Line
	9150 4950 9300 4950
Wire Wire Line
	9300 5250 9300 4950
Wire Wire Line
	9300 4950 9350 4950
Connection ~ 9300 4950
Wire Wire Line
	9450 5250 9300 5250
Connection ~ 9300 5250
Wire Wire Line
	9750 5250 9950 5250
Wire Wire Line
	9950 5250 9950 4950
Wire Wire Line
	9950 4950 9750 4950
Wire Wire Line
	8150 4950 7450 4950
Connection ~ 7450 4950
Wire Wire Line
	7450 4950 6700 4950
Wire Wire Line
	7450 5300 7450 5250
Wire Wire Line
	7450 5250 7800 5250
Wire Wire Line
	7800 5250 7800 5300
Connection ~ 7450 5250
Wire Wire Line
	5650 5750 3450 5750
Wire Wire Line
	4900 4700 4800 4700
Wire Wire Line
	4800 4700 4800 4550
Wire Wire Line
	4800 4550 4450 4550
Wire Wire Line
	4900 4800 4800 4800
Wire Wire Line
	4800 4800 4800 4950
Wire Wire Line
	4800 4950 4450 4950
Connection ~ 3450 4950
Wire Wire Line
	3450 4950 3450 4550
Wire Wire Line
	3450 4950 3450 5750
Connection ~ 4450 4950
Connection ~ 4450 4550
Wire Wire Line
	4250 5000 4250 4950
Connection ~ 4250 4950
Wire Wire Line
	4250 4950 4450 4950
Wire Wire Line
	4900 4000 4650 4000
Wire Wire Line
	4650 3700 4650 3650
Wire Wire Line
	4650 3650 4900 3650
Wire Wire Line
	6700 1950 7100 1950
Wire Wire Line
	7550 1950 7550 2000
Connection ~ 6700 1950
Connection ~ 6700 2050
Wire Wire Line
	6700 2050 6700 1950
Connection ~ 6700 2150
Wire Wire Line
	6700 2150 6700 2050
Connection ~ 6700 2250
Wire Wire Line
	6700 2250 6700 2150
Connection ~ 6700 2350
Wire Wire Line
	6700 2350 6700 2250
Connection ~ 6700 2450
Wire Wire Line
	6700 2450 6700 2350
Connection ~ 6700 2550
Wire Wire Line
	6700 2550 6700 2450
Connection ~ 6700 2650
Wire Wire Line
	6700 2650 6700 2550
Wire Wire Line
	6700 2750 6700 2650
Wire Wire Line
	7100 2000 7100 1950
Connection ~ 7100 1950
Wire Wire Line
	7100 1950 7350 1950
$Comp
L power:GND #PWR025
U 1 1 609D807E
P 7300 2400
F 0 "#PWR025" H 7300 2150 50  0001 C CNN
F 1 "GND" H 7305 2227 50  0000 C CNN
F 2 "" H 7300 2400 50  0001 C CNN
F 3 "" H 7300 2400 50  0001 C CNN
	1    7300 2400
	1    0    0    -1  
$EndComp
$Comp
L power:+3.3V #PWR021
U 1 1 609D84FF
P 7350 1850
F 0 "#PWR021" H 7350 1700 50  0001 C CNN
F 1 "+3.3V" H 7365 2023 50  0000 C CNN
F 2 "" H 7350 1850 50  0001 C CNN
F 3 "" H 7350 1850 50  0001 C CNN
	1    7350 1850
	1    0    0    -1  
$EndComp
Wire Wire Line
	7350 1950 7350 1850
Connection ~ 7350 1950
Wire Wire Line
	7350 1950 7550 1950
Wire Wire Line
	7100 2300 7100 2350
Wire Wire Line
	7100 2350 7300 2350
Wire Wire Line
	7550 2350 7550 2300
Wire Wire Line
	7300 2400 7300 2350
Connection ~ 7300 2350
Wire Wire Line
	7300 2350 7550 2350
$Comp
L power:GND #PWR037
U 1 1 609E3D1C
P 4500 4200
F 0 "#PWR037" H 4500 3950 50  0001 C CNN
F 1 "GND" H 4505 4027 50  0000 C CNN
F 2 "" H 4500 4200 50  0001 C CNN
F 3 "" H 4500 4200 50  0001 C CNN
	1    4500 4200
	1    0    0    -1  
$EndComp
$Comp
L power:GND #PWR033
U 1 1 609E4096
P 4250 5450
F 0 "#PWR033" H 4250 5200 50  0001 C CNN
F 1 "GND" H 4255 5277 50  0000 C CNN
F 2 "" H 4250 5450 50  0001 C CNN
F 3 "" H 4250 5450 50  0001 C CNN
	1    4250 5450
	1    0    0    -1  
$EndComp
$Comp
L power:GND #PWR036
U 1 1 609E9116
P 9950 5250
F 0 "#PWR036" H 9950 5000 50  0001 C CNN
F 1 "GND" H 9955 5077 50  0000 C CNN
F 2 "" H 9950 5250 50  0001 C CNN
F 3 "" H 9950 5250 50  0001 C CNN
	1    9950 5250
	1    0    0    -1  
$EndComp
Connection ~ 9950 5250
$Comp
L power:GND #PWR039
U 1 1 609E94A8
P 8650 6150
F 0 "#PWR039" H 8650 5900 50  0001 C CNN
F 1 "GND" H 8655 5977 50  0000 C CNN
F 2 "" H 8650 6150 50  0001 C CNN
F 3 "" H 8650 6150 50  0001 C CNN
	1    8650 6150
	1    0    0    -1  
$EndComp
$Comp
L power:+3.3V #PWR034
U 1 1 609E9854
P 9350 4850
F 0 "#PWR034" H 9350 4700 50  0001 C CNN
F 1 "+3.3V" H 9365 5023 50  0000 C CNN
F 2 "" H 9350 4850 50  0001 C CNN
F 3 "" H 9350 4850 50  0001 C CNN
	1    9350 4850
	1    0    0    -1  
$EndComp
Wire Wire Line
	9350 4850 9350 4950
Connection ~ 9350 4950
Wire Wire Line
	9350 4950 9450 4950
Text HLabel 6800 3600 2    50   Input ~ 0
GPIO3
Text HLabel 6800 3700 2    50   Input ~ 0
GPIO2
Text HLabel 6800 3800 2    50   Input ~ 0
GPIO0
Text HLabel 6800 3900 2    50   Input ~ 0
MISO
Text HLabel 6800 4000 2    50   Input ~ 0
MOSI
Text HLabel 6800 4100 2    50   Input ~ 0
SCLK
Text HLabel 6800 4200 2    50   Input ~ 0
CS
Wire Wire Line
	6800 3600 6700 3600
Wire Wire Line
	6800 3700 6700 3700
Wire Wire Line
	6800 3800 6700 3800
Wire Wire Line
	6800 3900 6700 3900
Wire Wire Line
	6800 4000 6700 4000
Wire Wire Line
	6800 4100 6700 4100
Wire Wire Line
	6800 4200 6700 4200
$Comp
L power:GND #PWR028
U 1 1 60A015BC
P 4900 3300
F 0 "#PWR028" H 4900 3050 50  0001 C CNN
F 1 "GND" H 4905 3127 50  0000 C CNN
F 2 "" H 4900 3300 50  0001 C CNN
F 3 "" H 4900 3300 50  0001 C CNN
	1    4900 3300
	1    0    0    -1  
$EndComp
$Comp
L power:+3.3V #PWR022
U 1 1 60A01C94
P 4900 1900
F 0 "#PWR022" H 4900 1750 50  0001 C CNN
F 1 "+3.3V" H 4915 2073 50  0000 C CNN
F 2 "" H 4900 1900 50  0001 C CNN
F 3 "" H 4900 1900 50  0001 C CNN
	1    4900 1900
	1    0    0    -1  
$EndComp
$Comp
L Device:R_US R?
U 1 1 60A026DE
P 4650 2150
AR Path="/609302C0/60A026DE" Ref="R?"  Part="1" 
AR Path="/609304A1/60A026DE" Ref="R?"  Part="1" 
AR Path="/6093034B/60A026DE" Ref="R7"  Part="1" 
F 0 "R7" V 4718 2196 50  0000 L CNN
F 1 "56K" V 4718 2105 50  0000 R CNN
F 2 "Resistor_SMD:R_0805_2012Metric" V 4690 2140 50  0001 C CNN
F 3 "~" H 4650 2150 50  0001 C CNN
	1    4650 2150
	0    -1   -1   0   
$EndComp
$Comp
L power:GND #PWR024
U 1 1 60A052EC
P 4450 2200
F 0 "#PWR024" H 4450 1950 50  0001 C CNN
F 1 "GND" H 4455 2027 50  0000 C CNN
F 2 "" H 4450 2200 50  0001 C CNN
F 3 "" H 4450 2200 50  0001 C CNN
	1    4450 2200
	1    0    0    -1  
$EndComp
Wire Wire Line
	4900 2150 4800 2150
Wire Wire Line
	4500 2150 4450 2150
Wire Wire Line
	4450 2150 4450 2200
$Comp
L power:GND #PWR035
U 1 1 60A0A369
P 4850 5200
F 0 "#PWR035" H 4850 4950 50  0001 C CNN
F 1 "GND" H 4855 5027 50  0000 C CNN
F 2 "" H 4850 5200 50  0001 C CNN
F 3 "" H 4850 5200 50  0001 C CNN
	1    4850 5200
	1    0    0    -1  
$EndComp
Wire Wire Line
	4900 5150 4850 5150
Wire Wire Line
	4850 5150 4850 5200
$Comp
L roket-rescue:SMA-J-P-H-ST-EM1-SMA-J-P-H-ST-EM1 J1
U 1 1 60A5B5C7
P 9450 5850
F 0 "J1" H 9290 5936 50  0000 R CNN
F 1 "SMA-J-P-H-ST-EM1" H 9290 5845 50  0000 R CNN
F 2 "others:SMA-J-P-H-ST-EM1" H 9450 5850 50  0001 L BNN
F 3 "" H 9450 5850 50  0001 L BNN
F 4 "3.675mm" H 9450 5850 50  0001 L BNN "MAXIMUM_PACKAGE_HEIGHT"
F 5 "Samtec" H 9450 5850 50  0001 L BNN "MANUFACTURER"
F 6 "G" H 9450 5850 50  0001 L BNN "PARTREV"
F 7 "Manufacturer Recommendations" H 9450 5850 50  0001 L BNN "STANDARD"
	1    9450 5850
	-1   0    0    -1  
$EndComp
Wire Wire Line
	9200 5750 9350 5750
$Comp
L power:GND #PWR038
U 1 1 60A5F5DF
P 9350 5950
F 0 "#PWR038" H 9350 5700 50  0001 C CNN
F 1 "GND" H 9355 5777 50  0000 C CNN
F 2 "" H 9350 5950 50  0001 C CNN
F 3 "" H 9350 5950 50  0001 C CNN
	1    9350 5950
	1    0    0    -1  
$EndComp
Wire Wire Line
	9350 5850 9350 5950
$Comp
L roket-rescue:ABM8W-40.0000MHZ-4-B1U-T3-ABM8W-40.0000MHZ-4-B1U-T3 Y1
U 1 1 60A64FF0
P 3600 2550
F 0 "Y1" H 3600 2917 50  0000 C CNN
F 1 "ABM8W-40.0000MHZ-4-B1U-T3" H 3600 2826 50  0000 C CNN
F 2 "others:ABM8W-40.0000MHZ-4-B1U-T3" H 3600 2550 50  0001 L BNN
F 3 "" H 3600 2550 50  0001 L BNN
F 4 "Abracon" H 3600 2550 50  0001 L BNN "MANUFACTURER"
	1    3600 2550
	1    0    0    -1  
$EndComp
$Comp
L power:GND #PWR027
U 1 1 60A70A33
P 4350 3100
F 0 "#PWR027" H 4350 2850 50  0001 C CNN
F 1 "GND" H 4355 2927 50  0000 C CNN
F 2 "" H 4350 3100 50  0001 C CNN
F 3 "" H 4350 3100 50  0001 C CNN
	1    4350 3100
	1    0    0    -1  
$EndComp
$Comp
L power:GND #PWR023
U 1 1 60A7339A
P 3800 2000
F 0 "#PWR023" H 3800 1750 50  0001 C CNN
F 1 "GND" H 3805 1827 50  0000 C CNN
F 2 "" H 3800 2000 50  0001 C CNN
F 3 "" H 3800 2000 50  0001 C CNN
	1    3800 2000
	1    0    0    -1  
$EndComp
Wire Wire Line
	4250 2450 4000 2450
Wire Wire Line
	4000 2650 4350 2650
Wire Wire Line
	4350 2650 4350 2750
Wire Wire Line
	4900 2650 4350 2650
Connection ~ 4350 2650
Wire Wire Line
	4250 2450 4250 2550
Wire Wire Line
	4250 2550 4900 2550
Wire Wire Line
	4150 2000 4250 2000
Wire Wire Line
	4250 2000 4250 2450
Connection ~ 4250 2450
$Comp
L power:GND #PWR026
U 1 1 60A8DBDA
P 3200 2700
F 0 "#PWR026" H 3200 2450 50  0001 C CNN
F 1 "GND" H 3205 2527 50  0000 C CNN
F 2 "" H 3200 2700 50  0001 C CNN
F 3 "" H 3200 2700 50  0001 C CNN
	1    3200 2700
	1    0    0    -1  
$EndComp
Wire Wire Line
	8650 3000 8650 3350
Wire Wire Line
	6700 3000 8650 3000
Wire Wire Line
	8250 3100 8250 3350
Wire Wire Line
	6700 3100 8250 3100
Wire Wire Line
	7850 3200 7850 3350
Wire Wire Line
	6700 3200 7850 3200
Wire Wire Line
	7450 3300 6700 3300
Wire Wire Line
	7450 3350 7450 3300
Wire Wire Line
	7450 3700 7450 3650
$Comp
L power:GND #PWR029
U 1 1 609AF991
P 7450 3700
F 0 "#PWR029" H 7450 3450 50  0001 C CNN
F 1 "GND" H 7455 3527 50  0000 C CNN
F 2 "" H 7450 3700 50  0001 C CNN
F 3 "" H 7450 3700 50  0001 C CNN
	1    7450 3700
	1    0    0    -1  
$EndComp
$Comp
L roket-rescue:Cap-805_cap C?
U 1 1 609AF98B
P 7450 3450
AR Path="/609302C0/609AF98B" Ref="C?"  Part="1" 
AR Path="/6093034B/609AF98B" Ref="C14"  Part="1" 
F 0 "C14" V 7454 3553 50  0000 L CNN
F 1 "47nF" V 7545 3553 50  0000 L CNN
F 2 "Capacitor_SMD:C_0805_2012Metric" H 7450 3450 50  0001 L BNN
F 3 "" H 7450 3450 50  0001 L BNN
	1    7450 3450
	0    1    1    0   
$EndComp
Wire Wire Line
	7850 3700 7850 3650
$Comp
L power:GND #PWR030
U 1 1 609AC23C
P 7850 3700
F 0 "#PWR030" H 7850 3450 50  0001 C CNN
F 1 "GND" H 7855 3527 50  0000 C CNN
F 2 "" H 7850 3700 50  0001 C CNN
F 3 "" H 7850 3700 50  0001 C CNN
	1    7850 3700
	1    0    0    -1  
$EndComp
$Comp
L roket-rescue:Cap-805_cap C?
U 1 1 609AC236
P 7850 3450
AR Path="/609302C0/609AC236" Ref="C?"  Part="1" 
AR Path="/6093034B/609AC236" Ref="C15"  Part="1" 
F 0 "C15" V 7854 3553 50  0000 L CNN
F 1 "47nF" V 7945 3553 50  0000 L CNN
F 2 "Capacitor_SMD:C_0805_2012Metric" H 7850 3450 50  0001 L BNN
F 3 "" H 7850 3450 50  0001 L BNN
	1    7850 3450
	0    1    1    0   
$EndComp
Wire Wire Line
	8250 3700 8250 3650
$Comp
L power:GND #PWR031
U 1 1 609A20CD
P 8250 3700
F 0 "#PWR031" H 8250 3450 50  0001 C CNN
F 1 "GND" H 8255 3527 50  0000 C CNN
F 2 "" H 8250 3700 50  0001 C CNN
F 3 "" H 8250 3700 50  0001 C CNN
	1    8250 3700
	1    0    0    -1  
$EndComp
$Comp
L roket-rescue:Cap-805_cap C?
U 1 1 609A20C7
P 8250 3450
AR Path="/609302C0/609A20C7" Ref="C?"  Part="1" 
AR Path="/6093034B/609A20C7" Ref="C16"  Part="1" 
F 0 "C16" V 8254 3553 50  0000 L CNN
F 1 "10nF" V 8345 3553 50  0000 L CNN
F 2 "Capacitor_SMD:C_0805_2012Metric" H 8250 3450 50  0001 L BNN
F 3 "" H 8250 3450 50  0001 L BNN
	1    8250 3450
	0    1    1    0   
$EndComp
Wire Wire Line
	8650 3700 8650 3650
$Comp
L power:GND #PWR032
U 1 1 6097A1CF
P 8650 3700
F 0 "#PWR032" H 8650 3450 50  0001 C CNN
F 1 "GND" H 8655 3527 50  0000 C CNN
F 2 "" H 8650 3700 50  0001 C CNN
F 3 "" H 8650 3700 50  0001 C CNN
	1    8650 3700
	1    0    0    -1  
$EndComp
$Comp
L roket-rescue:Cap-805_cap C?
U 1 1 6097A1C3
P 8650 3450
AR Path="/609302C0/6097A1C3" Ref="C?"  Part="1" 
AR Path="/6093034B/6097A1C3" Ref="C17"  Part="1" 
F 0 "C17" V 8654 3553 50  0000 L CNN
F 1 "220nF" V 8745 3553 50  0000 L CNN
F 2 "Capacitor_SMD:C_0805_2012Metric" H 8650 3450 50  0001 L BNN
F 3 "" H 8650 3450 50  0001 L BNN
	1    8650 3450
	0    1    1    0   
$EndComp
Wire Wire Line
	3850 2000 3800 2000
Wire Wire Line
	4900 1900 4900 1950
Wire Wire Line
	4350 3050 4350 3100
Wire Wire Line
	3200 2650 3200 2700
Wire Wire Line
	4900 3250 4900 3300
Wire Wire Line
	8650 6100 8650 6150
Wire Wire Line
	4300 4450 4300 4550
Wire Wire Line
	4300 4550 4450 4550
Wire Wire Line
	4300 4150 4300 4100
Wire Wire Line
	4300 4100 4500 4100
Wire Wire Line
	4500 4100 4500 4200
Wire Wire Line
	3450 4550 3750 4550
Wire Wire Line
	3450 4950 3750 4950
Wire Wire Line
	4050 4950 4250 4950
Wire Wire Line
	4150 4550 4300 4550
Connection ~ 4300 4550
Wire Wire Line
	4250 5450 4250 5400
$Comp
L roket-rescue:Cap-805_cap C?
U 1 1 609B9FEB
P 7450 5050
AR Path="/609302C0/609B9FEB" Ref="C?"  Part="1" 
AR Path="/6093034B/609B9FEB" Ref="C21"  Part="1" 
F 0 "C21" V 7454 5153 50  0000 L CNN
F 1 "15pF" V 7545 5153 50  0000 L CNN
F 2 "Capacitor_SMD:C_0805_2012Metric" H 7450 5050 50  0001 L BNN
F 3 "" H 7450 5050 50  0001 L BNN
	1    7450 5050
	0    1    1    0   
$EndComp
$Comp
L roket-rescue:Cap-805_cap C?
U 1 1 609BD28D
P 3950 2000
AR Path="/609302C0/609BD28D" Ref="C?"  Part="1" 
AR Path="/609304A1/609BD28D" Ref="C?"  Part="1" 
AR Path="/6093034B/609BD28D" Ref="C10"  Part="1" 
F 0 "C10" H 3954 2103 50  0000 R BNN
F 1 "15pF" H 4045 2103 50  0000 L BNN
F 2 "Capacitor_SMD:C_0805_2012Metric" H 3950 2000 50  0001 L BNN
F 3 "" H 3950 2000 50  0001 L BNN
	1    3950 2000
	1    0    0    -1  
$EndComp
$Comp
L roket-rescue:Cap-805_cap C?
U 1 1 609BA61A
P 4350 2950
AR Path="/609302C0/609BA61A" Ref="C?"  Part="1" 
AR Path="/6093034B/609BA61A" Ref="C13"  Part="1" 
F 0 "C13" V 4354 3053 50  0000 L CNN
F 1 "15pF" V 4445 3053 50  0000 L CNN
F 2 "Capacitor_SMD:C_0805_2012Metric" H 4350 2950 50  0001 L BNN
F 3 "" H 4350 2950 50  0001 L BNN
	1    4350 2950
	0    -1   -1   0   
$EndComp
$EndSCHEMATC
