EESchema Schematic File Version 4
EELAYER 30 0
EELAYER END
$Descr A4 11693 8268
encoding utf-8
Sheet 11 15
Title ""
Date ""
Rev ""
Comp ""
Comment1 ""
Comment2 ""
Comment3 ""
Comment4 ""
$EndDescr
$Comp
L roket-rescue:CP2102N-A01-GQFN28-CP2102N-A01-GQFN28 U7
U 1 1 60A1778D
P 8250 3300
F 0 "U7" H 8250 4667 50  0000 C CNN
F 1 "CP2102N-A01-GQFN28" H 8250 4576 50  0000 C CNN
F 2 "Package_DFN_QFN:QFN-28-1EP_5x5mm_P0.5mm_EP3.35x3.35mm" H 8250 3300 50  0001 L BNN
F 3 "" H 8250 3300 50  0001 L BNN
F 4 "0.8mm" H 8250 3300 50  0001 L BNN "MAXIMUM_PACKAGE_HEIGHT"
F 5 "IPC 7351B" H 8250 3300 50  0001 L BNN "STANDARD"
F 6 "1.0" H 8250 3300 50  0001 L BNN "PARTREV"
F 7 "SILICON LABS" H 8250 3300 50  0001 L BNN "MANUFACTURER"
	1    8250 3300
	1    0    0    -1  
$EndComp
$Comp
L roket-rescue:SS8050-G-SS8050-G Q3
U 1 1 60A18E8C
P 2800 4350
F 0 "Q3" H 2944 4396 50  0000 L CNN
F 1 "SS8050-G" H 2944 4305 50  0000 L CNN
F 2 "digikey-footprints:SOT-23-3" H 2800 4350 50  0001 L BNN
F 3 "" H 2800 4350 50  0001 L BNN
F 4 "IPC 7351B" H 2800 4350 50  0001 L BNN "STANDARD"
F 5 "7" H 2800 4350 50  0001 L BNN "PARTREV"
F 6 "1.1 mm" H 2800 4350 50  0001 L BNN "MAXIMUM_PACKAGE_HEIGHT"
F 7 "Nexperia" H 2800 4350 50  0001 L BNN "MANUFACTURER"
	1    2800 4350
	1    0    0    -1  
$EndComp
$Comp
L roket-rescue:SS8050-G-SS8050-G Q4
U 1 1 60A195E8
P 2800 5000
F 0 "Q4" H 2944 4954 50  0000 L CNN
F 1 "SS8050-G" H 2944 5045 50  0000 L CNN
F 2 "digikey-footprints:SOT-23-3" H 2800 5000 50  0001 L BNN
F 3 "" H 2800 5000 50  0001 L BNN
F 4 "IPC 7351B" H 2800 5000 50  0001 L BNN "STANDARD"
F 5 "7" H 2800 5000 50  0001 L BNN "PARTREV"
F 6 "1.1 mm" H 2800 5000 50  0001 L BNN "MAXIMUM_PACKAGE_HEIGHT"
F 7 "Nexperia" H 2800 5000 50  0001 L BNN "MANUFACTURER"
	1    2800 5000
	1    0    0    1   
$EndComp
$Comp
L roket-rescue:Cap-805_cap C?
U 1 1 60A221D8
P 9350 2350
AR Path="/609302C0/60A221D8" Ref="C?"  Part="1" 
AR Path="/6093034B/60A221D8" Ref="C?"  Part="1" 
AR Path="/609302F8/60A221D8" Ref="C16"  Part="1" 
F 0 "C16" V 9354 2453 50  0000 L CNN
F 1 "0.1uF" V 9445 2453 50  0000 L CNN
F 2 "Capacitor_SMD:C_0805_2012Metric" H 9350 2350 50  0001 L BNN
F 3 "" H 9350 2350 50  0001 L BNN
	1    9350 2350
	0    1    1    0   
$EndComp
$Comp
L power:GND #PWR?
U 1 1 60A221DE
P 9350 2600
AR Path="/6093034B/60A221DE" Ref="#PWR?"  Part="1" 
AR Path="/609302F8/60A221DE" Ref="#PWR060"  Part="1" 
F 0 "#PWR060" H 9350 2350 50  0001 C CNN
F 1 "GND" H 9355 2427 50  0000 C CNN
F 2 "" H 9350 2600 50  0001 C CNN
F 3 "" H 9350 2600 50  0001 C CNN
	1    9350 2600
	1    0    0    -1  
$EndComp
$Comp
L roket-rescue:Cap-805_cap C?
U 1 1 60A22482
P 9750 2350
AR Path="/609302C0/60A22482" Ref="C?"  Part="1" 
AR Path="/6093034B/60A22482" Ref="C?"  Part="1" 
AR Path="/609302F8/60A22482" Ref="C17"  Part="1" 
F 0 "C17" V 9754 2453 50  0000 L CNN
F 1 "4.7uF" V 9845 2453 50  0000 L CNN
F 2 "Capacitor_SMD:C_0805_2012Metric" H 9750 2350 50  0001 L BNN
F 3 "" H 9750 2350 50  0001 L BNN
	1    9750 2350
	0    1    1    0   
$EndComp
$Comp
L power:GND #PWR?
U 1 1 60A22488
P 9750 2600
AR Path="/6093034B/60A22488" Ref="#PWR?"  Part="1" 
AR Path="/609302F8/60A22488" Ref="#PWR061"  Part="1" 
F 0 "#PWR061" H 9750 2350 50  0001 C CNN
F 1 "GND" H 9755 2427 50  0000 C CNN
F 2 "" H 9750 2600 50  0001 C CNN
F 3 "" H 9750 2600 50  0001 C CNN
	1    9750 2600
	1    0    0    -1  
$EndComp
$Comp
L Device:R_US R?
U 1 1 60A22D31
P 2300 4350
AR Path="/609302C0/60A22D31" Ref="R?"  Part="1" 
AR Path="/609304A1/60A22D31" Ref="R?"  Part="1" 
AR Path="/6093034B/60A22D31" Ref="R?"  Part="1" 
AR Path="/609302F8/60A22D31" Ref="R23"  Part="1" 
F 0 "R23" V 2368 4396 50  0000 L CNN
F 1 "10K" V 2368 4305 50  0000 R CNN
F 2 "Resistor_SMD:R_0805_2012Metric" V 2340 4340 50  0001 C CNN
F 3 "~" H 2300 4350 50  0001 C CNN
	1    2300 4350
	0    -1   -1   0   
$EndComp
$Comp
L Device:R_US R?
U 1 1 60A22EA8
P 2300 5000
AR Path="/609302C0/60A22EA8" Ref="R?"  Part="1" 
AR Path="/609304A1/60A22EA8" Ref="R?"  Part="1" 
AR Path="/6093034B/60A22EA8" Ref="R?"  Part="1" 
AR Path="/609302F8/60A22EA8" Ref="R24"  Part="1" 
F 0 "R24" V 2368 5046 50  0000 L CNN
F 1 "10K" V 2368 4955 50  0000 R CNN
F 2 "Resistor_SMD:R_0805_2012Metric" V 2340 4990 50  0001 C CNN
F 3 "~" H 2300 5000 50  0001 C CNN
	1    2300 5000
	0    -1   -1   0   
$EndComp
Wire Wire Line
	9150 2300 9150 2200
Wire Wire Line
	9750 2200 9750 2250
Wire Wire Line
	9150 2200 9350 2200
Connection ~ 9150 2200
Wire Wire Line
	9350 2250 9350 2200
Connection ~ 9350 2200
Wire Wire Line
	9350 2200 9750 2200
$Comp
L power:+3.3V #PWR055
U 1 1 60A245B3
P 9750 2150
F 0 "#PWR055" H 9750 2000 50  0001 C CNN
F 1 "+3.3V" H 9765 2323 50  0000 C CNN
F 2 "" H 9750 2150 50  0001 C CNN
F 3 "" H 9750 2150 50  0001 C CNN
	1    9750 2150
	1    0    0    -1  
$EndComp
Wire Wire Line
	7350 2200 7250 2200
Wire Wire Line
	7250 2200 7250 2150
Text HLabel 7250 2700 0    50   Input ~ 0
RXD0
Text HLabel 7250 2600 0    50   Input ~ 0
TXD0
Text HLabel 3000 4050 2    50   Input ~ 0
EN
Text HLabel 3000 5300 2    50   Input ~ 0
I0O
Wire Wire Line
	2900 4150 2900 4050
Wire Wire Line
	2900 4050 3000 4050
Wire Wire Line
	2900 5200 2900 5300
Wire Wire Line
	2900 5300 3000 5300
Wire Wire Line
	2900 4800 2900 4750
Wire Wire Line
	2900 4750 2000 4750
Wire Wire Line
	2000 4750 2000 4350
Wire Wire Line
	2000 4350 2150 4350
Wire Wire Line
	2450 4350 2700 4350
Wire Wire Line
	2450 5000 2700 5000
Wire Wire Line
	2900 4550 2900 4650
Wire Wire Line
	2900 4650 1900 4650
Wire Wire Line
	1900 4650 1900 5000
Wire Wire Line
	1900 5000 2150 5000
Text Label 1700 4350 0    50   ~ 0
DTR
Text Label 1700 5000 0    50   ~ 0
RTS
Wire Wire Line
	1700 4350 2000 4350
Connection ~ 2000 4350
Wire Wire Line
	1700 5000 1900 5000
Connection ~ 1900 5000
$Comp
L roket-rescue:SS24-SS24 D5
U 1 1 60A2EA2E
P 2550 1450
F 0 "D5" H 2550 1233 50  0000 C CNN
F 1 "SS24" H 2550 1324 50  0000 C CNN
F 2 "others:SS24" H 2550 1450 50  0001 L BNN
F 3 "" H 2550 1450 50  0001 L BNN
F 4 "IPC 7351B" H 2550 1450 50  0001 L BNN "STANDARD"
F 5 "1.1.2" H 2550 1450 50  0001 L BNN "PARTREV"
F 6 "ON Semiconductor" H 2550 1450 50  0001 L BNN "MANUFACTURER"
F 7 "2.65 mm" H 2550 1450 50  0001 L BNN "MAXIMUM_PACKAGE_HEIGHT"
	1    2550 1450
	-1   0    0    1   
$EndComp
$Comp
L roket-rescue:PESD1LIN-SOD323_ESD D8
U 1 1 60A30002
P 3200 2100
F 0 "D8" H 2980 2096 50  0000 L CNN
F 1 "ESD" H 2980 2005 50  0000 L CNN
F 2 "Diode_SMD:D_SOD-323" H 3200 2100 50  0001 L BNN
F 3 "" H 3200 2100 50  0001 L BNN
	1    3200 2100
	1    0    0    -1  
$EndComp
$Comp
L roket-rescue:PESD1LIN-SOD323_ESD D7
U 1 1 60A34639
P 2600 2100
F 0 "D7" H 2380 2096 50  0000 L CNN
F 1 "ESD" H 2380 2005 50  0000 L CNN
F 2 "Diode_SMD:D_SOD-323" H 2600 2100 50  0001 L BNN
F 3 "" H 2600 2100 50  0001 L BNN
	1    2600 2100
	1    0    0    -1  
$EndComp
$Comp
L roket-rescue:PESD1LIN-SOD323_ESD D6
U 1 1 60A34E82
P 2300 2100
F 0 "D6" H 2080 2096 50  0000 L CNN
F 1 "ESD" H 2080 2005 50  0000 L CNN
F 2 "Diode_SMD:D_SOD-323" H 2300 2100 50  0001 L BNN
F 3 "" H 2300 2100 50  0001 L BNN
	1    2300 2100
	1    0    0    -1  
$EndComp
Wire Wire Line
	2300 1650 2300 1900
Wire Wire Line
	2000 1550 2000 1900
Wire Wire Line
	2000 1550 3200 1550
Wire Wire Line
	2300 1650 3200 1650
Wire Wire Line
	2900 1900 2900 1450
Wire Wire Line
	2900 1450 2750 1450
Wire Wire Line
	2900 1450 3200 1450
Connection ~ 2900 1450
$Comp
L power:GND #PWR057
U 1 1 60A3ECB4
P 2000 2450
F 0 "#PWR057" H 2000 2200 50  0001 C CNN
F 1 "GND" H 2005 2277 50  0000 C CNN
F 2 "" H 2000 2450 50  0001 C CNN
F 3 "" H 2000 2450 50  0001 C CNN
	1    2000 2450
	1    0    0    -1  
$EndComp
$Comp
L power:GND #PWR058
U 1 1 60A3F337
P 2300 2450
F 0 "#PWR058" H 2300 2200 50  0001 C CNN
F 1 "GND" H 2305 2277 50  0000 C CNN
F 2 "" H 2300 2450 50  0001 C CNN
F 3 "" H 2300 2450 50  0001 C CNN
	1    2300 2450
	1    0    0    -1  
$EndComp
$Comp
L power:GND #PWR059
U 1 1 60A400C8
P 2900 2450
F 0 "#PWR059" H 2900 2200 50  0001 C CNN
F 1 "GND" H 2905 2277 50  0000 C CNN
F 2 "" H 2900 2450 50  0001 C CNN
F 3 "" H 2900 2450 50  0001 C CNN
	1    2900 2450
	1    0    0    -1  
$EndComp
$Comp
L power:GND #PWR053
U 1 1 60A407F6
P 3200 2050
F 0 "#PWR053" H 3200 1800 50  0001 C CNN
F 1 "GND" H 3205 1877 50  0000 C CNN
F 2 "" H 3200 2050 50  0001 C CNN
F 3 "" H 3200 2050 50  0001 C CNN
	1    3200 2050
	1    0    0    -1  
$EndComp
Text Label 2000 1550 0    50   ~ 0
USB_DN
Text Label 2300 1650 0    50   ~ 0
USB_DP
Wire Wire Line
	2350 1450 2250 1450
Wire Wire Line
	2250 1450 2250 1400
$Comp
L power:GND #PWR?
U 1 1 60A4273F
P 9150 4450
AR Path="/6093034B/60A4273F" Ref="#PWR?"  Part="1" 
AR Path="/609302F8/60A4273F" Ref="#PWR063"  Part="1" 
F 0 "#PWR063" H 9150 4200 50  0001 C CNN
F 1 "GND" H 9155 4277 50  0000 C CNN
F 2 "" H 9150 4450 50  0001 C CNN
F 3 "" H 9150 4450 50  0001 C CNN
	1    9150 4450
	1    0    0    -1  
$EndComp
$Comp
L Device:R_US R?
U 1 1 60A43EE1
P 7050 3700
AR Path="/609302C0/60A43EE1" Ref="R?"  Part="1" 
AR Path="/609304A1/60A43EE1" Ref="R?"  Part="1" 
AR Path="/6093034B/60A43EE1" Ref="R?"  Part="1" 
AR Path="/609302F8/60A43EE1" Ref="R22"  Part="1" 
F 0 "R22" V 7118 3746 50  0000 L CNN
F 1 "2K" V 7118 3655 50  0000 R CNN
F 2 "Resistor_SMD:R_0805_2012Metric" V 7090 3690 50  0001 C CNN
F 3 "~" H 7050 3700 50  0001 C CNN
	1    7050 3700
	0    -1   -1   0   
$EndComp
$Comp
L power:+3.3V #PWR062
U 1 1 60A44D30
P 6800 3700
F 0 "#PWR062" H 6800 3550 50  0001 C CNN
F 1 "+3.3V" H 6815 3873 50  0000 C CNN
F 2 "" H 6800 3700 50  0001 C CNN
F 3 "" H 6800 3700 50  0001 C CNN
	1    6800 3700
	1    0    0    -1  
$EndComp
Wire Wire Line
	6900 3700 6800 3700
Wire Wire Line
	7200 3700 7350 3700
Text Label 7000 3100 0    50   ~ 0
DTR
Text Label 7000 2800 0    50   ~ 0
RTS
Text Label 7000 3500 0    50   ~ 0
USB_DN
Text Label 7000 3400 0    50   ~ 0
USB_DP
Wire Wire Line
	7000 3100 7350 3100
Wire Wire Line
	7000 2800 7350 2800
Wire Wire Line
	7000 3400 7350 3400
Wire Wire Line
	7000 3500 7350 3500
Wire Wire Line
	7250 2600 7350 2600
Wire Wire Line
	7250 2700 7350 2700
NoConn ~ 7350 2900
NoConn ~ 7350 3000
NoConn ~ 7350 3200
NoConn ~ 7350 4000
NoConn ~ 9150 4100
NoConn ~ 9150 4300
NoConn ~ 9150 4000
NoConn ~ 9150 3900
NoConn ~ 9150 3700
NoConn ~ 9150 3600
NoConn ~ 9150 3400
NoConn ~ 9150 3300
NoConn ~ 9150 3200
NoConn ~ 9150 3100
NoConn ~ 9150 3000
NoConn ~ 9150 2900
NoConn ~ 9150 2800
$Comp
L roket-rescue:10118194-0001LF-dk_USB-DVI-HDMI-Connectors J4
U 1 1 60970DFA
P 3500 1650
F 0 "J4" H 3286 1674 60  0000 R CNN
F 1 "10118194-0001LF" H 3286 1568 60  0000 R CNN
F 2 "digikey-footprints:USB_Micro_B_Female_10118194-0001LF" H 3700 1850 60  0001 L CNN
F 3 "http://www.amphenol-icc.com/media/wysiwyg/files/drawing/10118194.pdf" H 3700 1950 60  0001 L CNN
F 4 "609-4618-1-ND" H 3700 2050 60  0001 L CNN "Digi-Key_PN"
F 5 "10118194-0001LF" H 3700 2150 60  0001 L CNN "MPN"
F 6 "Connectors, Interconnects" H 3700 2250 60  0001 L CNN "Category"
F 7 "USB, DVI, HDMI Connectors" H 3700 2350 60  0001 L CNN "Family"
F 8 "http://www.amphenol-icc.com/media/wysiwyg/files/drawing/10118194.pdf" H 3700 2450 60  0001 L CNN "DK_Datasheet_Link"
F 9 "/product-detail/en/amphenol-icc-fci/10118194-0001LF/609-4618-1-ND/2785382" H 3700 2550 60  0001 L CNN "DK_Detail_Page"
F 10 "CONN RCPT USB2.0 MICRO B SMD R/A" H 3700 2650 60  0001 L CNN "Description"
F 11 "Amphenol ICC (FCI)" H 3700 2750 60  0001 L CNN "Manufacturer"
F 12 "Active" H 3700 2850 60  0001 L CNN "Status"
	1    3500 1650
	-1   0    0    -1  
$EndComp
Wire Wire Line
	3200 2050 3200 1850
$Comp
L power:GND #PWR056
U 1 1 60987D11
P 3600 2350
F 0 "#PWR056" H 3600 2100 50  0001 C CNN
F 1 "GND" H 3605 2177 50  0000 C CNN
F 2 "" H 3600 2350 50  0001 C CNN
F 3 "" H 3600 2350 50  0001 C CNN
	1    3600 2350
	1    0    0    -1  
$EndComp
Wire Wire Line
	3600 2350 3600 2250
NoConn ~ 3200 1750
Wire Wire Line
	9750 2600 9750 2550
Wire Wire Line
	9350 2600 9350 2550
Wire Wire Line
	9750 2200 9750 2150
Connection ~ 9750 2200
Wire Wire Line
	9150 4450 9150 4400
Wire Wire Line
	2000 2450 2000 2400
Wire Wire Line
	2300 2450 2300 2400
Wire Wire Line
	2900 2450 2900 2400
$Comp
L power:+3.3V #PWR054
U 1 1 61429282
P 7250 2150
F 0 "#PWR054" H 7250 2000 50  0001 C CNN
F 1 "+3.3V" H 7265 2323 50  0000 C CNN
F 2 "" H 7250 2150 50  0001 C CNN
F 3 "" H 7250 2150 50  0001 C CNN
	1    7250 2150
	1    0    0    -1  
$EndComp
$Comp
L power:VCC #PWR?
U 1 1 617D28C8
P 2250 1400
AR Path="/6092FBF4/617D28C8" Ref="#PWR?"  Part="1" 
AR Path="/609302F8/617D28C8" Ref="#PWR052"  Part="1" 
F 0 "#PWR052" H 2250 1250 50  0001 C CNN
F 1 "VCC" H 2265 1573 50  0000 C CNN
F 2 "" H 2250 1400 50  0001 C CNN
F 3 "" H 2250 1400 50  0001 C CNN
	1    2250 1400
	1    0    0    -1  
$EndComp
$EndSCHEMATC
