(kicad_sch (version 20211123) (generator eeschema)

  (uuid b5a58a41-300e-46c8-be48-7d86538cfb59)

  (paper "A4")

  (lib_symbols
    (symbol "MS5611-cache:MS5611-01BA" (in_bom yes) (on_board yes)
      (property "Reference" "U" (id 0) (at -6.35 8.89 0)
        (effects (font (size 1.27 1.27)))
      )
      (property "Value" "MS5611-01BA" (id 1) (at 7.62 8.89 0)
        (effects (font (size 1.27 1.27)))
      )
      (property "Footprint" "Package_LGA:LGA-8_3x5mm_P1.25mm" (id 2) (at 1.27 -8.89 0)
        (effects (font (size 1.27 1.27)) hide)
      )
      (property "Datasheet" "" (id 3) (at 0 0 0)
        (effects (font (size 1.27 1.27)) hide)
      )
      (property "ki_fp_filters" "LGA*3x5mm*P1.25mm*" (id 4) (at 0 0 0)
        (effects (font (size 1.27 1.27)) hide)
      )
      (symbol "MS5611-01BA_0_1"
        (rectangle (start -7.62 7.62) (end 7.62 -7.62)
          (stroke (width 0.254) (type default) (color 0 0 0 0))
          (fill (type background))
        )
      )
      (symbol "MS5611-01BA_1_1"
        (pin power_in line (at 10.16 5.08 180) (length 2.54)
          (name "VDD" (effects (font (size 1.27 1.27))))
          (number "1" (effects (font (size 1.27 1.27))))
        )
        (pin input line (at -10.16 -5.08 0) (length 2.54)
          (name "PS" (effects (font (size 1.27 1.27))))
          (number "2" (effects (font (size 1.27 1.27))))
        )
        (pin power_in line (at 10.16 -5.08 180) (length 2.54)
          (name "GND" (effects (font (size 1.27 1.27))))
          (number "3" (effects (font (size 1.27 1.27))))
        )
        (pin input line (at -10.16 -2.54 0) (length 2.54)
          (name "CSB" (effects (font (size 1.27 1.27))))
          (number "4" (effects (font (size 1.27 1.27))))
        )
        (pin input line (at -10.16 -2.54 0) (length 2.54) hide
          (name "CSB" (effects (font (size 1.27 1.27))))
          (number "5" (effects (font (size 1.27 1.27))))
        )
        (pin output line (at -10.16 5.08 0) (length 2.54)
          (name "SDO" (effects (font (size 1.27 1.27))))
          (number "6" (effects (font (size 1.27 1.27))))
        )
        (pin bidirectional line (at -10.16 2.54 0) (length 2.54)
          (name "SDI/SDA" (effects (font (size 1.27 1.27))))
          (number "7" (effects (font (size 1.27 1.27))))
        )
        (pin input line (at -10.16 0 0) (length 2.54)
          (name "SCLK" (effects (font (size 1.27 1.27))))
          (number "8" (effects (font (size 1.27 1.27))))
        )
      )
    )
    (symbol "power:+3.3V" (power) (pin_names (offset 0)) (in_bom yes) (on_board yes)
      (property "Reference" "#PWR" (id 0) (at 0 -3.81 0)
        (effects (font (size 1.27 1.27)) hide)
      )
      (property "Value" "+3.3V" (id 1) (at 0 3.556 0)
        (effects (font (size 1.27 1.27)))
      )
      (property "Footprint" "" (id 2) (at 0 0 0)
        (effects (font (size 1.27 1.27)) hide)
      )
      (property "Datasheet" "" (id 3) (at 0 0 0)
        (effects (font (size 1.27 1.27)) hide)
      )
      (property "ki_keywords" "power-flag" (id 4) (at 0 0 0)
        (effects (font (size 1.27 1.27)) hide)
      )
      (property "ki_description" "Power symbol creates a global label with name \"+3.3V\"" (id 5) (at 0 0 0)
        (effects (font (size 1.27 1.27)) hide)
      )
      (symbol "+3.3V_0_1"
        (polyline
          (pts
            (xy -0.762 1.27)
            (xy 0 2.54)
          )
          (stroke (width 0) (type default) (color 0 0 0 0))
          (fill (type none))
        )
        (polyline
          (pts
            (xy 0 0)
            (xy 0 2.54)
          )
          (stroke (width 0) (type default) (color 0 0 0 0))
          (fill (type none))
        )
        (polyline
          (pts
            (xy 0 2.54)
            (xy 0.762 1.27)
          )
          (stroke (width 0) (type default) (color 0 0 0 0))
          (fill (type none))
        )
      )
      (symbol "+3.3V_1_1"
        (pin power_in line (at 0 0 90) (length 0) hide
          (name "+3V3" (effects (font (size 1.27 1.27))))
          (number "1" (effects (font (size 1.27 1.27))))
        )
      )
    )
    (symbol "power:GND" (power) (pin_names (offset 0)) (in_bom yes) (on_board yes)
      (property "Reference" "#PWR" (id 0) (at 0 -6.35 0)
        (effects (font (size 1.27 1.27)) hide)
      )
      (property "Value" "GND" (id 1) (at 0 -3.81 0)
        (effects (font (size 1.27 1.27)))
      )
      (property "Footprint" "" (id 2) (at 0 0 0)
        (effects (font (size 1.27 1.27)) hide)
      )
      (property "Datasheet" "" (id 3) (at 0 0 0)
        (effects (font (size 1.27 1.27)) hide)
      )
      (property "ki_keywords" "power-flag" (id 4) (at 0 0 0)
        (effects (font (size 1.27 1.27)) hide)
      )
      (property "ki_description" "Power symbol creates a global label with name \"GND\" , ground" (id 5) (at 0 0 0)
        (effects (font (size 1.27 1.27)) hide)
      )
      (symbol "GND_0_1"
        (polyline
          (pts
            (xy 0 0)
            (xy 0 -1.27)
            (xy 1.27 -1.27)
            (xy 0 -2.54)
            (xy -1.27 -1.27)
            (xy 0 -1.27)
          )
          (stroke (width 0) (type default) (color 0 0 0 0))
          (fill (type none))
        )
      )
      (symbol "GND_1_1"
        (pin power_in line (at 0 0 270) (length 0) hide
          (name "GND" (effects (font (size 1.27 1.27))))
          (number "1" (effects (font (size 1.27 1.27))))
        )
      )
    )
    (symbol "roket-rescue:Cap-805_cap" (pin_names (offset 1.016) hide) (in_bom yes) (on_board yes)
      (property "Reference" "C" (id 0) (at 0 3.81 0)
        (effects (font (size 1.27 1.27)) (justify left bottom))
      )
      (property "Value" "Cap-805_cap" (id 1) (at 0 -5.08 0)
        (effects (font (size 1.27 1.27)) (justify left bottom))
      )
      (property "Footprint" "CAPC2012X135N" (id 2) (at 0 0 0)
        (effects (font (size 1.27 1.27)) (justify left bottom) hide)
      )
      (property "Datasheet" "" (id 3) (at 0 0 0)
        (effects (font (size 1.27 1.27)) (justify left bottom) hide)
      )
      (property "ki_locked" "" (id 4) (at 0 0 0)
        (effects (font (size 1.27 1.27)))
      )
      (symbol "Cap-805_cap_0_0"
        (rectangle (start 0 -1.905) (end 0.635 1.905)
          (stroke (width 0) (type default) (color 0 0 0 0))
          (fill (type outline))
        )
        (rectangle (start 1.905 -1.905) (end 2.54 1.905)
          (stroke (width 0) (type default) (color 0 0 0 0))
          (fill (type outline))
        )
        (pin passive line (at 5.08 0 180) (length 2.54)
          (name "~" (effects (font (size 1.016 1.016))))
          (number "1" (effects (font (size 1.016 1.016))))
        )
        (pin passive line (at -2.54 0 0) (length 2.54)
          (name "~" (effects (font (size 1.016 1.016))))
          (number "2" (effects (font (size 1.016 1.016))))
        )
      )
    )
  )

  (junction (at 161.29 96.52) (diameter 0) (color 0 0 0 0)
    (uuid 4dbc41cd-43f3-4ad6-950b-2d53de69889f)
  )
  (junction (at 161.29 86.36) (diameter 0) (color 0 0 0 0)
    (uuid 689b7453-814c-485c-bba8-2f6e6b5a526d)
  )

  (wire (pts (xy 134.62 88.9) (xy 133.35 88.9))
    (stroke (width 0) (type default) (color 0 0 0 0))
    (uuid 06d59717-8131-4c10-a588-e5a79c6abfc0)
  )
  (wire (pts (xy 134.62 91.44) (xy 133.35 91.44))
    (stroke (width 0) (type default) (color 0 0 0 0))
    (uuid 168be3e2-dfdb-465b-94b0-08dc09e793ed)
  )
  (wire (pts (xy 133.35 96.52) (xy 133.35 97.79))
    (stroke (width 0) (type default) (color 0 0 0 0))
    (uuid 43ada13f-ad91-4aba-9535-39d39f1b7b90)
  )
  (wire (pts (xy 154.94 96.52) (xy 161.29 96.52))
    (stroke (width 0) (type default) (color 0 0 0 0))
    (uuid 7423bc2e-a4ef-43f7-8b8a-33670a7f83b1)
  )
  (wire (pts (xy 161.29 86.36) (xy 161.29 83.82))
    (stroke (width 0) (type default) (color 0 0 0 0))
    (uuid 840d0127-4ba4-4cbd-ab3a-7f19b74cbc9f)
  )
  (wire (pts (xy 161.29 96.52) (xy 161.29 97.79))
    (stroke (width 0) (type default) (color 0 0 0 0))
    (uuid 91e35496-c4cd-4566-8e13-6b8cc8062484)
  )
  (wire (pts (xy 119.38 93.98) (xy 134.62 93.98))
    (stroke (width 0) (type default) (color 0 0 0 0))
    (uuid c489368e-3721-437c-9216-3b5b3cf220c9)
  )
  (wire (pts (xy 134.62 86.36) (xy 133.35 86.36))
    (stroke (width 0) (type default) (color 0 0 0 0))
    (uuid e0afa5b3-46ce-49c9-a15e-fecc820147cb)
  )
  (wire (pts (xy 161.29 93.98) (xy 161.29 96.52))
    (stroke (width 0) (type default) (color 0 0 0 0))
    (uuid e8707636-593c-4b12-8e89-442833a1e92a)
  )
  (wire (pts (xy 134.62 96.52) (xy 133.35 96.52))
    (stroke (width 0) (type default) (color 0 0 0 0))
    (uuid f4f2a598-f03f-4f81-a2cc-917cd72c2e26)
  )
  (wire (pts (xy 154.94 86.36) (xy 161.29 86.36))
    (stroke (width 0) (type default) (color 0 0 0 0))
    (uuid fde8f3fe-df94-4b95-9e86-748350e8c95b)
  )

  (hierarchical_label "CS" (shape input) (at 119.38 93.98 180)
    (effects (font (size 1.27 1.27)) (justify right))
    (uuid 9274a5f7-f27c-4f6b-8973-bff888a29d08)
  )
  (hierarchical_label "MOSI" (shape input) (at 133.35 88.9 180)
    (effects (font (size 1.27 1.27)) (justify right))
    (uuid a4562140-6f26-428f-b856-87482b84fa38)
  )
  (hierarchical_label "MISO" (shape input) (at 133.35 86.36 180)
    (effects (font (size 1.27 1.27)) (justify right))
    (uuid b1ca3e0b-34ce-4229-a1de-c4269e4ccd13)
  )
  (hierarchical_label "SCLK" (shape input) (at 133.35 91.44 180)
    (effects (font (size 1.27 1.27)) (justify right))
    (uuid e427bc1d-e84c-40a1-a551-a82dce33e282)
  )

  (symbol (lib_id "roket-rescue:Cap-805_cap") (at 161.29 88.9 270) (unit 1)
    (in_bom yes) (on_board yes)
    (uuid 00000000-0000-0000-0000-000060aceebe)
    (property "Reference" "C9" (id 0) (at 163.9062 89.0016 90)
      (effects (font (size 1.27 1.27)) (justify left))
    )
    (property "Value" "0.1uF" (id 1) (at 163.9062 91.313 90)
      (effects (font (size 1.27 1.27)) (justify left))
    )
    (property "Footprint" "Capacitor_SMD:C_0805_2012Metric" (id 2) (at 161.29 88.9 0)
      (effects (font (size 1.27 1.27)) (justify left bottom) hide)
    )
    (property "Datasheet" "" (id 3) (at 161.29 88.9 0)
      (effects (font (size 1.27 1.27)) (justify left bottom) hide)
    )
    (pin "1" (uuid 06b8acb9-ec40-4bd1-a2a6-d2b08c348151))
    (pin "2" (uuid 93cdfed2-3225-4d79-8d8c-6aba121e08cf))
  )

  (symbol (lib_id "power:GND") (at 161.29 97.79 0) (unit 1)
    (in_bom yes) (on_board yes)
    (uuid 00000000-0000-0000-0000-000060aceecc)
    (property "Reference" "#PWR027" (id 0) (at 161.29 104.14 0)
      (effects (font (size 1.27 1.27)) hide)
    )
    (property "Value" "GND" (id 1) (at 161.417 102.1842 0))
    (property "Footprint" "" (id 2) (at 161.29 97.79 0)
      (effects (font (size 1.27 1.27)) hide)
    )
    (property "Datasheet" "" (id 3) (at 161.29 97.79 0)
      (effects (font (size 1.27 1.27)) hide)
    )
    (pin "1" (uuid 75a5312a-0df9-41bc-b474-75d31a92e975))
  )

  (symbol (lib_id "power:+3.3V") (at 161.29 83.82 0) (unit 1)
    (in_bom yes) (on_board yes)
    (uuid 00000000-0000-0000-0000-000060aceed2)
    (property "Reference" "#PWR026" (id 0) (at 161.29 87.63 0)
      (effects (font (size 1.27 1.27)) hide)
    )
    (property "Value" "+3.3V" (id 1) (at 161.671 79.4258 0))
    (property "Footprint" "" (id 2) (at 161.29 83.82 0)
      (effects (font (size 1.27 1.27)) hide)
    )
    (property "Datasheet" "" (id 3) (at 161.29 83.82 0)
      (effects (font (size 1.27 1.27)) hide)
    )
    (pin "1" (uuid 01ee0973-5b71-44d7-9589-687fc4288aac))
  )

  (symbol (lib_id "MS5611-cache:MS5611-01BA") (at 144.78 91.44 0) (unit 1)
    (in_bom yes) (on_board yes)
    (uuid 00000000-0000-0000-0000-000061605d72)
    (property "Reference" "U5" (id 0) (at 144.78 79.5782 0))
    (property "Value" "MS5611-01BA" (id 1) (at 144.78 81.8896 0))
    (property "Footprint" "Package_LGA:LGA-8_3x5mm_P1.25mm" (id 2) (at 146.05 100.33 0)
      (effects (font (size 1.27 1.27)) hide)
    )
    (property "Datasheet" "" (id 3) (at 144.78 91.44 0)
      (effects (font (size 1.27 1.27)) hide)
    )
    (pin "1" (uuid 32c40637-04ad-4485-98d2-7e2fbb521356))
    (pin "2" (uuid 27c95e12-9773-4de8-8621-2f5310468b3b))
    (pin "3" (uuid 9fc4800d-ff42-4c5c-97e3-44804ee05386))
    (pin "4" (uuid eae40881-2ff6-4e2a-afb0-2ea0c630b472))
    (pin "5" (uuid 06f44155-c185-4805-88c6-71de36295c8c))
    (pin "6" (uuid 66636d1a-ed78-43ac-95f3-e1fb1cc9eca0))
    (pin "7" (uuid cfe2066b-7527-447c-b249-fa9153be3d77))
    (pin "8" (uuid 9ba21c52-b272-485c-8308-c76d803f836a))
  )

  (symbol (lib_id "power:GND") (at 133.35 97.79 0) (unit 1)
    (in_bom yes) (on_board yes)
    (uuid 00000000-0000-0000-0000-000061606e38)
    (property "Reference" "#PWR025" (id 0) (at 133.35 104.14 0)
      (effects (font (size 1.27 1.27)) hide)
    )
    (property "Value" "GND" (id 1) (at 133.477 102.1842 0))
    (property "Footprint" "" (id 2) (at 133.35 97.79 0)
      (effects (font (size 1.27 1.27)) hide)
    )
    (property "Datasheet" "" (id 3) (at 133.35 97.79 0)
      (effects (font (size 1.27 1.27)) hide)
    )
    (pin "1" (uuid 64a47d55-50ee-40dd-8ab0-e864b0dd9ef2))
  )
)
