(kicad_sch (version 20211123) (generator eeschema)

  (uuid 79362e92-80ab-481b-b79b-2ca53682d3c4)

  (paper "A4")

  (lib_symbols
    (symbol "Device:R_US" (pin_numbers hide) (pin_names (offset 0)) (in_bom yes) (on_board yes)
      (property "Reference" "R" (id 0) (at 2.54 0 90)
        (effects (font (size 1.27 1.27)))
      )
      (property "Value" "R_US" (id 1) (at -2.54 0 90)
        (effects (font (size 1.27 1.27)))
      )
      (property "Footprint" "" (id 2) (at 1.016 -0.254 90)
        (effects (font (size 1.27 1.27)) hide)
      )
      (property "Datasheet" "~" (id 3) (at 0 0 0)
        (effects (font (size 1.27 1.27)) hide)
      )
      (property "ki_keywords" "R res resistor" (id 4) (at 0 0 0)
        (effects (font (size 1.27 1.27)) hide)
      )
      (property "ki_description" "Resistor, US symbol" (id 5) (at 0 0 0)
        (effects (font (size 1.27 1.27)) hide)
      )
      (property "ki_fp_filters" "R_*" (id 6) (at 0 0 0)
        (effects (font (size 1.27 1.27)) hide)
      )
      (symbol "R_US_0_1"
        (polyline
          (pts
            (xy 0 -2.286)
            (xy 0 -2.54)
          )
          (stroke (width 0) (type default) (color 0 0 0 0))
          (fill (type none))
        )
        (polyline
          (pts
            (xy 0 2.286)
            (xy 0 2.54)
          )
          (stroke (width 0) (type default) (color 0 0 0 0))
          (fill (type none))
        )
        (polyline
          (pts
            (xy 0 -0.762)
            (xy 1.016 -1.143)
            (xy 0 -1.524)
            (xy -1.016 -1.905)
            (xy 0 -2.286)
          )
          (stroke (width 0) (type default) (color 0 0 0 0))
          (fill (type none))
        )
        (polyline
          (pts
            (xy 0 0.762)
            (xy 1.016 0.381)
            (xy 0 0)
            (xy -1.016 -0.381)
            (xy 0 -0.762)
          )
          (stroke (width 0) (type default) (color 0 0 0 0))
          (fill (type none))
        )
        (polyline
          (pts
            (xy 0 2.286)
            (xy 1.016 1.905)
            (xy 0 1.524)
            (xy -1.016 1.143)
            (xy 0 0.762)
          )
          (stroke (width 0) (type default) (color 0 0 0 0))
          (fill (type none))
        )
      )
      (symbol "R_US_1_1"
        (pin passive line (at 0 3.81 270) (length 1.27)
          (name "~" (effects (font (size 1.27 1.27))))
          (number "1" (effects (font (size 1.27 1.27))))
        )
        (pin passive line (at 0 -3.81 90) (length 1.27)
          (name "~" (effects (font (size 1.27 1.27))))
          (number "2" (effects (font (size 1.27 1.27))))
        )
      )
    )
    (symbol "power:+3.3V" (power) (pin_names (offset 0)) (in_bom yes) (on_board yes)
      (property "Reference" "#PWR" (id 0) (at 0 -3.81 0)
        (effects (font (size 1.27 1.27)) hide)
      )
      (property "Value" "+3.3V" (id 1) (at 0 3.556 0)
        (effects (font (size 1.27 1.27)))
      )
      (property "Footprint" "" (id 2) (at 0 0 0)
        (effects (font (size 1.27 1.27)) hide)
      )
      (property "Datasheet" "" (id 3) (at 0 0 0)
        (effects (font (size 1.27 1.27)) hide)
      )
      (property "ki_keywords" "power-flag" (id 4) (at 0 0 0)
        (effects (font (size 1.27 1.27)) hide)
      )
      (property "ki_description" "Power symbol creates a global label with name \"+3.3V\"" (id 5) (at 0 0 0)
        (effects (font (size 1.27 1.27)) hide)
      )
      (symbol "+3.3V_0_1"
        (polyline
          (pts
            (xy -0.762 1.27)
            (xy 0 2.54)
          )
          (stroke (width 0) (type default) (color 0 0 0 0))
          (fill (type none))
        )
        (polyline
          (pts
            (xy 0 0)
            (xy 0 2.54)
          )
          (stroke (width 0) (type default) (color 0 0 0 0))
          (fill (type none))
        )
        (polyline
          (pts
            (xy 0 2.54)
            (xy 0.762 1.27)
          )
          (stroke (width 0) (type default) (color 0 0 0 0))
          (fill (type none))
        )
      )
      (symbol "+3.3V_1_1"
        (pin power_in line (at 0 0 90) (length 0) hide
          (name "+3V3" (effects (font (size 1.27 1.27))))
          (number "1" (effects (font (size 1.27 1.27))))
        )
      )
    )
    (symbol "power:GND" (power) (pin_names (offset 0)) (in_bom yes) (on_board yes)
      (property "Reference" "#PWR" (id 0) (at 0 -6.35 0)
        (effects (font (size 1.27 1.27)) hide)
      )
      (property "Value" "GND" (id 1) (at 0 -3.81 0)
        (effects (font (size 1.27 1.27)))
      )
      (property "Footprint" "" (id 2) (at 0 0 0)
        (effects (font (size 1.27 1.27)) hide)
      )
      (property "Datasheet" "" (id 3) (at 0 0 0)
        (effects (font (size 1.27 1.27)) hide)
      )
      (property "ki_keywords" "power-flag" (id 4) (at 0 0 0)
        (effects (font (size 1.27 1.27)) hide)
      )
      (property "ki_description" "Power symbol creates a global label with name \"GND\" , ground" (id 5) (at 0 0 0)
        (effects (font (size 1.27 1.27)) hide)
      )
      (symbol "GND_0_1"
        (polyline
          (pts
            (xy 0 0)
            (xy 0 -1.27)
            (xy 1.27 -1.27)
            (xy 0 -2.54)
            (xy -1.27 -1.27)
            (xy 0 -1.27)
          )
          (stroke (width 0) (type default) (color 0 0 0 0))
          (fill (type none))
        )
      )
      (symbol "GND_1_1"
        (pin power_in line (at 0 0 270) (length 0) hide
          (name "GND" (effects (font (size 1.27 1.27))))
          (number "1" (effects (font (size 1.27 1.27))))
        )
      )
    )
    (symbol "roket-rescue:Cap-805_cap" (pin_names (offset 1.016) hide) (in_bom yes) (on_board yes)
      (property "Reference" "C" (id 0) (at 0 3.81 0)
        (effects (font (size 1.27 1.27)) (justify left bottom))
      )
      (property "Value" "Cap-805_cap" (id 1) (at 0 -5.08 0)
        (effects (font (size 1.27 1.27)) (justify left bottom))
      )
      (property "Footprint" "CAPC2012X135N" (id 2) (at 0 0 0)
        (effects (font (size 1.27 1.27)) (justify left bottom) hide)
      )
      (property "Datasheet" "" (id 3) (at 0 0 0)
        (effects (font (size 1.27 1.27)) (justify left bottom) hide)
      )
      (property "ki_locked" "" (id 4) (at 0 0 0)
        (effects (font (size 1.27 1.27)))
      )
      (symbol "Cap-805_cap_0_0"
        (rectangle (start 0 -1.905) (end 0.635 1.905)
          (stroke (width 0) (type default) (color 0 0 0 0))
          (fill (type outline))
        )
        (rectangle (start 1.905 -1.905) (end 2.54 1.905)
          (stroke (width 0) (type default) (color 0 0 0 0))
          (fill (type outline))
        )
        (pin passive line (at 5.08 0 180) (length 2.54)
          (name "~" (effects (font (size 1.016 1.016))))
          (number "1" (effects (font (size 1.016 1.016))))
        )
        (pin passive line (at -2.54 0 0) (length 2.54)
          (name "~" (effects (font (size 1.016 1.016))))
          (number "2" (effects (font (size 1.016 1.016))))
        )
      )
    )
    (symbol "roket-rescue:ESP32-WROOM-32D-ESP32-WROOM-32D" (pin_names (offset 1.016)) (in_bom yes) (on_board yes)
      (property "Reference" "U" (id 0) (at -15.0368 31.5976 0)
        (effects (font (size 1.27 1.27)) (justify left bottom))
      )
      (property "Value" "ESP32-WROOM-32D-ESP32-WROOM-32D" (id 1) (at -15.2908 -35.6616 0)
        (effects (font (size 1.27 1.27)) (justify left bottom))
      )
      (property "Footprint" "MODULE_ESP32-WROOM-32D" (id 2) (at 0 0 0)
        (effects (font (size 1.27 1.27)) (justify left bottom) hide)
      )
      (property "Datasheet" "" (id 3) (at 0 0 0)
        (effects (font (size 1.27 1.27)) (justify left bottom) hide)
      )
      (property "STANDARD" "Manufacturer Recommendations" (id 4) (at 0 0 0)
        (effects (font (size 1.27 1.27)) (justify left bottom) hide)
      )
      (property "MAXIMUM_PACKAGE_HEIGHT" "3.2 mm" (id 5) (at 0 0 0)
        (effects (font (size 1.27 1.27)) (justify left bottom) hide)
      )
      (property "MANUFACTURER" "Espressif Systems" (id 6) (at 0 0 0)
        (effects (font (size 1.27 1.27)) (justify left bottom) hide)
      )
      (property "PARTREV" "1.9" (id 7) (at 0 0 0)
        (effects (font (size 1.27 1.27)) (justify left bottom) hide)
      )
      (property "ki_locked" "" (id 8) (at 0 0 0)
        (effects (font (size 1.27 1.27)))
      )
      (symbol "ESP32-WROOM-32D-ESP32-WROOM-32D_0_0"
        (rectangle (start -15.24 -33.02) (end 15.24 30.48)
          (stroke (width 0.254) (type default) (color 0 0 0 0))
          (fill (type background))
        )
        (pin power_in line (at 20.32 -29.21 180) (length 5.08)
          (name "GND" (effects (font (size 1.016 1.016))))
          (number "1" (effects (font (size 1.016 1.016))))
        )
        (pin bidirectional line (at 20.32 -15.24 180) (length 5.08)
          (name "IO25" (effects (font (size 1.016 1.016))))
          (number "10" (effects (font (size 1.016 1.016))))
        )
        (pin bidirectional line (at 20.32 -17.78 180) (length 5.08)
          (name "IO26" (effects (font (size 1.016 1.016))))
          (number "11" (effects (font (size 1.016 1.016))))
        )
        (pin bidirectional line (at 20.32 -20.32 180) (length 5.08)
          (name "IO27" (effects (font (size 1.016 1.016))))
          (number "12" (effects (font (size 1.016 1.016))))
        )
        (pin bidirectional line (at 20.32 7.62 180) (length 5.08)
          (name "IO14" (effects (font (size 1.016 1.016))))
          (number "13" (effects (font (size 1.016 1.016))))
        )
        (pin bidirectional line (at 20.32 12.7 180) (length 5.08)
          (name "IO12" (effects (font (size 1.016 1.016))))
          (number "14" (effects (font (size 1.016 1.016))))
        )
        (pin power_in line (at 20.32 -29.21 180) (length 5.08)
          (name "GND" (effects (font (size 1.016 1.016))))
          (number "15" (effects (font (size 1.016 1.016))))
        )
        (pin bidirectional line (at 20.32 10.16 180) (length 5.08)
          (name "IO13" (effects (font (size 1.016 1.016))))
          (number "16" (effects (font (size 1.016 1.016))))
        )
        (pin power_in line (at 20.32 27.94 180) (length 5.08)
          (name "3V3" (effects (font (size 1.016 1.016))))
          (number "2" (effects (font (size 1.016 1.016))))
        )
        (pin bidirectional line (at 20.32 5.08 180) (length 5.08)
          (name "IO15" (effects (font (size 1.016 1.016))))
          (number "23" (effects (font (size 1.016 1.016))))
        )
        (pin bidirectional line (at 20.32 20.32 180) (length 5.08)
          (name "IO2" (effects (font (size 1.016 1.016))))
          (number "24" (effects (font (size 1.016 1.016))))
        )
        (pin bidirectional line (at 20.32 22.86 180) (length 5.08)
          (name "IO0" (effects (font (size 1.016 1.016))))
          (number "25" (effects (font (size 1.016 1.016))))
        )
        (pin bidirectional line (at 20.32 17.78 180) (length 5.08)
          (name "IO4" (effects (font (size 1.016 1.016))))
          (number "26" (effects (font (size 1.016 1.016))))
        )
        (pin bidirectional line (at 20.32 2.54 180) (length 5.08)
          (name "IO16" (effects (font (size 1.016 1.016))))
          (number "27" (effects (font (size 1.016 1.016))))
        )
        (pin bidirectional line (at 20.32 0 180) (length 5.08)
          (name "IO17" (effects (font (size 1.016 1.016))))
          (number "28" (effects (font (size 1.016 1.016))))
        )
        (pin bidirectional line (at 20.32 15.24 180) (length 5.08)
          (name "IO5" (effects (font (size 1.016 1.016))))
          (number "29" (effects (font (size 1.016 1.016))))
        )
        (pin input line (at -20.32 22.86 0) (length 5.08)
          (name "EN" (effects (font (size 1.016 1.016))))
          (number "3" (effects (font (size 1.016 1.016))))
        )
        (pin bidirectional line (at 20.32 -2.54 180) (length 5.08)
          (name "IO18" (effects (font (size 1.016 1.016))))
          (number "30" (effects (font (size 1.016 1.016))))
        )
        (pin bidirectional line (at 20.32 -5.08 180) (length 5.08)
          (name "IO19" (effects (font (size 1.016 1.016))))
          (number "31" (effects (font (size 1.016 1.016))))
        )
        (pin bidirectional line (at 20.32 -7.62 180) (length 5.08)
          (name "IO21" (effects (font (size 1.016 1.016))))
          (number "33" (effects (font (size 1.016 1.016))))
        )
        (pin bidirectional line (at -20.32 -2.54 0) (length 5.08)
          (name "RXD0" (effects (font (size 1.016 1.016))))
          (number "34" (effects (font (size 1.016 1.016))))
        )
        (pin bidirectional line (at -20.32 0 0) (length 5.08)
          (name "TXD0" (effects (font (size 1.016 1.016))))
          (number "35" (effects (font (size 1.016 1.016))))
        )
        (pin bidirectional line (at 20.32 -10.16 180) (length 5.08)
          (name "IO22" (effects (font (size 1.016 1.016))))
          (number "36" (effects (font (size 1.016 1.016))))
        )
        (pin bidirectional line (at 20.32 -12.7 180) (length 5.08)
          (name "IO23" (effects (font (size 1.016 1.016))))
          (number "37" (effects (font (size 1.016 1.016))))
        )
        (pin power_in line (at 20.32 -29.21 180) (length 5.08)
          (name "GND" (effects (font (size 1.016 1.016))))
          (number "38" (effects (font (size 1.016 1.016))))
        )
        (pin input line (at -20.32 15.24 0) (length 5.08)
          (name "SENSOR_VP" (effects (font (size 1.016 1.016))))
          (number "4" (effects (font (size 1.016 1.016))))
        )
        (pin input line (at -20.32 12.7 0) (length 5.08)
          (name "SENSOR_VN" (effects (font (size 1.016 1.016))))
          (number "5" (effects (font (size 1.016 1.016))))
        )
        (pin input line (at -20.32 7.62 0) (length 5.08)
          (name "IO34" (effects (font (size 1.016 1.016))))
          (number "6" (effects (font (size 1.016 1.016))))
        )
        (pin input line (at -20.32 5.08 0) (length 5.08)
          (name "IO35" (effects (font (size 1.016 1.016))))
          (number "7" (effects (font (size 1.016 1.016))))
        )
        (pin bidirectional line (at 20.32 -22.86 180) (length 5.08)
          (name "IO32" (effects (font (size 1.016 1.016))))
          (number "8" (effects (font (size 1.016 1.016))))
        )
        (pin bidirectional line (at 20.32 -25.4 180) (length 5.08)
          (name "IO33" (effects (font (size 1.016 1.016))))
          (number "9" (effects (font (size 1.016 1.016))))
        )
      )
    )
  )

  (junction (at 111.76 69.85) (diameter 0) (color 0 0 0 0)
    (uuid 076f7231-4076-42f7-aad1-d862b4adf815)
  )
  (junction (at 229.87 85.09) (diameter 0) (color 0 0 0 0)
    (uuid 0b974c51-5d6b-432b-a824-d3bc00d5c7f5)
  )
  (junction (at 111.76 71.12) (diameter 0) (color 0 0 0 0)
    (uuid 218733ef-9cd6-47fa-b594-528cbe6db5de)
  )
  (junction (at 205.74 74.93) (diameter 0) (color 0 0 0 0)
    (uuid 342955d8-bf5d-418c-abc4-65240b87376d)
  )
  (junction (at 205.74 66.04) (diameter 0) (color 0 0 0 0)
    (uuid 98463a33-e7ce-4209-bf1f-4b0104786e64)
  )
  (junction (at 195.58 66.04) (diameter 0) (color 0 0 0 0)
    (uuid e2d7cdd1-6500-4a1a-96a6-566ec836de52)
  )

  (wire (pts (xy 224.79 93.98) (xy 218.44 93.98))
    (stroke (width 0) (type default) (color 0 0 0 0))
    (uuid 0627c732-fb7f-4126-a590-8c9e3f1a9f28)
  )
  (wire (pts (xy 229.87 81.28) (xy 229.87 85.09))
    (stroke (width 0) (type default) (color 0 0 0 0))
    (uuid 08cc9613-d5b5-4791-9726-52cbb44a6c2e)
  )
  (wire (pts (xy 181.61 78.74) (xy 177.8 78.74))
    (stroke (width 0) (type default) (color 0 0 0 0))
    (uuid 15972fae-371d-4bf7-8907-682133a0790e)
  )
  (wire (pts (xy 181.61 111.76) (xy 177.8 111.76))
    (stroke (width 0) (type default) (color 0 0 0 0))
    (uuid 159ce7ca-f68a-4c0c-acaf-4fb5a28e21df)
  )
  (wire (pts (xy 181.61 104.14) (xy 177.8 104.14))
    (stroke (width 0) (type default) (color 0 0 0 0))
    (uuid 184426cd-2fec-4599-9278-ae5c652e656e)
  )
  (wire (pts (xy 181.61 101.6) (xy 177.8 101.6))
    (stroke (width 0) (type default) (color 0 0 0 0))
    (uuid 1b758416-707e-45ab-bed1-312e66ccc949)
  )
  (wire (pts (xy 111.76 71.12) (xy 111.76 73.66))
    (stroke (width 0) (type default) (color 0 0 0 0))
    (uuid 1b83c854-ba53-4a68-8b07-9d40223b2b09)
  )
  (wire (pts (xy 111.76 71.12) (xy 137.16 71.12))
    (stroke (width 0) (type default) (color 0 0 0 0))
    (uuid 236d64af-25b5-416f-8b28-bcffe3b3a004)
  )
  (wire (pts (xy 137.16 96.52) (xy 134.62 96.52))
    (stroke (width 0) (type default) (color 0 0 0 0))
    (uuid 3006482a-fed2-470e-be0b-a342dc39d87b)
  )
  (wire (pts (xy 181.61 119.38) (xy 177.8 119.38))
    (stroke (width 0) (type default) (color 0 0 0 0))
    (uuid 307b57cb-4858-446e-88ba-862b06b4eac2)
  )
  (wire (pts (xy 195.58 74.93) (xy 205.74 74.93))
    (stroke (width 0) (type default) (color 0 0 0 0))
    (uuid 37aef574-8756-4abd-a508-cb51f9b6092a)
  )
  (wire (pts (xy 229.87 85.09) (xy 233.68 85.09))
    (stroke (width 0) (type default) (color 0 0 0 0))
    (uuid 38d37ebc-bbd1-4755-8dd1-e26753f938d9)
  )
  (wire (pts (xy 181.61 123.19) (xy 181.61 124.46))
    (stroke (width 0) (type default) (color 0 0 0 0))
    (uuid 402a72b5-2f40-4c2a-8b4c-bfb15184cd21)
  )
  (wire (pts (xy 181.61 88.9) (xy 177.8 88.9))
    (stroke (width 0) (type default) (color 0 0 0 0))
    (uuid 507d1257-fd79-46d9-b201-07996f0949a7)
  )
  (wire (pts (xy 181.61 83.82) (xy 177.8 83.82))
    (stroke (width 0) (type default) (color 0 0 0 0))
    (uuid 566e13db-7016-413e-b140-9491c179c23a)
  )
  (wire (pts (xy 181.61 76.2) (xy 177.8 76.2))
    (stroke (width 0) (type default) (color 0 0 0 0))
    (uuid 5874822f-7ace-4cfe-ab33-4e015423b7c2)
  )
  (wire (pts (xy 181.61 114.3) (xy 177.8 114.3))
    (stroke (width 0) (type default) (color 0 0 0 0))
    (uuid 61489a30-86d5-419d-81e0-ac65e3c73f18)
  )
  (wire (pts (xy 181.61 109.22) (xy 177.8 109.22))
    (stroke (width 0) (type default) (color 0 0 0 0))
    (uuid 6b5712ed-a799-4ed9-ae6d-29afa78d864f)
  )
  (wire (pts (xy 181.61 116.84) (xy 177.8 116.84))
    (stroke (width 0) (type default) (color 0 0 0 0))
    (uuid 6e1aefec-d933-49ca-b594-6f24bb4a75eb)
  )
  (wire (pts (xy 181.61 99.06) (xy 177.8 99.06))
    (stroke (width 0) (type default) (color 0 0 0 0))
    (uuid 74f15dce-84dc-4c13-a82c-e63591c6bab9)
  )
  (wire (pts (xy 137.16 88.9) (xy 134.62 88.9))
    (stroke (width 0) (type default) (color 0 0 0 0))
    (uuid 76fee86a-f0d4-43be-aa6c-2b890569be6b)
  )
  (wire (pts (xy 205.74 62.23) (xy 205.74 66.04))
    (stroke (width 0) (type default) (color 0 0 0 0))
    (uuid 7f6a1154-e5ea-4aa0-b95d-a8e5f46d763f)
  )
  (wire (pts (xy 177.8 66.04) (xy 195.58 66.04))
    (stroke (width 0) (type default) (color 0 0 0 0))
    (uuid 82dcfcf1-2a55-4081-9945-fd4dd8e41e68)
  )
  (wire (pts (xy 111.76 69.85) (xy 111.76 71.12))
    (stroke (width 0) (type default) (color 0 0 0 0))
    (uuid 8bba9b48-5675-4a60-a639-633a49f2814f)
  )
  (wire (pts (xy 218.44 97.79) (xy 233.68 97.79))
    (stroke (width 0) (type default) (color 0 0 0 0))
    (uuid 8d84aa30-8897-41da-a246-33099d95fc70)
  )
  (wire (pts (xy 111.76 68.58) (xy 111.76 69.85))
    (stroke (width 0) (type default) (color 0 0 0 0))
    (uuid 91febfea-6424-4eba-84f7-020fa7b6216e)
  )
  (wire (pts (xy 181.61 91.44) (xy 177.8 91.44))
    (stroke (width 0) (type default) (color 0 0 0 0))
    (uuid 921cb818-bee0-4c81-9e0a-d55072722741)
  )
  (wire (pts (xy 137.16 81.28) (xy 134.62 81.28))
    (stroke (width 0) (type default) (color 0 0 0 0))
    (uuid 94e7cbc4-a260-44d3-80b3-662c7ee7d463)
  )
  (wire (pts (xy 181.61 81.28) (xy 177.8 81.28))
    (stroke (width 0) (type default) (color 0 0 0 0))
    (uuid 9fd0f8e7-a02c-49ff-98e7-73984eff6bb3)
  )
  (wire (pts (xy 181.61 73.66) (xy 177.8 73.66))
    (stroke (width 0) (type default) (color 0 0 0 0))
    (uuid a2b36e08-604c-4a1f-983e-86d54fd81b65)
  )
  (wire (pts (xy 181.61 71.12) (xy 177.8 71.12))
    (stroke (width 0) (type default) (color 0 0 0 0))
    (uuid a43012d0-9f06-4e16-8611-4cd3f600fd26)
  )
  (wire (pts (xy 181.61 96.52) (xy 177.8 96.52))
    (stroke (width 0) (type default) (color 0 0 0 0))
    (uuid a74ecec7-711a-4348-9b72-8b39183abe00)
  )
  (wire (pts (xy 181.61 86.36) (xy 177.8 86.36))
    (stroke (width 0) (type default) (color 0 0 0 0))
    (uuid a8116d8e-b52b-4003-a01d-c89426789160)
  )
  (wire (pts (xy 229.87 85.09) (xy 224.79 85.09))
    (stroke (width 0) (type default) (color 0 0 0 0))
    (uuid ad26bf0e-6c48-44aa-b4a9-a8c43cc58767)
  )
  (wire (pts (xy 181.61 93.98) (xy 177.8 93.98))
    (stroke (width 0) (type default) (color 0 0 0 0))
    (uuid ad7d5bea-3321-4855-934d-639512def22c)
  )
  (wire (pts (xy 111.76 83.82) (xy 111.76 81.28))
    (stroke (width 0) (type default) (color 0 0 0 0))
    (uuid b0382459-16dc-4885-8c9f-5ba58a1cdc18)
  )
  (wire (pts (xy 195.58 73.66) (xy 195.58 74.93))
    (stroke (width 0) (type default) (color 0 0 0 0))
    (uuid b410fb80-a3ea-4d2a-9f0d-3f75dc3180a0)
  )
  (wire (pts (xy 233.68 97.79) (xy 233.68 92.71))
    (stroke (width 0) (type default) (color 0 0 0 0))
    (uuid b465d8b0-abd0-4c3a-a478-ded6081941ac)
  )
  (wire (pts (xy 195.58 66.04) (xy 205.74 66.04))
    (stroke (width 0) (type default) (color 0 0 0 0))
    (uuid c3a189f3-dc04-4e42-9b49-2a010f0a5709)
  )
  (wire (pts (xy 177.8 123.19) (xy 181.61 123.19))
    (stroke (width 0) (type default) (color 0 0 0 0))
    (uuid d37ee2a6-1710-48eb-aa81-4b8575747470)
  )
  (wire (pts (xy 137.16 86.36) (xy 134.62 86.36))
    (stroke (width 0) (type default) (color 0 0 0 0))
    (uuid d4c2fae6-74e6-4c05-ae04-54da3e36bbaf)
  )
  (wire (pts (xy 137.16 93.98) (xy 134.62 93.98))
    (stroke (width 0) (type default) (color 0 0 0 0))
    (uuid d4c448d5-40ae-4cd9-8881-5ab576c75c25)
  )
  (wire (pts (xy 111.76 60.96) (xy 111.76 58.42))
    (stroke (width 0) (type default) (color 0 0 0 0))
    (uuid d9f026c6-7f59-459c-b9c0-8e43bcaee526)
  )
  (wire (pts (xy 111.76 69.85) (xy 109.22 69.85))
    (stroke (width 0) (type default) (color 0 0 0 0))
    (uuid ddab0e9c-d7ea-451f-9255-6c1dd4afe45e)
  )
  (wire (pts (xy 205.74 74.93) (xy 205.74 73.66))
    (stroke (width 0) (type default) (color 0 0 0 0))
    (uuid e22d44df-6e4a-4954-a05b-ff4d3150f74f)
  )
  (wire (pts (xy 224.79 92.71) (xy 224.79 93.98))
    (stroke (width 0) (type default) (color 0 0 0 0))
    (uuid e77f1a97-5599-4bf9-9a83-6ffeaef8420a)
  )
  (wire (pts (xy 137.16 78.74) (xy 134.62 78.74))
    (stroke (width 0) (type default) (color 0 0 0 0))
    (uuid f14b2667-1fa4-42ee-bf6a-dc6cd36de957)
  )
  (wire (pts (xy 205.74 77.47) (xy 205.74 74.93))
    (stroke (width 0) (type default) (color 0 0 0 0))
    (uuid f4bb8966-1d7b-40d9-9f64-2b1654f5b7af)
  )
  (wire (pts (xy 181.61 106.68) (xy 177.8 106.68))
    (stroke (width 0) (type default) (color 0 0 0 0))
    (uuid fe50066d-0bb9-418a-b06f-bd420a520c18)
  )

  (label "SDA" (at 218.44 97.79 0)
    (effects (font (size 1.27 1.27)) (justify left bottom))
    (uuid 28d5acbd-aa77-469a-8135-54704078d2e6)
  )
  (label "SDA" (at 177.8 101.6 0)
    (effects (font (size 1.27 1.27)) (justify left bottom))
    (uuid a96af93c-33d7-45d7-89be-39c2052719c7)
  )
  (label "SCL" (at 177.8 104.14 0)
    (effects (font (size 1.27 1.27)) (justify left bottom))
    (uuid bd78ae2d-c4f7-468a-a040-0e8762ba4c1e)
  )
  (label "SCL" (at 218.44 93.98 0)
    (effects (font (size 1.27 1.27)) (justify left bottom))
    (uuid d159a94f-5e3f-48c7-a38d-f1a7b3947ac3)
  )

  (hierarchical_label "IO17" (shape input) (at 181.61 93.98 0)
    (effects (font (size 1.27 1.27)) (justify left))
    (uuid 02386cd4-26cf-4025-a4b5-e18d59defeaa)
  )
  (hierarchical_label "IO21" (shape input) (at 181.61 101.6 0)
    (effects (font (size 1.27 1.27)) (justify left))
    (uuid 0f50e4d5-f821-42e0-87d3-c6081dcc3c80)
  )
  (hierarchical_label "IO13" (shape input) (at 181.61 83.82 0)
    (effects (font (size 1.27 1.27)) (justify left))
    (uuid 2bf4ee94-982f-4821-b3dd-5e5353beda0b)
  )
  (hierarchical_label "IO19" (shape input) (at 181.61 99.06 0)
    (effects (font (size 1.27 1.27)) (justify left))
    (uuid 42f75929-1b9e-4318-bdb2-0004cbf79b0c)
  )
  (hierarchical_label "IO22" (shape input) (at 181.61 104.14 0)
    (effects (font (size 1.27 1.27)) (justify left))
    (uuid 482c3e99-ccb5-477e-917c-ce5d6702eddd)
  )
  (hierarchical_label "TXD0" (shape input) (at 134.62 93.98 180)
    (effects (font (size 1.27 1.27)) (justify right))
    (uuid 519911b7-2b64-4f94-a269-52a761220705)
  )
  (hierarchical_label "SENSOR_VN" (shape input) (at 134.62 81.28 180)
    (effects (font (size 1.27 1.27)) (justify right))
    (uuid 55c1b181-a203-476a-947f-07bbc08df10e)
  )
  (hierarchical_label "EN" (shape input) (at 109.22 69.85 180)
    (effects (font (size 1.27 1.27)) (justify right))
    (uuid 6f2fbe21-1c8e-4726-a55f-7aaea2388450)
  )
  (hierarchical_label "IO25" (shape input) (at 181.61 109.22 0)
    (effects (font (size 1.27 1.27)) (justify left))
    (uuid 775f1e5d-4895-4e43-aa88-a9b426fdff4d)
  )
  (hierarchical_label "IO4" (shape input) (at 181.61 76.2 0)
    (effects (font (size 1.27 1.27)) (justify left))
    (uuid 799df3b2-6336-4228-a437-2d4441886f42)
  )
  (hierarchical_label "IO33" (shape input) (at 181.61 119.38 0)
    (effects (font (size 1.27 1.27)) (justify left))
    (uuid 847f7def-b1e2-49eb-811d-2223f1e41b45)
  )
  (hierarchical_label "IO32" (shape input) (at 181.61 116.84 0)
    (effects (font (size 1.27 1.27)) (justify left))
    (uuid 8ac99a0c-29aa-402d-af1c-23c7961e1911)
  )
  (hierarchical_label "IO35" (shape input) (at 134.62 88.9 180)
    (effects (font (size 1.27 1.27)) (justify right))
    (uuid 914ab9a4-e203-406e-9268-ea237537cb85)
  )
  (hierarchical_label "IO15" (shape input) (at 181.61 88.9 0)
    (effects (font (size 1.27 1.27)) (justify left))
    (uuid 9df34e96-3ada-4617-9a3e-9b3ea9f0022b)
  )
  (hierarchical_label "IO5" (shape input) (at 181.61 78.74 0)
    (effects (font (size 1.27 1.27)) (justify left))
    (uuid a45c8261-42b0-4406-8996-f47881652e28)
  )
  (hierarchical_label "RXD0" (shape input) (at 134.62 96.52 180)
    (effects (font (size 1.27 1.27)) (justify right))
    (uuid ab434251-8cc9-4e03-a7ad-72527aa803cb)
  )
  (hierarchical_label "IO12" (shape input) (at 181.61 81.28 0)
    (effects (font (size 1.27 1.27)) (justify left))
    (uuid abc0b1f1-6ce5-40db-af23-ee8c3a04cde9)
  )
  (hierarchical_label "IO23" (shape input) (at 181.61 106.68 0)
    (effects (font (size 1.27 1.27)) (justify left))
    (uuid b36cadfa-ffc6-49f6-b793-483b33ee6036)
  )
  (hierarchical_label "IO27" (shape input) (at 181.61 114.3 0)
    (effects (font (size 1.27 1.27)) (justify left))
    (uuid b65f436a-b3a7-4970-abf4-fb66893b2880)
  )
  (hierarchical_label "IO16" (shape input) (at 181.61 91.44 0)
    (effects (font (size 1.27 1.27)) (justify left))
    (uuid b66e787e-f33d-44de-997d-2ecbf5bc87af)
  )
  (hierarchical_label "SENSOR_VP" (shape input) (at 134.62 78.74 180)
    (effects (font (size 1.27 1.27)) (justify right))
    (uuid c65c0322-e122-44f1-b34e-a2e56b5fa4f6)
  )
  (hierarchical_label "IO2" (shape input) (at 181.61 73.66 0)
    (effects (font (size 1.27 1.27)) (justify left))
    (uuid c8008f39-19fd-4bc6-9313-c9d904fb78fc)
  )
  (hierarchical_label "IO0" (shape input) (at 181.61 71.12 0)
    (effects (font (size 1.27 1.27)) (justify left))
    (uuid c911b9f0-56df-450b-8e8f-64fdd6669aba)
  )
  (hierarchical_label "IO14" (shape input) (at 181.61 86.36 0)
    (effects (font (size 1.27 1.27)) (justify left))
    (uuid dc094f38-061a-4721-bc12-129aeee08d6f)
  )
  (hierarchical_label "IO34" (shape input) (at 134.62 86.36 180)
    (effects (font (size 1.27 1.27)) (justify right))
    (uuid de71188c-44e0-401f-a303-ffcaae5afc32)
  )
  (hierarchical_label "IO18" (shape input) (at 181.61 96.52 0)
    (effects (font (size 1.27 1.27)) (justify left))
    (uuid e74df858-9d2c-419e-af9b-e1ca7c503e99)
  )
  (hierarchical_label "IO26" (shape input) (at 181.61 111.76 0)
    (effects (font (size 1.27 1.27)) (justify left))
    (uuid f82f5f09-4d76-40c3-b48e-7c8ede844fc1)
  )

  (symbol (lib_id "roket-rescue:ESP32-WROOM-32D-ESP32-WROOM-32D") (at 157.48 93.98 0) (unit 1)
    (in_bom yes) (on_board yes)
    (uuid 00000000-0000-0000-0000-000060932951)
    (property "Reference" "U11" (id 0) (at 157.48 59.2582 0))
    (property "Value" "ESP32-WROOM-32D" (id 1) (at 157.48 61.5696 0))
    (property "Footprint" "others:ESP32-WROOM-32D" (id 2) (at 157.48 93.98 0)
      (effects (font (size 1.27 1.27)) (justify left bottom) hide)
    )
    (property "Datasheet" "" (id 3) (at 157.48 93.98 0)
      (effects (font (size 1.27 1.27)) (justify left bottom) hide)
    )
    (property "STANDARD" "Manufacturer Recommendations" (id 4) (at 157.48 93.98 0)
      (effects (font (size 1.27 1.27)) (justify left bottom) hide)
    )
    (property "MAXIMUM_PACKAGE_HEIGHT" "3.2 mm" (id 5) (at 157.48 93.98 0)
      (effects (font (size 1.27 1.27)) (justify left bottom) hide)
    )
    (property "MANUFACTURER" "Espressif Systems" (id 6) (at 157.48 93.98 0)
      (effects (font (size 1.27 1.27)) (justify left bottom) hide)
    )
    (property "PARTREV" "1.9" (id 7) (at 157.48 93.98 0)
      (effects (font (size 1.27 1.27)) (justify left bottom) hide)
    )
    (pin "1" (uuid 698d0aaf-842a-4ae0-88bf-aa8aee364e6f))
    (pin "10" (uuid 91e16e87-c472-4305-b36e-dfec03c77f1a))
    (pin "11" (uuid f4301e68-bc86-4ee0-84d4-cf1a7a40b8a3))
    (pin "12" (uuid 68897d4a-951e-4ec6-8b2b-be1968cb6b90))
    (pin "13" (uuid 27349c8d-f68b-4bd1-8669-e1817d23cd37))
    (pin "14" (uuid b99100dc-ce8d-42fb-83aa-7acd305f149a))
    (pin "15" (uuid 6c0e367d-3548-45e1-aeeb-a9e95ea73015))
    (pin "16" (uuid ff44d488-61fd-4e4d-844b-5c3b22e2a75f))
    (pin "2" (uuid bff79770-6763-4f0d-b330-890c637b7038))
    (pin "23" (uuid 4ff7ac23-90e4-46b3-a88d-37c46ddedcbb))
    (pin "24" (uuid 5cde04b0-9b71-41a4-bd77-70abe5c5d6a3))
    (pin "25" (uuid d4b8257a-c33d-48f0-b9b8-afb672a6e3e3))
    (pin "26" (uuid 35dc8b29-4c1a-468e-b5ce-f4fa5b188cc0))
    (pin "27" (uuid e89d0f36-27e2-48d2-bbb6-4cc9f0fcf0cc))
    (pin "28" (uuid 5f2a61ba-d08c-4231-b70b-56ac423f4da1))
    (pin "29" (uuid 6342ecca-74bb-42de-a156-10994ec27abb))
    (pin "3" (uuid cbcea4da-9963-4824-a84f-e2a3313a26d8))
    (pin "30" (uuid 97360610-af6d-45a0-8716-fa57b0cc8ab3))
    (pin "31" (uuid 44dbf2aa-7498-4716-b6bf-9264ea50d773))
    (pin "33" (uuid 03b476b5-8c65-449a-aeeb-7126b708e5b5))
    (pin "34" (uuid faf2fc9a-1f1d-4b6c-b1c2-cff9baaa1047))
    (pin "35" (uuid 118731d5-d22e-4dbf-82df-e045a55832f6))
    (pin "36" (uuid 84fb8848-d587-45c3-ad86-2a7d0e179730))
    (pin "37" (uuid 3a412f22-84b2-46c2-ab23-db0a09e88056))
    (pin "38" (uuid 5e79abe5-f985-42b8-9d07-8889e18ab25a))
    (pin "4" (uuid 29ddfaaa-8cdf-45b0-b4f9-aa3f5d28fd10))
    (pin "5" (uuid b90d69a9-ecc7-46cd-95f7-3d5dc34e8e2e))
    (pin "6" (uuid 22bf4e38-730c-4a8a-a1bc-50801589fd56))
    (pin "7" (uuid 75d231a5-a2ea-4680-82c2-22cb2f1431cd))
    (pin "8" (uuid 4cb31da6-3b49-4a12-95e0-d28357908834))
    (pin "9" (uuid a014a8dc-83b4-4fbe-86ed-0ac3a12a128d))
  )

  (symbol (lib_id "power:+3.3V") (at 205.74 62.23 0) (unit 1)
    (in_bom yes) (on_board yes)
    (uuid 00000000-0000-0000-0000-00006093cb48)
    (property "Reference" "#PWR077" (id 0) (at 205.74 66.04 0)
      (effects (font (size 1.27 1.27)) hide)
    )
    (property "Value" "+3.3V" (id 1) (at 206.121 57.8358 0))
    (property "Footprint" "" (id 2) (at 205.74 62.23 0)
      (effects (font (size 1.27 1.27)) hide)
    )
    (property "Datasheet" "" (id 3) (at 205.74 62.23 0)
      (effects (font (size 1.27 1.27)) hide)
    )
    (pin "1" (uuid 409e3019-3527-438a-a427-234f9de0aa02))
  )

  (symbol (lib_id "power:+3.3V") (at 111.76 58.42 0) (unit 1)
    (in_bom yes) (on_board yes)
    (uuid 00000000-0000-0000-0000-00006093d8d8)
    (property "Reference" "#PWR076" (id 0) (at 111.76 62.23 0)
      (effects (font (size 1.27 1.27)) hide)
    )
    (property "Value" "+3.3V" (id 1) (at 112.141 54.0258 0))
    (property "Footprint" "" (id 2) (at 111.76 58.42 0)
      (effects (font (size 1.27 1.27)) hide)
    )
    (property "Datasheet" "" (id 3) (at 111.76 58.42 0)
      (effects (font (size 1.27 1.27)) hide)
    )
    (pin "1" (uuid 47c8f974-d001-423d-b176-08c4836953be))
  )

  (symbol (lib_id "power:GND") (at 181.61 124.46 0) (unit 1)
    (in_bom yes) (on_board yes)
    (uuid 00000000-0000-0000-0000-00006093dfce)
    (property "Reference" "#PWR081" (id 0) (at 181.61 130.81 0)
      (effects (font (size 1.27 1.27)) hide)
    )
    (property "Value" "GND" (id 1) (at 181.737 128.8542 0))
    (property "Footprint" "" (id 2) (at 181.61 124.46 0)
      (effects (font (size 1.27 1.27)) hide)
    )
    (property "Datasheet" "" (id 3) (at 181.61 124.46 0)
      (effects (font (size 1.27 1.27)) hide)
    )
    (pin "1" (uuid 161806c8-5138-45a7-b772-0da8c4ea746a))
  )

  (symbol (lib_id "roket-rescue:Cap-805_cap") (at 195.58 68.58 270) (unit 1)
    (in_bom yes) (on_board yes)
    (uuid 00000000-0000-0000-0000-00006093f1b1)
    (property "Reference" "C22" (id 0) (at 198.1962 68.6816 90)
      (effects (font (size 1.27 1.27)) (justify left))
    )
    (property "Value" "22uF" (id 1) (at 198.1962 70.993 90)
      (effects (font (size 1.27 1.27)) (justify left))
    )
    (property "Footprint" "Capacitor_SMD:C_0805_2012Metric" (id 2) (at 195.58 68.58 0)
      (effects (font (size 1.27 1.27)) (justify left bottom) hide)
    )
    (property "Datasheet" "" (id 3) (at 195.58 68.58 0)
      (effects (font (size 1.27 1.27)) (justify left bottom) hide)
    )
    (pin "1" (uuid 37c79daf-210c-419f-b444-8b21993bca12))
    (pin "2" (uuid 24d46c1d-66f6-41df-afab-0be2b03c2099))
  )

  (symbol (lib_id "roket-rescue:Cap-805_cap") (at 205.74 68.58 270) (unit 1)
    (in_bom yes) (on_board yes)
    (uuid 00000000-0000-0000-0000-00006093fd89)
    (property "Reference" "C23" (id 0) (at 208.3562 68.6816 90)
      (effects (font (size 1.27 1.27)) (justify left))
    )
    (property "Value" "0.1uF" (id 1) (at 208.3562 70.993 90)
      (effects (font (size 1.27 1.27)) (justify left))
    )
    (property "Footprint" "Capacitor_SMD:C_0805_2012Metric" (id 2) (at 205.74 68.58 0)
      (effects (font (size 1.27 1.27)) (justify left bottom) hide)
    )
    (property "Datasheet" "" (id 3) (at 205.74 68.58 0)
      (effects (font (size 1.27 1.27)) (justify left bottom) hide)
    )
    (pin "1" (uuid cb55e1d6-7814-48d5-975e-0e4200345eae))
    (pin "2" (uuid d3faad25-94c3-4975-9596-5e3f505e025a))
  )

  (symbol (lib_id "roket-rescue:Cap-805_cap") (at 111.76 76.2 270) (unit 1)
    (in_bom yes) (on_board yes)
    (uuid 00000000-0000-0000-0000-0000609405b2)
    (property "Reference" "C24" (id 0) (at 114.3762 76.3016 90)
      (effects (font (size 1.27 1.27)) (justify left))
    )
    (property "Value" "0.1uF" (id 1) (at 114.3762 78.613 90)
      (effects (font (size 1.27 1.27)) (justify left))
    )
    (property "Footprint" "Capacitor_SMD:C_0805_2012Metric" (id 2) (at 111.76 76.2 0)
      (effects (font (size 1.27 1.27)) (justify left bottom) hide)
    )
    (property "Datasheet" "" (id 3) (at 111.76 76.2 0)
      (effects (font (size 1.27 1.27)) (justify left bottom) hide)
    )
    (pin "1" (uuid bb0dee0c-3647-4052-b845-8e1dc6745673))
    (pin "2" (uuid e1571f21-761e-4c36-8210-da35a63ec687))
  )

  (symbol (lib_id "Device:R_US") (at 111.76 64.77 0) (unit 1)
    (in_bom yes) (on_board yes)
    (uuid 00000000-0000-0000-0000-000060941843)
    (property "Reference" "R26" (id 0) (at 113.4872 63.6016 0)
      (effects (font (size 1.27 1.27)) (justify left))
    )
    (property "Value" "10K" (id 1) (at 113.4872 65.913 0)
      (effects (font (size 1.27 1.27)) (justify left))
    )
    (property "Footprint" "Resistor_SMD:R_0805_2012Metric" (id 2) (at 112.776 65.024 90)
      (effects (font (size 1.27 1.27)) hide)
    )
    (property "Datasheet" "~" (id 3) (at 111.76 64.77 0)
      (effects (font (size 1.27 1.27)) hide)
    )
    (pin "1" (uuid e2aa120c-4b6b-4a53-998f-eca5518c3781))
    (pin "2" (uuid 7e1d284b-b8b2-434e-be21-d4eb5ee6406d))
  )

  (symbol (lib_id "power:GND") (at 111.76 83.82 0) (unit 1)
    (in_bom yes) (on_board yes)
    (uuid 00000000-0000-0000-0000-000060942f63)
    (property "Reference" "#PWR080" (id 0) (at 111.76 90.17 0)
      (effects (font (size 1.27 1.27)) hide)
    )
    (property "Value" "GND" (id 1) (at 111.887 88.2142 0))
    (property "Footprint" "" (id 2) (at 111.76 83.82 0)
      (effects (font (size 1.27 1.27)) hide)
    )
    (property "Datasheet" "" (id 3) (at 111.76 83.82 0)
      (effects (font (size 1.27 1.27)) hide)
    )
    (pin "1" (uuid b18aa107-4917-4b78-a196-ff164bec23b0))
  )

  (symbol (lib_id "power:GND") (at 205.74 77.47 0) (unit 1)
    (in_bom yes) (on_board yes)
    (uuid 00000000-0000-0000-0000-000060946688)
    (property "Reference" "#PWR078" (id 0) (at 205.74 83.82 0)
      (effects (font (size 1.27 1.27)) hide)
    )
    (property "Value" "GND" (id 1) (at 205.867 81.8642 0))
    (property "Footprint" "" (id 2) (at 205.74 77.47 0)
      (effects (font (size 1.27 1.27)) hide)
    )
    (property "Datasheet" "" (id 3) (at 205.74 77.47 0)
      (effects (font (size 1.27 1.27)) hide)
    )
    (pin "1" (uuid df3a4827-b9e3-4bdf-ae06-7ee04716b1a5))
  )

  (symbol (lib_id "Device:R_US") (at 224.79 88.9 0) (unit 1)
    (in_bom yes) (on_board yes)
    (uuid 00000000-0000-0000-0000-000060957214)
    (property "Reference" "R27" (id 0) (at 226.5172 87.7316 0)
      (effects (font (size 1.27 1.27)) (justify left))
    )
    (property "Value" "10K" (id 1) (at 226.5172 90.043 0)
      (effects (font (size 1.27 1.27)) (justify left))
    )
    (property "Footprint" "Resistor_SMD:R_0805_2012Metric" (id 2) (at 225.806 89.154 90)
      (effects (font (size 1.27 1.27)) hide)
    )
    (property "Datasheet" "~" (id 3) (at 224.79 88.9 0)
      (effects (font (size 1.27 1.27)) hide)
    )
    (pin "1" (uuid 4701c342-7c44-45de-849f-db55109e2e6e))
    (pin "2" (uuid 3e6c0586-1bf5-4aab-979e-cc1afbcb09ff))
  )

  (symbol (lib_id "Device:R_US") (at 233.68 88.9 0) (unit 1)
    (in_bom yes) (on_board yes)
    (uuid 00000000-0000-0000-0000-000060957fea)
    (property "Reference" "R28" (id 0) (at 235.4072 87.7316 0)
      (effects (font (size 1.27 1.27)) (justify left))
    )
    (property "Value" "10K" (id 1) (at 235.4072 90.043 0)
      (effects (font (size 1.27 1.27)) (justify left))
    )
    (property "Footprint" "Resistor_SMD:R_0805_2012Metric" (id 2) (at 234.696 89.154 90)
      (effects (font (size 1.27 1.27)) hide)
    )
    (property "Datasheet" "~" (id 3) (at 233.68 88.9 0)
      (effects (font (size 1.27 1.27)) hide)
    )
    (pin "1" (uuid b04c9059-5198-4ec7-8124-dd0a0e967a64))
    (pin "2" (uuid 956f374a-84a3-4765-82d7-ac678210128a))
  )

  (symbol (lib_id "power:+3.3V") (at 229.87 81.28 0) (unit 1)
    (in_bom yes) (on_board yes)
    (uuid 00000000-0000-0000-0000-00006095d268)
    (property "Reference" "#PWR079" (id 0) (at 229.87 85.09 0)
      (effects (font (size 1.27 1.27)) hide)
    )
    (property "Value" "+3.3V" (id 1) (at 230.251 76.8858 0))
    (property "Footprint" "" (id 2) (at 229.87 81.28 0)
      (effects (font (size 1.27 1.27)) hide)
    )
    (property "Datasheet" "" (id 3) (at 229.87 81.28 0)
      (effects (font (size 1.27 1.27)) hide)
    )
    (pin "1" (uuid 84bb2529-5093-469d-a1fd-c7b27305e9eb))
  )
)
