EESchema Schematic File Version 4
EELAYER 30 0
EELAYER END
$Descr A4 11693 8268
encoding utf-8
Sheet 2 15
Title ""
Date ""
Rev ""
Comp ""
Comment1 ""
Comment2 ""
Comment3 ""
Comment4 ""
$EndDescr
$Comp
L roket-rescue:TPS630702RNMR-TPS63070RNMT U2
U 1 1 60AAA908
P 3000 2900
F 0 "U2" H 3000 3670 50  0000 C CNN
F 1 "TPS630702RNMR" H 3000 3579 50  0000 C CNN
F 2 "others:TPS63070RNMT" H 3000 2900 50  0001 L BNN
F 3 "" H 3000 2900 50  0001 L BNN
	1    3000 2900
	1    0    0    -1  
$EndComp
$Comp
L roket-rescue:LDL212PV33R-LDL212PV33R U1
U 1 1 60AAAEA2
P 8250 2800
F 0 "U1" H 8250 3267 50  0000 C CNN
F 1 "LDL212PV33R" H 8250 3176 50  0000 C CNN
F 2 "others:LDL212PV33R" H 8250 2800 50  0001 L BNN
F 3 "" H 8250 2800 50  0001 L BNN
F 4 "STMicroelectronics" H 8250 2800 50  0001 L BNN "MANUFACTURER"
F 5 "IPC 7351B" H 8250 2800 50  0001 L BNN "STANDARD"
F 6 "5" H 8250 2800 50  0001 L BNN "PARTREV"
F 7 "0.8 mm" H 8250 2800 50  0001 L BNN "MAXIMUM_PACKAGE_HEIGHT"
	1    8250 2800
	1    0    0    -1  
$EndComp
$Comp
L roket-rescue:SS24-SS24 D1
U 1 1 60AAB4DD
P 3650 5050
F 0 "D1" H 3650 5267 50  0000 C CNN
F 1 "SS24" H 3650 5176 50  0000 C CNN
F 2 "others:SS24" H 3650 5050 50  0001 L BNN
F 3 "" H 3650 5050 50  0001 L BNN
F 4 "IPC 7351B" H 3650 5050 50  0001 L BNN "STANDARD"
F 5 "1.1.2" H 3650 5050 50  0001 L BNN "PARTREV"
F 6 "ON Semiconductor" H 3650 5050 50  0001 L BNN "MANUFACTURER"
F 7 "2.65 mm" H 3650 5050 50  0001 L BNN "MAXIMUM_PACKAGE_HEIGHT"
	1    3650 5050
	1    0    0    -1  
$EndComp
$Comp
L roket-rescue:XFL4020-102MEC-XFL4020-102MEC L1
U 1 1 60AAC7A2
P 3000 2000
F 0 "L1" H 3000 2181 50  0000 C CNN
F 1 "XFL4020-102MEC" H 3000 2090 50  0000 C CNN
F 2 "others:XFL4020-102MEC" H 3000 2000 50  0001 L BNN
F 3 "" H 3000 2000 50  0001 L BNN
F 4 "Power inductor, shielded, 20% tol, SMT, RoHS, halogen free" H 3000 2000 50  0001 L BNN "DESCRIPTION"
F 5 "2.1mm" H 3000 2000 50  0001 L BNN "MAXIMUM_PACKAGE_HEIGHT"
F 6 "Coilcraft" H 3000 2000 50  0001 L BNN "MANUFACTURER"
F 7 "11/02/18" H 3000 2000 50  0001 L BNN "PARTREV"
F 8 "Manufacturer Recommendations" H 3000 2000 50  0001 L BNN "STANDARD"
	1    3000 2000
	1    0    0    -1  
$EndComp
Wire Wire Line
	3700 2400 3850 2400
Wire Wire Line
	3850 2400 3850 2000
Wire Wire Line
	3850 2000 3500 2000
Wire Wire Line
	2500 2000 2150 2000
Wire Wire Line
	2150 2000 2150 2400
Wire Wire Line
	2150 2400 2300 2400
$Comp
L roket-rescue:Cap-805_cap C?
U 1 1 60AAF6FC
P 5300 2350
AR Path="/609302C0/60AAF6FC" Ref="C?"  Part="1" 
AR Path="/6093034B/60AAF6FC" Ref="C?"  Part="1" 
AR Path="/6092FBF4/60AAF6FC" Ref="C2"  Part="1" 
F 0 "C2" V 5304 2453 50  0000 L CNN
F 1 "22uF" V 5395 2453 50  0000 L CNN
F 2 "Capacitor_SMD:C_0805_2012Metric" H 5300 2350 50  0001 L BNN
F 3 "" H 5300 2350 50  0001 L BNN
	1    5300 2350
	0    1    1    0   
$EndComp
$Comp
L Device:R_US R?
U 1 1 60AB02A2
P 4600 2600
AR Path="/609302C0/60AB02A2" Ref="R?"  Part="1" 
AR Path="/6093043F/60AB02A2" Ref="R?"  Part="1" 
AR Path="/6092FBF4/60AB02A2" Ref="R1"  Part="1" 
F 0 "R1" H 4668 2646 50  0000 L CNN
F 1 "680K" H 4668 2555 50  0000 L CNN
F 2 "Resistor_SMD:R_0805_2012Metric" V 4640 2590 50  0001 C CNN
F 3 "~" H 4600 2600 50  0001 C CNN
	1    4600 2600
	1    0    0    -1  
$EndComp
$Comp
L roket-rescue:Cap-805_cap C?
U 1 1 60AB0A25
P 5700 2350
AR Path="/609302C0/60AB0A25" Ref="C?"  Part="1" 
AR Path="/6093034B/60AB0A25" Ref="C?"  Part="1" 
AR Path="/6092FBF4/60AB0A25" Ref="C3"  Part="1" 
F 0 "C3" V 5704 2453 50  0000 L CNN
F 1 "22uF" V 5795 2453 50  0000 L CNN
F 2 "Capacitor_SMD:C_0805_2012Metric" H 5700 2350 50  0001 L BNN
F 3 "" H 5700 2350 50  0001 L BNN
	1    5700 2350
	0    1    1    0   
$EndComp
$Comp
L roket-rescue:Cap-805_cap C?
U 1 1 60AB0C66
P 6100 2350
AR Path="/609302C0/60AB0C66" Ref="C?"  Part="1" 
AR Path="/6093034B/60AB0C66" Ref="C?"  Part="1" 
AR Path="/6092FBF4/60AB0C66" Ref="C4"  Part="1" 
F 0 "C4" V 6104 2453 50  0000 L CNN
F 1 "22uF" V 6195 2453 50  0000 L CNN
F 2 "Capacitor_SMD:C_0805_2012Metric" H 6100 2350 50  0001 L BNN
F 3 "" H 6100 2350 50  0001 L BNN
	1    6100 2350
	0    1    1    0   
$EndComp
$Comp
L roket-rescue:Cap-805_cap C?
U 1 1 60AB1EC5
P 4250 2350
AR Path="/609302C0/60AB1EC5" Ref="C?"  Part="1" 
AR Path="/6093034B/60AB1EC5" Ref="C?"  Part="1" 
AR Path="/6092FBF4/60AB1EC5" Ref="C1"  Part="1" 
F 0 "C1" V 4254 2453 50  0000 L CNN
F 1 "10uF" V 4345 2453 50  0000 L CNN
F 2 "Capacitor_SMD:C_0805_2012Metric" H 4250 2350 50  0001 L BNN
F 3 "" H 4250 2350 50  0001 L BNN
	1    4250 2350
	0    1    1    0   
$EndComp
$Comp
L roket-rescue:Cap-805_cap C?
U 1 1 60AB2118
P 1300 2500
AR Path="/609302C0/60AB2118" Ref="C?"  Part="1" 
AR Path="/6093034B/60AB2118" Ref="C?"  Part="1" 
AR Path="/6092FBF4/60AB2118" Ref="C5"  Part="1" 
F 0 "C5" V 1304 2603 50  0000 L CNN
F 1 "22uF" V 1395 2603 50  0000 L CNN
F 2 "Capacitor_SMD:C_0805_2012Metric" H 1300 2500 50  0001 L BNN
F 3 "" H 1300 2500 50  0001 L BNN
	1    1300 2500
	0    1    1    0   
$EndComp
$Comp
L roket-rescue:Cap-805_cap C?
U 1 1 60AB236D
P 1800 2500
AR Path="/609302C0/60AB236D" Ref="C?"  Part="1" 
AR Path="/6093034B/60AB236D" Ref="C?"  Part="1" 
AR Path="/6092FBF4/60AB236D" Ref="C6"  Part="1" 
F 0 "C6" V 1804 2603 50  0000 L CNN
F 1 "10uF" V 1895 2603 50  0000 L CNN
F 2 "Capacitor_SMD:C_0805_2012Metric" H 1800 2500 50  0001 L BNN
F 3 "" H 1800 2500 50  0001 L BNN
	1    1800 2500
	0    1    1    0   
$EndComp
$Comp
L roket-rescue:Cap-805_cap C?
U 1 1 60AB24E7
P 2250 3550
AR Path="/609302C0/60AB24E7" Ref="C?"  Part="1" 
AR Path="/6093034B/60AB24E7" Ref="C?"  Part="1" 
AR Path="/6092FBF4/60AB24E7" Ref="C9"  Part="1" 
F 0 "C9" V 2254 3653 50  0000 L CNN
F 1 "0.1uF" V 2345 3653 50  0000 L CNN
F 2 "Capacitor_SMD:C_0805_2012Metric" H 2250 3550 50  0001 L BNN
F 3 "" H 2250 3550 50  0001 L BNN
	1    2250 3550
	0    1    1    0   
$EndComp
$Comp
L Device:R_US R?
U 1 1 60AB2D62
P 4600 2950
AR Path="/609302C0/60AB2D62" Ref="R?"  Part="1" 
AR Path="/6093043F/60AB2D62" Ref="R?"  Part="1" 
AR Path="/6092FBF4/60AB2D62" Ref="R3"  Part="1" 
F 0 "R3" H 4668 2996 50  0000 L CNN
F 1 "130K" H 4668 2905 50  0000 L CNN
F 2 "Resistor_SMD:R_0805_2012Metric" V 4640 2940 50  0001 C CNN
F 3 "~" H 4600 2950 50  0001 C CNN
	1    4600 2950
	1    0    0    -1  
$EndComp
$Comp
L Device:R_US R?
U 1 1 60AB2FAB
P 1650 3050
AR Path="/609302C0/60AB2FAB" Ref="R?"  Part="1" 
AR Path="/6093043F/60AB2FAB" Ref="R?"  Part="1" 
AR Path="/6092FBF4/60AB2FAB" Ref="R4"  Part="1" 
F 0 "R4" H 1718 3096 50  0000 L CNN
F 1 "10K" H 1718 3005 50  0000 L CNN
F 2 "Resistor_SMD:R_0805_2012Metric" V 1690 3040 50  0001 C CNN
F 3 "~" H 1650 3050 50  0001 C CNN
	1    1650 3050
	1    0    0    -1  
$EndComp
$Comp
L power:GND #PWR03
U 1 1 60AB4052
P 4250 2600
F 0 "#PWR03" H 4250 2350 50  0001 C CNN
F 1 "GND" H 4255 2427 50  0000 C CNN
F 2 "" H 4250 2600 50  0001 C CNN
F 3 "" H 4250 2600 50  0001 C CNN
	1    4250 2600
	1    0    0    -1  
$EndComp
$Comp
L power:GND #PWR04
U 1 1 60AB4CDA
P 5300 2600
F 0 "#PWR04" H 5300 2350 50  0001 C CNN
F 1 "GND" H 5305 2427 50  0000 C CNN
F 2 "" H 5300 2600 50  0001 C CNN
F 3 "" H 5300 2600 50  0001 C CNN
	1    5300 2600
	1    0    0    -1  
$EndComp
$Comp
L power:GND #PWR05
U 1 1 60AB4DD5
P 5700 2600
F 0 "#PWR05" H 5700 2350 50  0001 C CNN
F 1 "GND" H 5705 2427 50  0000 C CNN
F 2 "" H 5700 2600 50  0001 C CNN
F 3 "" H 5700 2600 50  0001 C CNN
	1    5700 2600
	1    0    0    -1  
$EndComp
$Comp
L power:GND #PWR06
U 1 1 60AB50CB
P 6100 2600
F 0 "#PWR06" H 6100 2350 50  0001 C CNN
F 1 "GND" H 6105 2427 50  0000 C CNN
F 2 "" H 6100 2600 50  0001 C CNN
F 3 "" H 6100 2600 50  0001 C CNN
	1    6100 2600
	1    0    0    -1  
$EndComp
$Comp
L power:GND #PWR014
U 1 1 60AB5318
P 4600 3150
F 0 "#PWR014" H 4600 2900 50  0001 C CNN
F 1 "GND" H 4605 2977 50  0000 C CNN
F 2 "" H 4600 3150 50  0001 C CNN
F 3 "" H 4600 3150 50  0001 C CNN
	1    4600 3150
	1    0    0    -1  
$EndComp
$Comp
L power:GND #PWR017
U 1 1 60AB54F3
P 2250 3800
F 0 "#PWR017" H 2250 3550 50  0001 C CNN
F 1 "GND" H 2255 3627 50  0000 C CNN
F 2 "" H 2250 3800 50  0001 C CNN
F 3 "" H 2250 3800 50  0001 C CNN
	1    2250 3800
	1    0    0    -1  
$EndComp
$Comp
L power:GND #PWR010
U 1 1 60AB5689
P 1800 2750
F 0 "#PWR010" H 1800 2500 50  0001 C CNN
F 1 "GND" H 1805 2577 50  0000 C CNN
F 2 "" H 1800 2750 50  0001 C CNN
F 3 "" H 1800 2750 50  0001 C CNN
	1    1800 2750
	1    0    0    -1  
$EndComp
$Comp
L power:GND #PWR09
U 1 1 60AB576E
P 1300 2750
F 0 "#PWR09" H 1300 2500 50  0001 C CNN
F 1 "GND" H 1305 2577 50  0000 C CNN
F 2 "" H 1300 2750 50  0001 C CNN
F 3 "" H 1300 2750 50  0001 C CNN
	1    1300 2750
	1    0    0    -1  
$EndComp
Wire Wire Line
	3700 2750 4600 2750
Wire Wire Line
	4600 2750 4600 2800
Connection ~ 4600 2750
Wire Wire Line
	4600 2450 4600 2250
Wire Wire Line
	4600 2250 4250 2250
Wire Wire Line
	4250 2250 4000 2250
Wire Wire Line
	4000 2250 4000 2500
Wire Wire Line
	4000 2500 3700 2500
Connection ~ 4250 2250
Wire Wire Line
	3700 3100 3700 3200
Connection ~ 3700 3200
Wire Wire Line
	3700 3200 3700 3300
Connection ~ 3700 3300
Wire Wire Line
	3700 3300 3700 3400
$Comp
L power:GND #PWR015
U 1 1 60AB732E
P 3700 3450
F 0 "#PWR015" H 3700 3200 50  0001 C CNN
F 1 "GND" H 3705 3277 50  0000 C CNN
F 2 "" H 3700 3450 50  0001 C CNN
F 3 "" H 3700 3450 50  0001 C CNN
	1    3700 3450
	1    0    0    -1  
$EndComp
Wire Wire Line
	4950 2250 5300 2250
Connection ~ 5300 2250
Wire Wire Line
	5300 2250 5700 2250
Connection ~ 5700 2250
Wire Wire Line
	5700 2250 6100 2250
Wire Wire Line
	2300 3400 2250 3400
Wire Wire Line
	2250 3400 2250 3450
Wire Wire Line
	2300 2500 2050 2500
Wire Wire Line
	2050 2500 2050 2400
Wire Wire Line
	2050 2400 1800 2400
Connection ~ 1800 2400
Wire Wire Line
	1800 2400 1650 2400
Wire Wire Line
	1650 3250 2300 3250
Connection ~ 1650 2400
Wire Wire Line
	1650 2400 1300 2400
$Comp
L power:+5V #PWR01
U 1 1 60ABCAEE
P 6100 2250
F 0 "#PWR01" H 6100 2100 50  0001 C CNN
F 1 "+5V" H 6115 2423 50  0000 C CNN
F 2 "" H 6100 2250 50  0001 C CNN
F 3 "" H 6100 2250 50  0001 C CNN
	1    6100 2250
	1    0    0    -1  
$EndComp
Connection ~ 6100 2250
$Comp
L power:VCC #PWR02
U 1 1 60ABD311
P 1300 2350
F 0 "#PWR02" H 1300 2200 50  0001 C CNN
F 1 "VCC" H 1315 2523 50  0000 C CNN
F 2 "" H 1300 2350 50  0001 C CNN
F 3 "" H 1300 2350 50  0001 C CNN
	1    1300 2350
	1    0    0    -1  
$EndComp
$Comp
L power:VCC #PWR020
U 1 1 60ABE055
P 3950 5000
F 0 "#PWR020" H 3950 4850 50  0001 C CNN
F 1 "VCC" H 3965 5173 50  0000 C CNN
F 2 "" H 3950 5000 50  0001 C CNN
F 3 "" H 3950 5000 50  0001 C CNN
	1    3950 5000
	1    0    0    -1  
$EndComp
$Comp
L power:+BATT #PWR019
U 1 1 60ABE964
P 3350 5000
F 0 "#PWR019" H 3350 4850 50  0001 C CNN
F 1 "+BATT" H 3365 5173 50  0000 C CNN
F 2 "" H 3350 5000 50  0001 C CNN
F 3 "" H 3350 5000 50  0001 C CNN
	1    3350 5000
	1    0    0    -1  
$EndComp
Wire Wire Line
	3950 5000 3950 5050
Wire Wire Line
	3950 5050 3850 5050
Wire Wire Line
	3450 5050 3350 5050
Wire Wire Line
	3350 5050 3350 5000
$Comp
L roket-rescue:Cap-805_cap C?
U 1 1 60AC2233
P 7250 2700
AR Path="/609302C0/60AC2233" Ref="C?"  Part="1" 
AR Path="/6093034B/60AC2233" Ref="C?"  Part="1" 
AR Path="/6092FBF4/60AC2233" Ref="C7"  Part="1" 
F 0 "C7" V 7254 2803 50  0000 L CNN
F 1 "1uF" V 7345 2803 50  0000 L CNN
F 2 "Capacitor_SMD:C_0805_2012Metric" H 7250 2700 50  0001 L BNN
F 3 "" H 7250 2700 50  0001 L BNN
	1    7250 2700
	0    1    1    0   
$EndComp
$Comp
L power:GND #PWR011
U 1 1 60AC2239
P 7250 2950
F 0 "#PWR011" H 7250 2700 50  0001 C CNN
F 1 "GND" H 7255 2777 50  0000 C CNN
F 2 "" H 7250 2950 50  0001 C CNN
F 3 "" H 7250 2950 50  0001 C CNN
	1    7250 2950
	1    0    0    -1  
$EndComp
$Comp
L power:+5V #PWR07
U 1 1 60AC2240
P 7250 2600
F 0 "#PWR07" H 7250 2450 50  0001 C CNN
F 1 "+5V" H 7265 2773 50  0000 C CNN
F 2 "" H 7250 2600 50  0001 C CNN
F 3 "" H 7250 2600 50  0001 C CNN
	1    7250 2600
	1    0    0    -1  
$EndComp
Wire Wire Line
	7650 2600 7600 2600
Connection ~ 7250 2600
Wire Wire Line
	7650 2800 7600 2800
Wire Wire Line
	7600 2800 7600 2600
Connection ~ 7600 2600
Wire Wire Line
	7600 2600 7250 2600
$Comp
L roket-rescue:Cap-805_cap C?
U 1 1 60AC4C1F
P 9250 2700
AR Path="/609302C0/60AC4C1F" Ref="C?"  Part="1" 
AR Path="/6093034B/60AC4C1F" Ref="C?"  Part="1" 
AR Path="/6092FBF4/60AC4C1F" Ref="C8"  Part="1" 
F 0 "C8" V 9254 2803 50  0000 L CNN
F 1 "4.7uF" V 9345 2803 50  0000 L CNN
F 2 "Capacitor_SMD:C_0805_2012Metric" H 9250 2700 50  0001 L BNN
F 3 "" H 9250 2700 50  0001 L BNN
	1    9250 2700
	0    1    1    0   
$EndComp
Wire Wire Line
	8850 2600 8950 2600
$Comp
L power:+3.3V #PWR08
U 1 1 60AC5AF8
P 9250 2600
F 0 "#PWR08" H 9250 2450 50  0001 C CNN
F 1 "+3.3V" H 9265 2773 50  0000 C CNN
F 2 "" H 9250 2600 50  0001 C CNN
F 3 "" H 9250 2600 50  0001 C CNN
	1    9250 2600
	1    0    0    -1  
$EndComp
Connection ~ 9250 2600
$Comp
L power:GND #PWR012
U 1 1 60AC7747
P 9250 2950
F 0 "#PWR012" H 9250 2700 50  0001 C CNN
F 1 "GND" H 9255 2777 50  0000 C CNN
F 2 "" H 9250 2950 50  0001 C CNN
F 3 "" H 9250 2950 50  0001 C CNN
	1    9250 2950
	1    0    0    -1  
$EndComp
$Comp
L power:GND #PWR013
U 1 1 60AC7F45
P 8850 3050
F 0 "#PWR013" H 8850 2800 50  0001 C CNN
F 1 "GND" H 8855 2877 50  0000 C CNN
F 2 "" H 8850 3050 50  0001 C CNN
F 3 "" H 8850 3050 50  0001 C CNN
	1    8850 3050
	1    0    0    -1  
$EndComp
Wire Wire Line
	8850 2800 8950 2800
Wire Wire Line
	8950 2800 8950 2600
Connection ~ 8950 2600
Wire Wire Line
	8950 2600 9250 2600
$Comp
L Device:R_US R?
U 1 1 60ACA012
P 6150 3750
AR Path="/609302C0/60ACA012" Ref="R?"  Part="1" 
AR Path="/6093043F/60ACA012" Ref="R?"  Part="1" 
AR Path="/6092FBF4/60ACA012" Ref="R5"  Part="1" 
F 0 "R5" H 6218 3796 50  0000 L CNN
F 1 "560K" H 6218 3705 50  0000 L CNN
F 2 "Resistor_SMD:R_0805_2012Metric" V 6190 3740 50  0001 C CNN
F 3 "~" H 6150 3750 50  0001 C CNN
	1    6150 3750
	1    0    0    -1  
$EndComp
$Comp
L Device:R_US R?
U 1 1 60ACA018
P 6150 4150
AR Path="/609302C0/60ACA018" Ref="R?"  Part="1" 
AR Path="/6093043F/60ACA018" Ref="R?"  Part="1" 
AR Path="/6092FBF4/60ACA018" Ref="R6"  Part="1" 
F 0 "R6" H 6218 4196 50  0000 L CNN
F 1 "100K" H 6218 4105 50  0000 L CNN
F 2 "Resistor_SMD:R_0805_2012Metric" V 6190 4140 50  0001 C CNN
F 3 "~" H 6150 4150 50  0001 C CNN
	1    6150 4150
	1    0    0    -1  
$EndComp
$Comp
L power:GND #PWR018
U 1 1 60ACA01E
P 6150 4350
F 0 "#PWR018" H 6150 4100 50  0001 C CNN
F 1 "GND" H 6155 4177 50  0000 C CNN
F 2 "" H 6150 4350 50  0001 C CNN
F 3 "" H 6150 4350 50  0001 C CNN
	1    6150 4350
	1    0    0    -1  
$EndComp
Wire Wire Line
	6150 3950 6150 4000
$Comp
L power:+BATT #PWR016
U 1 1 60ACABD1
P 6150 3500
F 0 "#PWR016" H 6150 3350 50  0001 C CNN
F 1 "+BATT" H 6165 3673 50  0000 C CNN
F 2 "" H 6150 3500 50  0001 C CNN
F 3 "" H 6150 3500 50  0001 C CNN
	1    6150 3500
	1    0    0    -1  
$EndComp
Text HLabel 6000 3950 0    50   Input ~ 0
Bat_D
Wire Wire Line
	6000 3950 6150 3950
Wire Wire Line
	1650 3200 1650 3250
Wire Wire Line
	1650 2400 1650 2900
Wire Wire Line
	2300 3000 2300 3250
Wire Wire Line
	3700 3450 3700 3400
Connection ~ 3700 3400
Wire Wire Line
	1300 2400 1300 2350
Connection ~ 1300 2400
Wire Wire Line
	6150 3600 6150 3500
$Comp
L Device:R_US R?
U 1 1 6098B622
P 4950 2600
AR Path="/609302C0/6098B622" Ref="R?"  Part="1" 
AR Path="/6093043F/6098B622" Ref="R?"  Part="1" 
AR Path="/6092FBF4/6098B622" Ref="R2"  Part="1" 
F 0 "R2" H 5018 2646 50  0000 L CNN
F 1 "100K" H 5018 2555 50  0000 L CNN
F 2 "Resistor_SMD:R_0805_2012Metric" V 4990 2590 50  0001 C CNN
F 3 "~" H 4950 2600 50  0001 C CNN
	1    4950 2600
	1    0    0    -1  
$EndComp
Wire Wire Line
	3700 3000 4250 3000
Wire Wire Line
	4250 3000 4250 3400
Wire Wire Line
	4250 3400 4950 3400
Wire Wire Line
	4950 3400 4950 2750
Wire Wire Line
	4950 2450 4950 2250
Wire Wire Line
	4950 2250 4600 2250
Connection ~ 4950 2250
Connection ~ 4600 2250
Wire Wire Line
	6150 4350 6150 4300
Wire Wire Line
	2250 3800 2250 3750
Wire Wire Line
	1300 2750 1300 2700
Wire Wire Line
	1800 2750 1800 2700
Wire Wire Line
	4600 3150 4600 3100
Wire Wire Line
	6100 2600 6100 2550
Wire Wire Line
	5700 2600 5700 2550
Wire Wire Line
	5300 2600 5300 2550
Wire Wire Line
	4250 2600 4250 2550
Wire Wire Line
	7250 2950 7250 2900
Wire Wire Line
	8850 3050 8850 3000
Wire Wire Line
	9250 2950 9250 2900
Wire Wire Line
	6150 3950 6150 3900
Connection ~ 6150 3950
$Comp
L roket-rescue:UWT1C331MNL1GS-CAPAE1030X1000N C10
U 1 1 60A273B2
P 3350 5400
F 0 "C10" V 3254 5530 50  0000 L CNN
F 1 "UWT1C681MNL1GS" V 3345 5530 50  0000 L CNN
F 2 "others:CAPAE1030X1000N" H 3350 5400 50  0001 L BNN
F 3 "" H 3350 5400 50  0001 L BNN
F 4 "Nichicon" H 3350 5400 50  0001 L BNN "MANUFACTURER"
F 5 "IPC-7351B" H 3350 5400 50  0001 L BNN "STANDARD"
F 6 "CAT.8100H" H 3350 5400 50  0001 L BNN "PARTREV"
F 7 "10.8mm" H 3350 5400 50  0001 L BNN "MAXIMUM_PACKAGE_HEIGHT"
	1    3350 5400
	0    1    1    0   
$EndComp
Connection ~ 3350 5050
$Comp
L power:GND #PWR021
U 1 1 60A2A7EC
P 3350 5600
F 0 "#PWR021" H 3350 5350 50  0001 C CNN
F 1 "GND" H 3355 5427 50  0000 C CNN
F 2 "" H 3350 5600 50  0001 C CNN
F 3 "" H 3350 5600 50  0001 C CNN
	1    3350 5600
	1    0    0    -1  
$EndComp
Wire Wire Line
	3350 5600 3350 5500
Wire Wire Line
	3350 5050 3350 5200
Wire Wire Line
	2300 2900 2300 2750
Wire Wire Line
	2300 2750 1800 2750
Connection ~ 1800 2750
$EndSCHEMATC
