(kicad_sch (version 20211123) (generator eeschema)

  (uuid cd74d4e8-7b2d-4973-8201-ec6023b8732a)

  (paper "A4")

  (lib_symbols
    (symbol "power:+5V" (power) (pin_names (offset 0)) (in_bom yes) (on_board yes)
      (property "Reference" "#PWR" (id 0) (at 0 -3.81 0)
        (effects (font (size 1.27 1.27)) hide)
      )
      (property "Value" "+5V" (id 1) (at 0 3.556 0)
        (effects (font (size 1.27 1.27)))
      )
      (property "Footprint" "" (id 2) (at 0 0 0)
        (effects (font (size 1.27 1.27)) hide)
      )
      (property "Datasheet" "" (id 3) (at 0 0 0)
        (effects (font (size 1.27 1.27)) hide)
      )
      (property "ki_keywords" "power-flag" (id 4) (at 0 0 0)
        (effects (font (size 1.27 1.27)) hide)
      )
      (property "ki_description" "Power symbol creates a global label with name \"+5V\"" (id 5) (at 0 0 0)
        (effects (font (size 1.27 1.27)) hide)
      )
      (symbol "+5V_0_1"
        (polyline
          (pts
            (xy -0.762 1.27)
            (xy 0 2.54)
          )
          (stroke (width 0) (type default) (color 0 0 0 0))
          (fill (type none))
        )
        (polyline
          (pts
            (xy 0 0)
            (xy 0 2.54)
          )
          (stroke (width 0) (type default) (color 0 0 0 0))
          (fill (type none))
        )
        (polyline
          (pts
            (xy 0 2.54)
            (xy 0.762 1.27)
          )
          (stroke (width 0) (type default) (color 0 0 0 0))
          (fill (type none))
        )
      )
      (symbol "+5V_1_1"
        (pin power_in line (at 0 0 90) (length 0) hide
          (name "+5V" (effects (font (size 1.27 1.27))))
          (number "1" (effects (font (size 1.27 1.27))))
        )
      )
    )
    (symbol "power:GND" (power) (pin_names (offset 0)) (in_bom yes) (on_board yes)
      (property "Reference" "#PWR" (id 0) (at 0 -6.35 0)
        (effects (font (size 1.27 1.27)) hide)
      )
      (property "Value" "GND" (id 1) (at 0 -3.81 0)
        (effects (font (size 1.27 1.27)))
      )
      (property "Footprint" "" (id 2) (at 0 0 0)
        (effects (font (size 1.27 1.27)) hide)
      )
      (property "Datasheet" "" (id 3) (at 0 0 0)
        (effects (font (size 1.27 1.27)) hide)
      )
      (property "ki_keywords" "power-flag" (id 4) (at 0 0 0)
        (effects (font (size 1.27 1.27)) hide)
      )
      (property "ki_description" "Power symbol creates a global label with name \"GND\" , ground" (id 5) (at 0 0 0)
        (effects (font (size 1.27 1.27)) hide)
      )
      (symbol "GND_0_1"
        (polyline
          (pts
            (xy 0 0)
            (xy 0 -1.27)
            (xy 1.27 -1.27)
            (xy 0 -2.54)
            (xy -1.27 -1.27)
            (xy 0 -1.27)
          )
          (stroke (width 0) (type default) (color 0 0 0 0))
          (fill (type none))
        )
      )
      (symbol "GND_1_1"
        (pin power_in line (at 0 0 270) (length 0) hide
          (name "GND" (effects (font (size 1.27 1.27))))
          (number "1" (effects (font (size 1.27 1.27))))
        )
      )
    )
    (symbol "roket-rescue:Servo-servo" (pin_names (offset 1.016)) (in_bom yes) (on_board yes)
      (property "Reference" "J" (id 0) (at -5.588 5.08 0)
        (effects (font (size 1.27 1.27)) (justify left bottom))
      )
      (property "Value" "Servo-servo" (id 1) (at -5.08 -7.62 0)
        (effects (font (size 1.27 1.27)) (justify left bottom))
      )
      (property "Footprint" "TE_87527-3" (id 2) (at 0 0 0)
        (effects (font (size 1.27 1.27)) (justify left bottom) hide)
      )
      (property "Datasheet" "" (id 3) (at 0 0 0)
        (effects (font (size 1.27 1.27)) (justify left bottom) hide)
      )
      (property "Product_Type" "Connector" (id 4) (at 0 0 0)
        (effects (font (size 1.27 1.27)) (justify left bottom) hide)
      )
      (property "Number_of_Positions" "3" (id 5) (at 0 0 0)
        (effects (font (size 1.27 1.27)) (justify left bottom) hide)
      )
      (property "Centerline_Pitch" "2.54 mm[.1 in]" (id 6) (at 0 0 0)
        (effects (font (size 1.27 1.27)) (justify left bottom) hide)
      )
      (property "EU_RoHS_Compliance" "Compliant" (id 7) (at 0 0 0)
        (effects (font (size 1.27 1.27)) (justify left bottom) hide)
      )
      (property "Comment" "87527-3" (id 8) (at 0 0 0)
        (effects (font (size 1.27 1.27)) (justify left bottom) hide)
      )
      (property "ki_locked" "" (id 9) (at 0 0 0)
        (effects (font (size 1.27 1.27)))
      )
      (symbol "Servo-servo_0_0"
        (rectangle (start -5.08 -5.08) (end 5.08 5.08)
          (stroke (width 0.254) (type default) (color 0 0 0 0))
          (fill (type background))
        )
        (pin passive line (at -10.16 2.54 0) (length 5.08)
          (name "PWM" (effects (font (size 1.016 1.016))))
          (number "1" (effects (font (size 1.016 1.016))))
        )
        (pin passive line (at -10.16 0 0) (length 5.08)
          (name "VCC" (effects (font (size 1.016 1.016))))
          (number "2" (effects (font (size 1.016 1.016))))
        )
        (pin passive line (at -10.16 -2.54 0) (length 5.08)
          (name "GND" (effects (font (size 1.016 1.016))))
          (number "3" (effects (font (size 1.016 1.016))))
        )
      )
    )
  )


  (wire (pts (xy 143.51 87.63) (xy 139.7 87.63))
    (stroke (width 0) (type default) (color 0 0 0 0))
    (uuid 00b04a07-ee13-449f-a641-9f5dcf873c95)
  )
  (wire (pts (xy 130.81 85.09) (xy 130.81 83.82))
    (stroke (width 0) (type default) (color 0 0 0 0))
    (uuid 1f5471b6-1561-46c1-8386-c7ac756b5b73)
  )
  (wire (pts (xy 139.7 87.63) (xy 139.7 88.9))
    (stroke (width 0) (type default) (color 0 0 0 0))
    (uuid 2d996a8b-6122-438e-a4d9-601cb526df48)
  )
  (wire (pts (xy 143.51 85.09) (xy 130.81 85.09))
    (stroke (width 0) (type default) (color 0 0 0 0))
    (uuid 37fa8ebd-6725-44b2-96c9-77f240af55df)
  )
  (wire (pts (xy 143.51 82.55) (xy 139.7 82.55))
    (stroke (width 0) (type default) (color 0 0 0 0))
    (uuid 898e6de4-04d0-4811-9be7-7e6676bb788f)
  )

  (hierarchical_label "Servo" (shape input) (at 139.7 82.55 180)
    (effects (font (size 1.27 1.27)) (justify right))
    (uuid ec17c8a7-1241-4ae5-9c7e-ef322b26ec12)
  )

  (symbol (lib_id "roket-rescue:Servo-servo") (at 153.67 85.09 0) (unit 1)
    (in_bom yes) (on_board yes)
    (uuid 00000000-0000-0000-0000-000060984baf)
    (property "Reference" "J1" (id 0) (at 159.512 83.9216 0)
      (effects (font (size 1.27 1.27)) (justify left))
    )
    (property "Value" "Servo" (id 1) (at 159.512 86.233 0)
      (effects (font (size 1.27 1.27)) (justify left))
    )
    (property "Footprint" "others:servo" (id 2) (at 153.67 85.09 0)
      (effects (font (size 1.27 1.27)) (justify left bottom) hide)
    )
    (property "Datasheet" "" (id 3) (at 153.67 85.09 0)
      (effects (font (size 1.27 1.27)) (justify left bottom) hide)
    )
    (property "Product_Type" "Connector" (id 4) (at 153.67 85.09 0)
      (effects (font (size 1.27 1.27)) (justify left bottom) hide)
    )
    (property "Number_of_Positions" "3" (id 5) (at 153.67 85.09 0)
      (effects (font (size 1.27 1.27)) (justify left bottom) hide)
    )
    (property "Centerline_Pitch" "2.54 mm[.1 in]" (id 6) (at 153.67 85.09 0)
      (effects (font (size 1.27 1.27)) (justify left bottom) hide)
    )
    (property "EU_RoHS_Compliance" "Compliant" (id 7) (at 153.67 85.09 0)
      (effects (font (size 1.27 1.27)) (justify left bottom) hide)
    )
    (property "Comment" "87527-3" (id 8) (at 153.67 85.09 0)
      (effects (font (size 1.27 1.27)) (justify left bottom) hide)
    )
    (pin "1" (uuid ed31578f-627c-46a6-92e8-069819335c72))
    (pin "2" (uuid bf705268-43cd-4a46-9fcb-3e9375ad49f1))
    (pin "3" (uuid 18aef28a-fd8f-4242-88c4-1477f0e74954))
  )

  (symbol (lib_id "power:+5V") (at 130.81 83.82 0) (unit 1)
    (in_bom yes) (on_board yes)
    (uuid 00000000-0000-0000-0000-000060985edb)
    (property "Reference" "#PWR023" (id 0) (at 130.81 87.63 0)
      (effects (font (size 1.27 1.27)) hide)
    )
    (property "Value" "+5V" (id 1) (at 131.191 79.4258 0))
    (property "Footprint" "" (id 2) (at 130.81 83.82 0)
      (effects (font (size 1.27 1.27)) hide)
    )
    (property "Datasheet" "" (id 3) (at 130.81 83.82 0)
      (effects (font (size 1.27 1.27)) hide)
    )
    (pin "1" (uuid e7902cf2-7634-4826-9ca8-c3c114dee8dc))
  )

  (symbol (lib_id "power:GND") (at 139.7 88.9 0) (unit 1)
    (in_bom yes) (on_board yes)
    (uuid 00000000-0000-0000-0000-000060986495)
    (property "Reference" "#PWR024" (id 0) (at 139.7 95.25 0)
      (effects (font (size 1.27 1.27)) hide)
    )
    (property "Value" "GND" (id 1) (at 139.827 93.2942 0))
    (property "Footprint" "" (id 2) (at 139.7 88.9 0)
      (effects (font (size 1.27 1.27)) hide)
    )
    (property "Datasheet" "" (id 3) (at 139.7 88.9 0)
      (effects (font (size 1.27 1.27)) hide)
    )
    (pin "1" (uuid 99e8e5b0-11fe-47b5-af33-c0d1c76cbb6f))
  )
)
