(kicad_sch (version 20211123) (generator eeschema)

  (uuid f1a4d6bf-8877-493e-8942-0c8dae25a990)

  (paper "A4")

  (lib_symbols
    (symbol "power:+3.3V" (power) (pin_names (offset 0)) (in_bom yes) (on_board yes)
      (property "Reference" "#PWR" (id 0) (at 0 -3.81 0)
        (effects (font (size 1.27 1.27)) hide)
      )
      (property "Value" "+3.3V" (id 1) (at 0 3.556 0)
        (effects (font (size 1.27 1.27)))
      )
      (property "Footprint" "" (id 2) (at 0 0 0)
        (effects (font (size 1.27 1.27)) hide)
      )
      (property "Datasheet" "" (id 3) (at 0 0 0)
        (effects (font (size 1.27 1.27)) hide)
      )
      (property "ki_keywords" "power-flag" (id 4) (at 0 0 0)
        (effects (font (size 1.27 1.27)) hide)
      )
      (property "ki_description" "Power symbol creates a global label with name \"+3.3V\"" (id 5) (at 0 0 0)
        (effects (font (size 1.27 1.27)) hide)
      )
      (symbol "+3.3V_0_1"
        (polyline
          (pts
            (xy -0.762 1.27)
            (xy 0 2.54)
          )
          (stroke (width 0) (type default) (color 0 0 0 0))
          (fill (type none))
        )
        (polyline
          (pts
            (xy 0 0)
            (xy 0 2.54)
          )
          (stroke (width 0) (type default) (color 0 0 0 0))
          (fill (type none))
        )
        (polyline
          (pts
            (xy 0 2.54)
            (xy 0.762 1.27)
          )
          (stroke (width 0) (type default) (color 0 0 0 0))
          (fill (type none))
        )
      )
      (symbol "+3.3V_1_1"
        (pin power_in line (at 0 0 90) (length 0) hide
          (name "+3V3" (effects (font (size 1.27 1.27))))
          (number "1" (effects (font (size 1.27 1.27))))
        )
      )
    )
    (symbol "power:GND" (power) (pin_names (offset 0)) (in_bom yes) (on_board yes)
      (property "Reference" "#PWR" (id 0) (at 0 -6.35 0)
        (effects (font (size 1.27 1.27)) hide)
      )
      (property "Value" "GND" (id 1) (at 0 -3.81 0)
        (effects (font (size 1.27 1.27)))
      )
      (property "Footprint" "" (id 2) (at 0 0 0)
        (effects (font (size 1.27 1.27)) hide)
      )
      (property "Datasheet" "" (id 3) (at 0 0 0)
        (effects (font (size 1.27 1.27)) hide)
      )
      (property "ki_keywords" "power-flag" (id 4) (at 0 0 0)
        (effects (font (size 1.27 1.27)) hide)
      )
      (property "ki_description" "Power symbol creates a global label with name \"GND\" , ground" (id 5) (at 0 0 0)
        (effects (font (size 1.27 1.27)) hide)
      )
      (symbol "GND_0_1"
        (polyline
          (pts
            (xy 0 0)
            (xy 0 -1.27)
            (xy 1.27 -1.27)
            (xy 0 -2.54)
            (xy -1.27 -1.27)
            (xy 0 -1.27)
          )
          (stroke (width 0) (type default) (color 0 0 0 0))
          (fill (type none))
        )
      )
      (symbol "GND_1_1"
        (pin power_in line (at 0 0 270) (length 0) hide
          (name "GND" (effects (font (size 1.27 1.27))))
          (number "1" (effects (font (size 1.27 1.27))))
        )
      )
    )
    (symbol "roket-rescue:Cap-805_cap" (pin_names (offset 1.016) hide) (in_bom yes) (on_board yes)
      (property "Reference" "C" (id 0) (at 0 3.81 0)
        (effects (font (size 1.27 1.27)) (justify left bottom))
      )
      (property "Value" "Cap-805_cap" (id 1) (at 0 -5.08 0)
        (effects (font (size 1.27 1.27)) (justify left bottom))
      )
      (property "Footprint" "CAPC2012X135N" (id 2) (at 0 0 0)
        (effects (font (size 1.27 1.27)) (justify left bottom) hide)
      )
      (property "Datasheet" "" (id 3) (at 0 0 0)
        (effects (font (size 1.27 1.27)) (justify left bottom) hide)
      )
      (property "ki_locked" "" (id 4) (at 0 0 0)
        (effects (font (size 1.27 1.27)))
      )
      (symbol "Cap-805_cap_0_0"
        (rectangle (start 0 -1.905) (end 0.635 1.905)
          (stroke (width 0) (type default) (color 0 0 0 0))
          (fill (type outline))
        )
        (rectangle (start 1.905 -1.905) (end 2.54 1.905)
          (stroke (width 0) (type default) (color 0 0 0 0))
          (fill (type outline))
        )
        (pin passive line (at 5.08 0 180) (length 2.54)
          (name "~" (effects (font (size 1.016 1.016))))
          (number "1" (effects (font (size 1.016 1.016))))
        )
        (pin passive line (at -2.54 0 0) (length 2.54)
          (name "~" (effects (font (size 1.016 1.016))))
          (number "2" (effects (font (size 1.016 1.016))))
        )
      )
    )
    (symbol "roket-rescue:H3LIS331DL-H3LIS331DL" (pin_names (offset 1.016)) (in_bom yes) (on_board yes)
      (property "Reference" "U" (id 0) (at -12.7254 10.8204 0)
        (effects (font (size 1.27 1.27)) (justify left bottom))
      )
      (property "Value" "H3LIS331DL-H3LIS331DL" (id 1) (at -12.7254 -12.7254 0)
        (effects (font (size 1.27 1.27)) (justify left bottom))
      )
      (property "Footprint" "QFN300X300X100-16N" (id 2) (at 0 0 0)
        (effects (font (size 1.27 1.27)) (justify left bottom) hide)
      )
      (property "Datasheet" "" (id 3) (at 0 0 0)
        (effects (font (size 1.27 1.27)) (justify left bottom) hide)
      )
      (property "AVAILABILITY" "Good" (id 4) (at 0 0 0)
        (effects (font (size 1.27 1.27)) (justify left bottom) hide)
      )
      (property "MP" "H3LIS331DL" (id 5) (at 0 0 0)
        (effects (font (size 1.27 1.27)) (justify left bottom) hide)
      )
      (property "PACKAGE" "QFN300X300X100-16N" (id 6) (at 0 0 0)
        (effects (font (size 1.27 1.27)) (justify left bottom) hide)
      )
      (property "MF" "STMicroelectronics" (id 7) (at 0 0 0)
        (effects (font (size 1.27 1.27)) (justify left bottom) hide)
      )
      (property "PRICE" "$6.93 USD" (id 8) (at 0 0 0)
        (effects (font (size 1.27 1.27)) (justify left bottom) hide)
      )
      (property "ki_locked" "" (id 9) (at 0 0 0)
        (effects (font (size 1.27 1.27)))
      )
      (symbol "H3LIS331DL-H3LIS331DL_0_0"
        (rectangle (start -12.7 -10.16) (end 12.7 10.16)
          (stroke (width 0.254) (type default) (color 0 0 0 0))
          (fill (type background))
        )
        (pin power_in line (at 17.78 7.62 180) (length 5.08)
          (name "VDD_IO" (effects (font (size 1.016 1.016))))
          (number "1" (effects (font (size 1.016 1.016))))
        )
        (pin power_in line (at 17.78 -7.62 180) (length 5.08)
          (name "GND" (effects (font (size 1.016 1.016))))
          (number "10" (effects (font (size 1.016 1.016))))
        )
        (pin output line (at 17.78 0 180) (length 5.08)
          (name "INT1" (effects (font (size 1.016 1.016))))
          (number "11" (effects (font (size 1.016 1.016))))
        )
        (pin power_in line (at 17.78 -7.62 180) (length 5.08)
          (name "GND" (effects (font (size 1.016 1.016))))
          (number "12" (effects (font (size 1.016 1.016))))
        )
        (pin power_in line (at 17.78 -7.62 180) (length 5.08)
          (name "GND" (effects (font (size 1.016 1.016))))
          (number "13" (effects (font (size 1.016 1.016))))
        )
        (pin power_in line (at 17.78 5.08 180) (length 5.08)
          (name "VDD" (effects (font (size 1.016 1.016))))
          (number "14" (effects (font (size 1.016 1.016))))
        )
        (pin power_in line (at 17.78 5.08 180) (length 5.08)
          (name "VDD" (effects (font (size 1.016 1.016))))
          (number "15" (effects (font (size 1.016 1.016))))
        )
        (pin power_in line (at 17.78 -7.62 180) (length 5.08)
          (name "GND" (effects (font (size 1.016 1.016))))
          (number "16" (effects (font (size 1.016 1.016))))
        )
        (pin input clock (at -17.78 -5.08 0) (length 5.08)
          (name "SCL/SPC" (effects (font (size 1.016 1.016))))
          (number "4" (effects (font (size 1.016 1.016))))
        )
        (pin power_in line (at 17.78 -7.62 180) (length 5.08)
          (name "GND" (effects (font (size 1.016 1.016))))
          (number "5" (effects (font (size 1.016 1.016))))
        )
        (pin bidirectional line (at -17.78 -7.62 0) (length 5.08)
          (name "SDA/SDI/SDO" (effects (font (size 1.016 1.016))))
          (number "6" (effects (font (size 1.016 1.016))))
        )
        (pin bidirectional line (at -17.78 5.08 0) (length 5.08)
          (name "SDO/SA0" (effects (font (size 1.016 1.016))))
          (number "7" (effects (font (size 1.016 1.016))))
        )
        (pin input line (at -17.78 7.62 0) (length 5.08)
          (name "CS" (effects (font (size 1.016 1.016))))
          (number "8" (effects (font (size 1.016 1.016))))
        )
        (pin output line (at 17.78 -2.54 180) (length 5.08)
          (name "INT2" (effects (font (size 1.016 1.016))))
          (number "9" (effects (font (size 1.016 1.016))))
        )
      )
    )
  )

  (junction (at 180.34 92.71) (diameter 0) (color 0 0 0 0)
    (uuid 76623d42-0efc-4162-b0a7-3b414c755f4b)
  )
  (junction (at 180.34 91.44) (diameter 0) (color 0 0 0 0)
    (uuid cdfb1479-60d1-4463-9e00-5072aae3f0c2)
  )
  (junction (at 172.72 77.47) (diameter 0) (color 0 0 0 0)
    (uuid f75a584a-8cce-4b39-98f9-e135386a1410)
  )
  (junction (at 180.34 77.47) (diameter 0) (color 0 0 0 0)
    (uuid fafa102d-ca68-4c49-b4b0-8dc360e7c3a1)
  )

  (no_connect (at 171.45 85.09) (uuid 6fa27a8e-c845-4685-bac2-fb97083037cc))
  (no_connect (at 171.45 87.63) (uuid ed1cb1a3-921d-4ab5-a6d4-a265980e3937))

  (wire (pts (xy 180.34 80.01) (xy 180.34 77.47))
    (stroke (width 0) (type default) (color 0 0 0 0))
    (uuid 0ab60d91-bae1-47c1-832f-a217b156e8c2)
  )
  (wire (pts (xy 191.77 77.47) (xy 191.77 80.01))
    (stroke (width 0) (type default) (color 0 0 0 0))
    (uuid 2c11ca3b-7133-4b51-a5ed-e546342c396a)
  )
  (wire (pts (xy 180.34 87.63) (xy 180.34 91.44))
    (stroke (width 0) (type default) (color 0 0 0 0))
    (uuid 35589720-86de-46c9-8d2c-f7c01dcc1f55)
  )
  (wire (pts (xy 180.34 92.71) (xy 180.34 91.44))
    (stroke (width 0) (type default) (color 0 0 0 0))
    (uuid 3b91bc9b-0e44-4a26-b50a-a8ef47004727)
  )
  (wire (pts (xy 135.89 80.01) (xy 134.62 80.01))
    (stroke (width 0) (type default) (color 0 0 0 0))
    (uuid 4016965f-6edb-44d7-8c02-2204eec309ff)
  )
  (wire (pts (xy 191.77 91.44) (xy 180.34 91.44))
    (stroke (width 0) (type default) (color 0 0 0 0))
    (uuid 561e893e-2a19-4874-ac2d-7e6f87bc7a3d)
  )
  (wire (pts (xy 171.45 92.71) (xy 180.34 92.71))
    (stroke (width 0) (type default) (color 0 0 0 0))
    (uuid 6c5d78fb-4b07-4662-b1b0-7d33733dbdf1)
  )
  (wire (pts (xy 171.45 77.47) (xy 172.72 77.47))
    (stroke (width 0) (type default) (color 0 0 0 0))
    (uuid 708f70da-27b0-44c4-9962-9625f9a059a2)
  )
  (wire (pts (xy 135.89 92.71) (xy 134.62 92.71))
    (stroke (width 0) (type default) (color 0 0 0 0))
    (uuid 71fb5c3e-fd4f-4967-8334-15b7ebefbb10)
  )
  (wire (pts (xy 171.45 80.01) (xy 172.72 80.01))
    (stroke (width 0) (type default) (color 0 0 0 0))
    (uuid 8ad6c083-ba30-4c80-a06e-fffe559dbec5)
  )
  (wire (pts (xy 180.34 77.47) (xy 191.77 77.47))
    (stroke (width 0) (type default) (color 0 0 0 0))
    (uuid 9947971c-5ea8-4d5b-aaf6-f5bc2f083367)
  )
  (wire (pts (xy 135.89 90.17) (xy 134.62 90.17))
    (stroke (width 0) (type default) (color 0 0 0 0))
    (uuid 9d562af6-355f-4ab4-8448-54086c07d62c)
  )
  (wire (pts (xy 172.72 77.47) (xy 180.34 77.47))
    (stroke (width 0) (type default) (color 0 0 0 0))
    (uuid 9f28338f-94d3-4661-a3c3-61213e587690)
  )
  (wire (pts (xy 172.72 80.01) (xy 172.72 77.47))
    (stroke (width 0) (type default) (color 0 0 0 0))
    (uuid c063591b-5b4f-4b05-a908-369c0cddcac0)
  )
  (wire (pts (xy 191.77 87.63) (xy 191.77 91.44))
    (stroke (width 0) (type default) (color 0 0 0 0))
    (uuid c2dec22b-f980-42ca-9ec4-4bb7004649b4)
  )
  (wire (pts (xy 135.89 77.47) (xy 134.62 77.47))
    (stroke (width 0) (type default) (color 0 0 0 0))
    (uuid c691b583-f441-493b-bd6f-4beae63ddcd0)
  )

  (hierarchical_label "SCLK" (shape input) (at 134.62 90.17 180)
    (effects (font (size 1.27 1.27)) (justify right))
    (uuid 19a33c09-0890-45a6-83ac-15a21d563206)
  )
  (hierarchical_label "CS" (shape input) (at 134.62 77.47 180)
    (effects (font (size 1.27 1.27)) (justify right))
    (uuid 30f7241e-a73c-4677-a676-b58d721b24ed)
  )
  (hierarchical_label "MOSI" (shape input) (at 134.62 92.71 180)
    (effects (font (size 1.27 1.27)) (justify right))
    (uuid 44da5fbd-7473-49fc-bca1-2b150ad3945b)
  )
  (hierarchical_label "MISO" (shape input) (at 134.62 80.01 180)
    (effects (font (size 1.27 1.27)) (justify right))
    (uuid 77f8c1b6-21c8-42f0-bb97-be504f0fcffb)
  )

  (symbol (lib_id "roket-rescue:H3LIS331DL-H3LIS331DL") (at 153.67 85.09 0) (unit 1)
    (in_bom yes) (on_board yes)
    (uuid 00000000-0000-0000-0000-000060ad2973)
    (property "Reference" "U4" (id 0) (at 153.67 70.6882 0))
    (property "Value" "H3LIS331DL" (id 1) (at 153.67 72.9996 0))
    (property "Footprint" "digikey-footprints:TFLGA-16_3x3mm" (id 2) (at 153.67 85.09 0)
      (effects (font (size 1.27 1.27)) (justify left bottom) hide)
    )
    (property "Datasheet" "" (id 3) (at 153.67 85.09 0)
      (effects (font (size 1.27 1.27)) (justify left bottom) hide)
    )
    (property "AVAILABILITY" "Good" (id 4) (at 153.67 85.09 0)
      (effects (font (size 1.27 1.27)) (justify left bottom) hide)
    )
    (property "MP" "H3LIS331DL" (id 5) (at 153.67 85.09 0)
      (effects (font (size 1.27 1.27)) (justify left bottom) hide)
    )
    (property "PACKAGE" "QFN300X300X100-16N" (id 6) (at 153.67 85.09 0)
      (effects (font (size 1.27 1.27)) (justify left bottom) hide)
    )
    (property "MF" "STMicroelectronics" (id 7) (at 153.67 85.09 0)
      (effects (font (size 1.27 1.27)) (justify left bottom) hide)
    )
    (property "PRICE" "$6.93 USD" (id 8) (at 153.67 85.09 0)
      (effects (font (size 1.27 1.27)) (justify left bottom) hide)
    )
    (pin "1" (uuid 849cd7b8-7087-45e9-9758-6be5ddb9272b))
    (pin "10" (uuid 913c4ea5-c544-45e4-8d69-ab0f0de8a1e8))
    (pin "11" (uuid ae726b04-78df-4195-b9aa-128d43b4fae7))
    (pin "12" (uuid 37536dab-9bd9-47d6-b63d-a4d2b4b1349e))
    (pin "13" (uuid 0adfe730-b702-45b8-ae3b-2167462f9d2a))
    (pin "14" (uuid ca3bd11e-cfaa-4827-a3a9-274a646eced8))
    (pin "15" (uuid c671c092-c3b1-4a0d-a2a1-117225b1e74f))
    (pin "16" (uuid 8189d540-451b-4698-a863-95a0e6b6a18f))
    (pin "4" (uuid bac4c3e3-a296-48ad-82ed-a1508213420b))
    (pin "5" (uuid c773a660-8854-41b0-9240-e76505c51a35))
    (pin "6" (uuid 5d8d2eaa-ba32-4748-b902-80f1e2fae063))
    (pin "7" (uuid abc1b076-4658-4129-a48b-2fb0dcb0b4f6))
    (pin "8" (uuid 8f7c0f99-7d1b-4e1c-b220-d986dd1cc1aa))
    (pin "9" (uuid 75cb9884-dc6b-449c-bdc9-c9ec953fddb4))
  )

  (symbol (lib_id "roket-rescue:Cap-805_cap") (at 180.34 82.55 270) (unit 1)
    (in_bom yes) (on_board yes)
    (uuid 00000000-0000-0000-0000-000060ad40a9)
    (property "Reference" "C12" (id 0) (at 182.9562 82.6516 90)
      (effects (font (size 1.27 1.27)) (justify left))
    )
    (property "Value" "0.1uF" (id 1) (at 182.9562 84.963 90)
      (effects (font (size 1.27 1.27)) (justify left))
    )
    (property "Footprint" "Capacitor_SMD:C_0805_2012Metric" (id 2) (at 180.34 82.55 0)
      (effects (font (size 1.27 1.27)) (justify left bottom) hide)
    )
    (property "Datasheet" "" (id 3) (at 180.34 82.55 0)
      (effects (font (size 1.27 1.27)) (justify left bottom) hide)
    )
    (pin "1" (uuid 43cf14d6-64bc-44ae-88ff-bb47451ba078))
    (pin "2" (uuid d3243b41-1dc8-4ac1-97c1-7bae406d6c66))
  )

  (symbol (lib_id "power:GND") (at 180.34 92.71 0) (unit 1)
    (in_bom yes) (on_board yes)
    (uuid 00000000-0000-0000-0000-000060ad40b0)
    (property "Reference" "#PWR044" (id 0) (at 180.34 99.06 0)
      (effects (font (size 1.27 1.27)) hide)
    )
    (property "Value" "GND" (id 1) (at 180.467 97.1042 0))
    (property "Footprint" "" (id 2) (at 180.34 92.71 0)
      (effects (font (size 1.27 1.27)) hide)
    )
    (property "Datasheet" "" (id 3) (at 180.34 92.71 0)
      (effects (font (size 1.27 1.27)) hide)
    )
    (pin "1" (uuid cc4b2573-d454-4623-b5a2-500c7c0c1f4f))
  )

  (symbol (lib_id "power:+3.3V") (at 180.34 77.47 0) (unit 1)
    (in_bom yes) (on_board yes)
    (uuid 00000000-0000-0000-0000-000060ad40b6)
    (property "Reference" "#PWR043" (id 0) (at 180.34 81.28 0)
      (effects (font (size 1.27 1.27)) hide)
    )
    (property "Value" "+3.3V" (id 1) (at 180.721 73.0758 0))
    (property "Footprint" "" (id 2) (at 180.34 77.47 0)
      (effects (font (size 1.27 1.27)) hide)
    )
    (property "Datasheet" "" (id 3) (at 180.34 77.47 0)
      (effects (font (size 1.27 1.27)) hide)
    )
    (pin "1" (uuid e5bbfdb3-787a-48b9-b80e-494e8ab73910))
  )

  (symbol (lib_id "roket-rescue:Cap-805_cap") (at 191.77 82.55 270) (unit 1)
    (in_bom yes) (on_board yes)
    (uuid 00000000-0000-0000-0000-000060ad4419)
    (property "Reference" "C13" (id 0) (at 194.3862 82.6516 90)
      (effects (font (size 1.27 1.27)) (justify left))
    )
    (property "Value" "10uF" (id 1) (at 194.3862 84.963 90)
      (effects (font (size 1.27 1.27)) (justify left))
    )
    (property "Footprint" "Capacitor_SMD:C_0805_2012Metric" (id 2) (at 191.77 82.55 0)
      (effects (font (size 1.27 1.27)) (justify left bottom) hide)
    )
    (property "Datasheet" "" (id 3) (at 191.77 82.55 0)
      (effects (font (size 1.27 1.27)) (justify left bottom) hide)
    )
    (pin "1" (uuid f91be79e-3512-4764-ab93-57a8f16dbafd))
    (pin "2" (uuid 59272af5-2193-4d6e-91df-7f5c7a7d3bfc))
  )
)
