(kicad_sch (version 20211123) (generator eeschema)

  (uuid 96291e9d-ce09-46e3-9a45-15c8b771b127)

  (paper "A4")

  (lib_symbols
    (symbol "power:+3.3V" (power) (pin_names (offset 0)) (in_bom yes) (on_board yes)
      (property "Reference" "#PWR" (id 0) (at 0 -3.81 0)
        (effects (font (size 1.27 1.27)) hide)
      )
      (property "Value" "+3.3V" (id 1) (at 0 3.556 0)
        (effects (font (size 1.27 1.27)))
      )
      (property "Footprint" "" (id 2) (at 0 0 0)
        (effects (font (size 1.27 1.27)) hide)
      )
      (property "Datasheet" "" (id 3) (at 0 0 0)
        (effects (font (size 1.27 1.27)) hide)
      )
      (property "ki_keywords" "power-flag" (id 4) (at 0 0 0)
        (effects (font (size 1.27 1.27)) hide)
      )
      (property "ki_description" "Power symbol creates a global label with name \"+3.3V\"" (id 5) (at 0 0 0)
        (effects (font (size 1.27 1.27)) hide)
      )
      (symbol "+3.3V_0_1"
        (polyline
          (pts
            (xy -0.762 1.27)
            (xy 0 2.54)
          )
          (stroke (width 0) (type default) (color 0 0 0 0))
          (fill (type none))
        )
        (polyline
          (pts
            (xy 0 0)
            (xy 0 2.54)
          )
          (stroke (width 0) (type default) (color 0 0 0 0))
          (fill (type none))
        )
        (polyline
          (pts
            (xy 0 2.54)
            (xy 0.762 1.27)
          )
          (stroke (width 0) (type default) (color 0 0 0 0))
          (fill (type none))
        )
      )
      (symbol "+3.3V_1_1"
        (pin power_in line (at 0 0 90) (length 0) hide
          (name "+3V3" (effects (font (size 1.27 1.27))))
          (number "1" (effects (font (size 1.27 1.27))))
        )
      )
    )
    (symbol "power:GND" (power) (pin_names (offset 0)) (in_bom yes) (on_board yes)
      (property "Reference" "#PWR" (id 0) (at 0 -6.35 0)
        (effects (font (size 1.27 1.27)) hide)
      )
      (property "Value" "GND" (id 1) (at 0 -3.81 0)
        (effects (font (size 1.27 1.27)))
      )
      (property "Footprint" "" (id 2) (at 0 0 0)
        (effects (font (size 1.27 1.27)) hide)
      )
      (property "Datasheet" "" (id 3) (at 0 0 0)
        (effects (font (size 1.27 1.27)) hide)
      )
      (property "ki_keywords" "power-flag" (id 4) (at 0 0 0)
        (effects (font (size 1.27 1.27)) hide)
      )
      (property "ki_description" "Power symbol creates a global label with name \"GND\" , ground" (id 5) (at 0 0 0)
        (effects (font (size 1.27 1.27)) hide)
      )
      (symbol "GND_0_1"
        (polyline
          (pts
            (xy 0 0)
            (xy 0 -1.27)
            (xy 1.27 -1.27)
            (xy 0 -2.54)
            (xy -1.27 -1.27)
            (xy 0 -1.27)
          )
          (stroke (width 0) (type default) (color 0 0 0 0))
          (fill (type none))
        )
      )
      (symbol "GND_1_1"
        (pin power_in line (at 0 0 270) (length 0) hide
          (name "GND" (effects (font (size 1.27 1.27))))
          (number "1" (effects (font (size 1.27 1.27))))
        )
      )
    )
    (symbol "roket-rescue:oled-oled" (pin_names (offset 1.016)) (in_bom yes) (on_board yes)
      (property "Reference" "J" (id 0) (at -8.128 5.08 0)
        (effects (font (size 1.27 1.27)) (justify left bottom))
      )
      (property "Value" "oled-oled" (id 1) (at -7.62 -5.08 0)
        (effects (font (size 1.27 1.27)) (justify left bottom))
      )
      (property "Footprint" "TE_103185-4" (id 2) (at 0 0 0)
        (effects (font (size 1.27 1.27)) (justify left bottom) hide)
      )
      (property "Datasheet" "" (id 3) (at 0 0 0)
        (effects (font (size 1.27 1.27)) (justify left bottom) hide)
      )
      (property "Number_of_Positions" "4" (id 4) (at 0 0 0)
        (effects (font (size 1.27 1.27)) (justify left bottom) hide)
      )
      (property "Centerline_Pitch" "2.54 mm[.1 in]" (id 5) (at 0 0 0)
        (effects (font (size 1.27 1.27)) (justify left bottom) hide)
      )
      (property "Comment" "103185-4" (id 6) (at 0 0 0)
        (effects (font (size 1.27 1.27)) (justify left bottom) hide)
      )
      (property "EU_RoHS_Compliance" "Not Compliant" (id 7) (at 0 0 0)
        (effects (font (size 1.27 1.27)) (justify left bottom) hide)
      )
      (property "Product_Type" "Connector" (id 8) (at 0 0 0)
        (effects (font (size 1.27 1.27)) (justify left bottom) hide)
      )
      (property "ki_locked" "" (id 9) (at 0 0 0)
        (effects (font (size 1.27 1.27)))
      )
      (symbol "oled-oled_0_0"
        (rectangle (start -7.62 -2.54) (end 7.62 5.08)
          (stroke (width 0.254) (type default) (color 0 0 0 0))
          (fill (type background))
        )
        (pin passive line (at -12.7 2.54 0) (length 5.08)
          (name "VCC" (effects (font (size 1.016 1.016))))
          (number "1" (effects (font (size 1.016 1.016))))
        )
        (pin passive line (at -12.7 0 0) (length 5.08)
          (name "GND" (effects (font (size 1.016 1.016))))
          (number "2" (effects (font (size 1.016 1.016))))
        )
        (pin passive line (at 12.7 2.54 180) (length 5.08)
          (name "SCL" (effects (font (size 1.016 1.016))))
          (number "3" (effects (font (size 1.016 1.016))))
        )
        (pin passive line (at 12.7 0 180) (length 5.08)
          (name "SDA" (effects (font (size 1.016 1.016))))
          (number "4" (effects (font (size 1.016 1.016))))
        )
      )
    )
  )


  (wire (pts (xy 124.46 87.63) (xy 128.27 87.63))
    (stroke (width 0) (type default) (color 0 0 0 0))
    (uuid 092a073a-8356-4614-981b-6ae162fc9f5e)
  )
  (wire (pts (xy 124.46 85.09) (xy 128.27 85.09))
    (stroke (width 0) (type default) (color 0 0 0 0))
    (uuid 1d736909-22b7-4469-8313-f42f4b653896)
  )
  (wire (pts (xy 96.52 83.82) (xy 96.52 85.09))
    (stroke (width 0) (type default) (color 0 0 0 0))
    (uuid 9f5d019c-016b-4613-85ec-7812d0693f14)
  )
  (wire (pts (xy 99.06 87.63) (xy 96.52 87.63))
    (stroke (width 0) (type default) (color 0 0 0 0))
    (uuid d9e90cff-158a-44a5-a2ef-2b9911f8ccc4)
  )
  (wire (pts (xy 96.52 87.63) (xy 96.52 88.9))
    (stroke (width 0) (type default) (color 0 0 0 0))
    (uuid de42d189-43c1-482f-afdc-db8f91092428)
  )
  (wire (pts (xy 96.52 85.09) (xy 99.06 85.09))
    (stroke (width 0) (type default) (color 0 0 0 0))
    (uuid f84b90d8-8922-4d2a-9a8d-74abc41169e9)
  )

  (hierarchical_label "SDA_OLED" (shape input) (at 128.27 87.63 0)
    (effects (font (size 1.27 1.27)) (justify left))
    (uuid 39a0ebdf-92bd-4d16-ad04-29b4ec580cb4)
  )
  (hierarchical_label "SCL_OLED" (shape input) (at 128.27 85.09 0)
    (effects (font (size 1.27 1.27)) (justify left))
    (uuid 4e070c5d-5c5a-43d8-8d71-31279d996fcb)
  )

  (symbol (lib_id "roket-rescue:oled-oled") (at 111.76 87.63 0) (unit 1)
    (in_bom yes) (on_board yes)
    (uuid 00000000-0000-0000-0000-000060987007)
    (property "Reference" "J3" (id 0) (at 111.76 78.3082 0))
    (property "Value" "oled" (id 1) (at 111.76 80.6196 0))
    (property "Footprint" "others:oled" (id 2) (at 111.76 87.63 0)
      (effects (font (size 1.27 1.27)) (justify left bottom) hide)
    )
    (property "Datasheet" "" (id 3) (at 111.76 87.63 0)
      (effects (font (size 1.27 1.27)) (justify left bottom) hide)
    )
    (property "Number_of_Positions" "4" (id 4) (at 111.76 87.63 0)
      (effects (font (size 1.27 1.27)) (justify left bottom) hide)
    )
    (property "Centerline_Pitch" "2.54 mm[.1 in]" (id 5) (at 111.76 87.63 0)
      (effects (font (size 1.27 1.27)) (justify left bottom) hide)
    )
    (property "Comment" "103185-4" (id 6) (at 111.76 87.63 0)
      (effects (font (size 1.27 1.27)) (justify left bottom) hide)
    )
    (property "EU_RoHS_Compliance" "Not Compliant" (id 7) (at 111.76 87.63 0)
      (effects (font (size 1.27 1.27)) (justify left bottom) hide)
    )
    (property "Product_Type" "Connector" (id 8) (at 111.76 87.63 0)
      (effects (font (size 1.27 1.27)) (justify left bottom) hide)
    )
    (pin "1" (uuid 80cc3b3c-469a-4753-aa6a-80b99f1f8a2a))
    (pin "2" (uuid 64c2033b-9534-40df-8385-d839ae5b7936))
    (pin "3" (uuid 4ecbb220-b3db-48aa-bb90-48685b20401c))
    (pin "4" (uuid 18c43451-f939-450d-b819-458de6dd5cb5))
  )

  (symbol (lib_id "power:GND") (at 96.52 88.9 0) (unit 1)
    (in_bom yes) (on_board yes)
    (uuid 00000000-0000-0000-0000-0000609873ab)
    (property "Reference" "#PWR042" (id 0) (at 96.52 95.25 0)
      (effects (font (size 1.27 1.27)) hide)
    )
    (property "Value" "GND" (id 1) (at 96.647 93.2942 0))
    (property "Footprint" "" (id 2) (at 96.52 88.9 0)
      (effects (font (size 1.27 1.27)) hide)
    )
    (property "Datasheet" "" (id 3) (at 96.52 88.9 0)
      (effects (font (size 1.27 1.27)) hide)
    )
    (pin "1" (uuid ab1e21ed-635b-4016-81ae-8674ed5d82fb))
  )

  (symbol (lib_id "power:+3.3V") (at 96.52 83.82 0) (unit 1)
    (in_bom yes) (on_board yes)
    (uuid 00000000-0000-0000-0000-0000609878bc)
    (property "Reference" "#PWR041" (id 0) (at 96.52 87.63 0)
      (effects (font (size 1.27 1.27)) hide)
    )
    (property "Value" "+3.3V" (id 1) (at 96.901 79.4258 0))
    (property "Footprint" "" (id 2) (at 96.52 83.82 0)
      (effects (font (size 1.27 1.27)) hide)
    )
    (property "Datasheet" "" (id 3) (at 96.52 83.82 0)
      (effects (font (size 1.27 1.27)) hide)
    )
    (pin "1" (uuid 8d1b3324-93d7-47ce-bc8c-75e895495ccb))
  )
)
