M48
INCH,TZ
T1C0.0197
T2C0.0787
T3C0.1260
%
G90
G05
T1
X15766Y-18916
X15766Y-19624
X16160Y-18916
X16160Y-19624
X16554Y-18916
X16554Y-19624
X16966Y-18916
X16966Y-19624
X17360Y-18916
X17360Y-19624
X17754Y-18916
X17754Y-19624
X18166Y-18916
X18166Y-19624
X18560Y-18916
X18560Y-19624
X18954Y-18916
X18954Y-19624
X19366Y-18916
X19366Y-19624
X19760Y-18916
X19760Y-19624
X20154Y-18916
X20154Y-19624
X20566Y-18916
X20566Y-19624
X20866Y-42196
X20866Y-42904
X20866Y-52706
X20866Y-53414
X20960Y-18916
X20960Y-19624
X21260Y-42196
X21260Y-42904
X21260Y-52706
X21260Y-53414
X21354Y-18916
X21354Y-19624
X21654Y-42196
X21654Y-42904
X21654Y-52706
X21654Y-53414
X21766Y-18916
X21766Y-19624
X22160Y-18916
X22160Y-19624
X22554Y-18916
X22554Y-19624
X22746Y-16346
X22746Y-16740
X22746Y-17126
X22746Y-17134
X22746Y-17520
X22746Y-17914
X22746Y-17926
X22746Y-18320
X22746Y-18714
X22746Y-30556
X22746Y-30950
X22746Y-31344
X23454Y-16346
X23454Y-16740
X23454Y-17126
X23454Y-17134
X23454Y-17520
X23454Y-17914
X23454Y-17926
X23454Y-18320
X23454Y-18714
X23454Y-30556
X23454Y-30950
X23454Y-31344
X34866Y-42196
X34866Y-42904
X34866Y-52706
X34866Y-53414
X35260Y-42196
X35260Y-42904
X35260Y-52706
X35260Y-53414
X35654Y-42196
X35654Y-42904
X35654Y-52706
X35654Y-53414
X39696Y-28956
X39696Y-29350
X39696Y-29744
X39696Y-37756
X39696Y-38150
X39696Y-38544
X40404Y-28956
X40404Y-29350
X40404Y-29744
X40404Y-37756
X40404Y-38150
X40404Y-38544
X52266Y-28956
X52266Y-29350
X52266Y-29744
X52266Y-45706
X52266Y-46100
X52266Y-46494
X52974Y-28956
X52974Y-29350
X52974Y-29744
X52974Y-45706
X52974Y-46100
X52974Y-46494
X53146Y-18886
X53146Y-19594
X53146Y-52706
X53146Y-53414
X53540Y-18886
X53540Y-19594
X53540Y-52706
X53540Y-53414
X53934Y-18886
X53934Y-19594
X53934Y-52706
X53934Y-53414
X54026Y-18886
X54026Y-19594
X54046Y-52706
X54046Y-53414
X54420Y-18886
X54420Y-19594
X54440Y-52706
X54440Y-53414
X54814Y-18886
X54814Y-19594
X54834Y-52706
X54834Y-53414
T2
X24419Y-25403
X24419Y-41229
X38710Y-25403
X38710Y-41229
T3
X27322Y-44219
X27322Y-51385
X38424Y-44219
X38424Y-51385
X41760Y-30813
X41760Y-51136
X50913Y-30813
X50913Y-51136
T0
M30
