(kicad_sch (version 20211123) (generator eeschema)

  (uuid 11ab9bd7-dcc2-40b6-87f4-08578c17460b)

  (paper "A4")

  (lib_symbols
    (symbol "282834-6:282834-6" (pin_names (offset 1.016)) (in_bom yes) (on_board yes)
      (property "Reference" "J" (id 0) (at 0 15.2654 0)
        (effects (font (size 1.27 1.27)) (justify left bottom))
      )
      (property "Value" "282834-6" (id 1) (at 0 -12.7254 0)
        (effects (font (size 1.27 1.27)) (justify left bottom))
      )
      (property "Footprint" "TE_282834-6" (id 2) (at 0 0 0)
        (effects (font (size 1.27 1.27)) (justify left bottom) hide)
      )
      (property "Datasheet" "" (id 3) (at 0 0 0)
        (effects (font (size 1.27 1.27)) (justify left bottom) hide)
      )
      (property "Comment" "282834-6" (id 4) (at 0 0 0)
        (effects (font (size 1.27 1.27)) (justify left bottom) hide)
      )
      (property "EU_RoHS_Compliance" "Compliant with Exemptions" (id 5) (at 0 0 0)
        (effects (font (size 1.27 1.27)) (justify left bottom) hide)
      )
      (property "ki_locked" "" (id 6) (at 0 0 0)
        (effects (font (size 1.27 1.27)))
      )
      (symbol "282834-6_0_0"
        (rectangle (start -5.08 -7.62) (end 5.08 10.16)
          (stroke (width 0.4064) (type default) (color 0 0 0 0))
          (fill (type background))
        )
        (pin passive line (at -10.16 7.62 0) (length 5.08)
          (name "GND" (effects (font (size 1.016 1.016))))
          (number "1" (effects (font (size 1.016 1.016))))
        )
        (pin passive line (at -10.16 5.08 0) (length 5.08)
          (name "BAT" (effects (font (size 1.016 1.016))))
          (number "2" (effects (font (size 1.016 1.016))))
        )
        (pin passive line (at -10.16 2.54 0) (length 5.08)
          (name "PYRO_1+" (effects (font (size 1.016 1.016))))
          (number "3" (effects (font (size 1.016 1.016))))
        )
        (pin passive line (at -10.16 0 0) (length 5.08)
          (name "PYRO_1-" (effects (font (size 1.016 1.016))))
          (number "4" (effects (font (size 1.016 1.016))))
        )
        (pin passive line (at -10.16 -2.54 0) (length 5.08)
          (name "PYRP_2+" (effects (font (size 1.016 1.016))))
          (number "5" (effects (font (size 1.016 1.016))))
        )
        (pin passive line (at -10.16 -5.08 0) (length 5.08)
          (name "PYRO_2-" (effects (font (size 1.016 1.016))))
          (number "6" (effects (font (size 1.016 1.016))))
        )
      )
    )
    (symbol "Device:R_US" (pin_numbers hide) (pin_names (offset 0)) (in_bom yes) (on_board yes)
      (property "Reference" "R" (id 0) (at 2.54 0 90)
        (effects (font (size 1.27 1.27)))
      )
      (property "Value" "R_US" (id 1) (at -2.54 0 90)
        (effects (font (size 1.27 1.27)))
      )
      (property "Footprint" "" (id 2) (at 1.016 -0.254 90)
        (effects (font (size 1.27 1.27)) hide)
      )
      (property "Datasheet" "~" (id 3) (at 0 0 0)
        (effects (font (size 1.27 1.27)) hide)
      )
      (property "ki_keywords" "R res resistor" (id 4) (at 0 0 0)
        (effects (font (size 1.27 1.27)) hide)
      )
      (property "ki_description" "Resistor, US symbol" (id 5) (at 0 0 0)
        (effects (font (size 1.27 1.27)) hide)
      )
      (property "ki_fp_filters" "R_*" (id 6) (at 0 0 0)
        (effects (font (size 1.27 1.27)) hide)
      )
      (symbol "R_US_0_1"
        (polyline
          (pts
            (xy 0 -2.286)
            (xy 0 -2.54)
          )
          (stroke (width 0) (type default) (color 0 0 0 0))
          (fill (type none))
        )
        (polyline
          (pts
            (xy 0 2.286)
            (xy 0 2.54)
          )
          (stroke (width 0) (type default) (color 0 0 0 0))
          (fill (type none))
        )
        (polyline
          (pts
            (xy 0 -0.762)
            (xy 1.016 -1.143)
            (xy 0 -1.524)
            (xy -1.016 -1.905)
            (xy 0 -2.286)
          )
          (stroke (width 0) (type default) (color 0 0 0 0))
          (fill (type none))
        )
        (polyline
          (pts
            (xy 0 0.762)
            (xy 1.016 0.381)
            (xy 0 0)
            (xy -1.016 -0.381)
            (xy 0 -0.762)
          )
          (stroke (width 0) (type default) (color 0 0 0 0))
          (fill (type none))
        )
        (polyline
          (pts
            (xy 0 2.286)
            (xy 1.016 1.905)
            (xy 0 1.524)
            (xy -1.016 1.143)
            (xy 0 0.762)
          )
          (stroke (width 0) (type default) (color 0 0 0 0))
          (fill (type none))
        )
      )
      (symbol "R_US_1_1"
        (pin passive line (at 0 3.81 270) (length 1.27)
          (name "~" (effects (font (size 1.27 1.27))))
          (number "1" (effects (font (size 1.27 1.27))))
        )
        (pin passive line (at 0 -3.81 90) (length 1.27)
          (name "~" (effects (font (size 1.27 1.27))))
          (number "2" (effects (font (size 1.27 1.27))))
        )
      )
    )
    (symbol "power:+BATT" (power) (pin_names (offset 0)) (in_bom yes) (on_board yes)
      (property "Reference" "#PWR" (id 0) (at 0 -3.81 0)
        (effects (font (size 1.27 1.27)) hide)
      )
      (property "Value" "+BATT" (id 1) (at 0 3.556 0)
        (effects (font (size 1.27 1.27)))
      )
      (property "Footprint" "" (id 2) (at 0 0 0)
        (effects (font (size 1.27 1.27)) hide)
      )
      (property "Datasheet" "" (id 3) (at 0 0 0)
        (effects (font (size 1.27 1.27)) hide)
      )
      (property "ki_keywords" "power-flag battery" (id 4) (at 0 0 0)
        (effects (font (size 1.27 1.27)) hide)
      )
      (property "ki_description" "Power symbol creates a global label with name \"+BATT\"" (id 5) (at 0 0 0)
        (effects (font (size 1.27 1.27)) hide)
      )
      (symbol "+BATT_0_1"
        (polyline
          (pts
            (xy -0.762 1.27)
            (xy 0 2.54)
          )
          (stroke (width 0) (type default) (color 0 0 0 0))
          (fill (type none))
        )
        (polyline
          (pts
            (xy 0 0)
            (xy 0 2.54)
          )
          (stroke (width 0) (type default) (color 0 0 0 0))
          (fill (type none))
        )
        (polyline
          (pts
            (xy 0 2.54)
            (xy 0.762 1.27)
          )
          (stroke (width 0) (type default) (color 0 0 0 0))
          (fill (type none))
        )
      )
      (symbol "+BATT_1_1"
        (pin power_in line (at 0 0 90) (length 0) hide
          (name "+BATT" (effects (font (size 1.27 1.27))))
          (number "1" (effects (font (size 1.27 1.27))))
        )
      )
    )
    (symbol "power:GND" (power) (pin_names (offset 0)) (in_bom yes) (on_board yes)
      (property "Reference" "#PWR" (id 0) (at 0 -6.35 0)
        (effects (font (size 1.27 1.27)) hide)
      )
      (property "Value" "GND" (id 1) (at 0 -3.81 0)
        (effects (font (size 1.27 1.27)))
      )
      (property "Footprint" "" (id 2) (at 0 0 0)
        (effects (font (size 1.27 1.27)) hide)
      )
      (property "Datasheet" "" (id 3) (at 0 0 0)
        (effects (font (size 1.27 1.27)) hide)
      )
      (property "ki_keywords" "power-flag" (id 4) (at 0 0 0)
        (effects (font (size 1.27 1.27)) hide)
      )
      (property "ki_description" "Power symbol creates a global label with name \"GND\" , ground" (id 5) (at 0 0 0)
        (effects (font (size 1.27 1.27)) hide)
      )
      (symbol "GND_0_1"
        (polyline
          (pts
            (xy 0 0)
            (xy 0 -1.27)
            (xy 1.27 -1.27)
            (xy 0 -2.54)
            (xy -1.27 -1.27)
            (xy 0 -1.27)
          )
          (stroke (width 0) (type default) (color 0 0 0 0))
          (fill (type none))
        )
      )
      (symbol "GND_1_1"
        (pin power_in line (at 0 0 270) (length 0) hide
          (name "GND" (effects (font (size 1.27 1.27))))
          (number "1" (effects (font (size 1.27 1.27))))
        )
      )
    )
    (symbol "roket-rescue:Cap-805_cap" (pin_names (offset 1.016) hide) (in_bom yes) (on_board yes)
      (property "Reference" "C" (id 0) (at 0 3.81 0)
        (effects (font (size 1.27 1.27)) (justify left bottom))
      )
      (property "Value" "Cap-805_cap" (id 1) (at 0 -5.08 0)
        (effects (font (size 1.27 1.27)) (justify left bottom))
      )
      (property "Footprint" "CAPC2012X135N" (id 2) (at 0 0 0)
        (effects (font (size 1.27 1.27)) (justify left bottom) hide)
      )
      (property "Datasheet" "" (id 3) (at 0 0 0)
        (effects (font (size 1.27 1.27)) (justify left bottom) hide)
      )
      (property "ki_locked" "" (id 4) (at 0 0 0)
        (effects (font (size 1.27 1.27)))
      )
      (symbol "Cap-805_cap_0_0"
        (rectangle (start 0 -1.905) (end 0.635 1.905)
          (stroke (width 0) (type default) (color 0 0 0 0))
          (fill (type outline))
        )
        (rectangle (start 1.905 -1.905) (end 2.54 1.905)
          (stroke (width 0) (type default) (color 0 0 0 0))
          (fill (type outline))
        )
        (pin passive line (at 5.08 0 180) (length 2.54)
          (name "~" (effects (font (size 1.016 1.016))))
          (number "1" (effects (font (size 1.016 1.016))))
        )
        (pin passive line (at -2.54 0 0) (length 2.54)
          (name "~" (effects (font (size 1.016 1.016))))
          (number "2" (effects (font (size 1.016 1.016))))
        )
      )
    )
    (symbol "roket-rescue:SI4202DY-T1-GE3-SI4202DY-T1-GE3" (pin_names (offset 1.016) hide) (in_bom yes) (on_board yes)
      (property "Reference" "U" (id 0) (at -7.62 12.7 0)
        (effects (font (size 1.27 1.27)) (justify left bottom))
      )
      (property "Value" "SI4202DY-T1-GE3-SI4202DY-T1-GE3" (id 1) (at -7.62 -12.7 0)
        (effects (font (size 1.27 1.27)) (justify left bottom))
      )
      (property "Footprint" "SOIC127P599X175-8N" (id 2) (at 0 0 0)
        (effects (font (size 1.27 1.27)) (justify left bottom) hide)
      )
      (property "Datasheet" "" (id 3) (at 0 0 0)
        (effects (font (size 1.27 1.27)) (justify left bottom) hide)
      )
      (property "PARTREV" "A" (id 4) (at 0 0 0)
        (effects (font (size 1.27 1.27)) (justify left bottom) hide)
      )
      (property "MANUFACTURER" "Texas Instruments" (id 5) (at 0 0 0)
        (effects (font (size 1.27 1.27)) (justify left bottom) hide)
      )
      (property "MAXIMUM_PACKAGE_HEIGHT" "1.75mm" (id 6) (at 0 0 0)
        (effects (font (size 1.27 1.27)) (justify left bottom) hide)
      )
      (property "STANDARD" "IPC-7351B" (id 7) (at 0 0 0)
        (effects (font (size 1.27 1.27)) (justify left bottom) hide)
      )
      (property "ki_locked" "" (id 8) (at 0 0 0)
        (effects (font (size 1.27 1.27)))
      )
      (symbol "SI4202DY-T1-GE3-SI4202DY-T1-GE3_0_0"
        (circle (center -2.54 -2.54) (radius 0.3556)
          (stroke (width 0) (type default) (color 0 0 0 0))
          (fill (type none))
        )
        (circle (center -2.54 7.62) (radius 0.3556)
          (stroke (width 0) (type default) (color 0 0 0 0))
          (fill (type none))
        )
        (polyline
          (pts
            (xy -7.62 -10.16)
            (xy -7.62 7.62)
          )
          (stroke (width 0.254) (type default) (color 0 0 0 0))
          (fill (type none))
        )
        (polyline
          (pts
            (xy -7.62 -7.62)
            (xy -2.54 -7.62)
          )
          (stroke (width 0.1524) (type default) (color 0 0 0 0))
          (fill (type none))
        )
        (polyline
          (pts
            (xy -7.62 -2.54)
            (xy -2.54 -2.54)
          )
          (stroke (width 0.1524) (type default) (color 0 0 0 0))
          (fill (type none))
        )
        (polyline
          (pts
            (xy -7.62 2.54)
            (xy -2.54 2.54)
          )
          (stroke (width 0.1524) (type default) (color 0 0 0 0))
          (fill (type none))
        )
        (polyline
          (pts
            (xy -7.62 7.62)
            (xy -7.62 12.7)
          )
          (stroke (width 0.254) (type default) (color 0 0 0 0))
          (fill (type none))
        )
        (polyline
          (pts
            (xy -7.62 7.62)
            (xy -2.54 7.62)
          )
          (stroke (width 0.1524) (type default) (color 0 0 0 0))
          (fill (type none))
        )
        (polyline
          (pts
            (xy -7.62 12.7)
            (xy 7.62 12.7)
          )
          (stroke (width 0.254) (type default) (color 0 0 0 0))
          (fill (type none))
        )
        (polyline
          (pts
            (xy -2.54 -7.62)
            (xy -2.54 -5.08)
          )
          (stroke (width 0.1524) (type default) (color 0 0 0 0))
          (fill (type none))
        )
        (polyline
          (pts
            (xy -2.54 -4.318)
            (xy -3.175 -4.318)
          )
          (stroke (width 0.254) (type default) (color 0 0 0 0))
          (fill (type none))
        )
        (polyline
          (pts
            (xy -2.54 -2.54)
            (xy -2.54 -4.318)
          )
          (stroke (width 0.1524) (type default) (color 0 0 0 0))
          (fill (type none))
        )
        (polyline
          (pts
            (xy -2.54 -2.54)
            (xy -2.54 -1.27)
          )
          (stroke (width 0.1524) (type default) (color 0 0 0 0))
          (fill (type none))
        )
        (polyline
          (pts
            (xy -2.54 2.54)
            (xy -2.54 5.08)
          )
          (stroke (width 0.1524) (type default) (color 0 0 0 0))
          (fill (type none))
        )
        (polyline
          (pts
            (xy -2.54 5.842)
            (xy -3.175 5.842)
          )
          (stroke (width 0.254) (type default) (color 0 0 0 0))
          (fill (type none))
        )
        (polyline
          (pts
            (xy -2.54 7.62)
            (xy -2.54 5.842)
          )
          (stroke (width 0.1524) (type default) (color 0 0 0 0))
          (fill (type none))
        )
        (polyline
          (pts
            (xy -2.54 7.62)
            (xy -2.54 8.89)
          )
          (stroke (width 0.1524) (type default) (color 0 0 0 0))
          (fill (type none))
        )
        (polyline
          (pts
            (xy -1.905 -4.318)
            (xy -2.54 -4.318)
          )
          (stroke (width 0.254) (type default) (color 0 0 0 0))
          (fill (type none))
        )
        (polyline
          (pts
            (xy -1.905 5.842)
            (xy -2.54 5.842)
          )
          (stroke (width 0.254) (type default) (color 0 0 0 0))
          (fill (type none))
        )
        (polyline
          (pts
            (xy 0 -4.318)
            (xy -0.762 -4.318)
          )
          (stroke (width 0.254) (type default) (color 0 0 0 0))
          (fill (type none))
        )
        (polyline
          (pts
            (xy 0 -4.318)
            (xy 0 -2.54)
          )
          (stroke (width 0.1524) (type default) (color 0 0 0 0))
          (fill (type none))
        )
        (polyline
          (pts
            (xy 0 -2.54)
            (xy -2.54 -2.54)
          )
          (stroke (width 0.1524) (type default) (color 0 0 0 0))
          (fill (type none))
        )
        (polyline
          (pts
            (xy 0 5.842)
            (xy -0.762 5.842)
          )
          (stroke (width 0.254) (type default) (color 0 0 0 0))
          (fill (type none))
        )
        (polyline
          (pts
            (xy 0 5.842)
            (xy 0 7.62)
          )
          (stroke (width 0.1524) (type default) (color 0 0 0 0))
          (fill (type none))
        )
        (polyline
          (pts
            (xy 0 7.62)
            (xy -2.54 7.62)
          )
          (stroke (width 0.1524) (type default) (color 0 0 0 0))
          (fill (type none))
        )
        (polyline
          (pts
            (xy 0.508 -1.27)
            (xy -2.54 -1.27)
          )
          (stroke (width 0.1524) (type default) (color 0 0 0 0))
          (fill (type none))
        )
        (polyline
          (pts
            (xy 0.508 -1.27)
            (xy 0.508 -1.778)
          )
          (stroke (width 0.1524) (type default) (color 0 0 0 0))
          (fill (type none))
        )
        (polyline
          (pts
            (xy 0.508 -0.762)
            (xy 0.508 -1.27)
          )
          (stroke (width 0.1524) (type default) (color 0 0 0 0))
          (fill (type none))
        )
        (polyline
          (pts
            (xy 0.508 8.89)
            (xy -2.54 8.89)
          )
          (stroke (width 0.1524) (type default) (color 0 0 0 0))
          (fill (type none))
        )
        (polyline
          (pts
            (xy 0.508 8.89)
            (xy 0.508 8.382)
          )
          (stroke (width 0.1524) (type default) (color 0 0 0 0))
          (fill (type none))
        )
        (polyline
          (pts
            (xy 0.508 9.398)
            (xy 0.508 8.89)
          )
          (stroke (width 0.1524) (type default) (color 0 0 0 0))
          (fill (type none))
        )
        (polyline
          (pts
            (xy 0.762 -4.318)
            (xy 0 -4.318)
          )
          (stroke (width 0.254) (type default) (color 0 0 0 0))
          (fill (type none))
        )
        (polyline
          (pts
            (xy 0.762 5.842)
            (xy 0 5.842)
          )
          (stroke (width 0.254) (type default) (color 0 0 0 0))
          (fill (type none))
        )
        (polyline
          (pts
            (xy 2.54 -5.08)
            (xy -2.54 -5.08)
          )
          (stroke (width 0.254) (type default) (color 0 0 0 0))
          (fill (type none))
        )
        (polyline
          (pts
            (xy 2.54 -4.318)
            (xy 1.905 -4.318)
          )
          (stroke (width 0.254) (type default) (color 0 0 0 0))
          (fill (type none))
        )
        (polyline
          (pts
            (xy 2.54 -4.318)
            (xy 2.54 -2.54)
          )
          (stroke (width 0.1524) (type default) (color 0 0 0 0))
          (fill (type none))
        )
        (polyline
          (pts
            (xy 2.54 -2.54)
            (xy 2.54 -1.27)
          )
          (stroke (width 0.1524) (type default) (color 0 0 0 0))
          (fill (type none))
        )
        (polyline
          (pts
            (xy 2.54 -1.27)
            (xy 0.508 -1.27)
          )
          (stroke (width 0.1524) (type default) (color 0 0 0 0))
          (fill (type none))
        )
        (polyline
          (pts
            (xy 2.54 5.08)
            (xy -2.54 5.08)
          )
          (stroke (width 0.254) (type default) (color 0 0 0 0))
          (fill (type none))
        )
        (polyline
          (pts
            (xy 2.54 5.842)
            (xy 1.905 5.842)
          )
          (stroke (width 0.254) (type default) (color 0 0 0 0))
          (fill (type none))
        )
        (polyline
          (pts
            (xy 2.54 5.842)
            (xy 2.54 7.62)
          )
          (stroke (width 0.1524) (type default) (color 0 0 0 0))
          (fill (type none))
        )
        (polyline
          (pts
            (xy 2.54 7.62)
            (xy 2.54 8.89)
          )
          (stroke (width 0.1524) (type default) (color 0 0 0 0))
          (fill (type none))
        )
        (polyline
          (pts
            (xy 2.54 8.89)
            (xy 0.508 8.89)
          )
          (stroke (width 0.1524) (type default) (color 0 0 0 0))
          (fill (type none))
        )
        (polyline
          (pts
            (xy 3.175 -4.318)
            (xy 2.54 -4.318)
          )
          (stroke (width 0.254) (type default) (color 0 0 0 0))
          (fill (type none))
        )
        (polyline
          (pts
            (xy 3.175 5.842)
            (xy 2.54 5.842)
          )
          (stroke (width 0.254) (type default) (color 0 0 0 0))
          (fill (type none))
        )
        (polyline
          (pts
            (xy 7.62 -10.16)
            (xy -7.62 -10.16)
          )
          (stroke (width 0.254) (type default) (color 0 0 0 0))
          (fill (type none))
        )
        (polyline
          (pts
            (xy 7.62 -2.54)
            (xy 2.54 -2.54)
          )
          (stroke (width 0.1524) (type default) (color 0 0 0 0))
          (fill (type none))
        )
        (polyline
          (pts
            (xy 7.62 7.62)
            (xy 2.54 7.62)
          )
          (stroke (width 0.1524) (type default) (color 0 0 0 0))
          (fill (type none))
        )
        (polyline
          (pts
            (xy 7.62 12.7)
            (xy 7.62 -10.16)
          )
          (stroke (width 0.254) (type default) (color 0 0 0 0))
          (fill (type none))
        )
        (polyline
          (pts
            (xy 0 -4.064)
            (xy 0.762 -3.048)
            (xy -0.762 -3.048)
          )
          (stroke (width 0.1524) (type default) (color 0 0 0 0))
          (fill (type background))
        )
        (polyline
          (pts
            (xy 0 6.096)
            (xy 0.762 7.112)
            (xy -0.762 7.112)
          )
          (stroke (width 0.1524) (type default) (color 0 0 0 0))
          (fill (type background))
        )
        (polyline
          (pts
            (xy 0.508 -1.27)
            (xy -0.254 -1.778)
            (xy -0.254 -0.762)
          )
          (stroke (width 0.1524) (type default) (color 0 0 0 0))
          (fill (type background))
        )
        (polyline
          (pts
            (xy 0.508 8.89)
            (xy -0.254 8.382)
            (xy -0.254 9.398)
          )
          (stroke (width 0.1524) (type default) (color 0 0 0 0))
          (fill (type background))
        )
        (circle (center 2.54 -2.54) (radius 0.3556)
          (stroke (width 0) (type default) (color 0 0 0 0))
          (fill (type none))
        )
        (circle (center 2.54 7.62) (radius 0.3556)
          (stroke (width 0) (type default) (color 0 0 0 0))
          (fill (type none))
        )
        (pin bidirectional line (at -12.7 7.62 0) (length 5.08)
          (name "~" (effects (font (size 1.016 1.016))))
          (number "1" (effects (font (size 1.016 1.016))))
        )
        (pin input line (at -12.7 2.54 0) (length 5.08)
          (name "~" (effects (font (size 1.016 1.016))))
          (number "2" (effects (font (size 1.016 1.016))))
        )
        (pin bidirectional line (at -12.7 -2.54 0) (length 5.08)
          (name "~" (effects (font (size 1.016 1.016))))
          (number "3" (effects (font (size 1.016 1.016))))
        )
        (pin input line (at -12.7 -7.62 0) (length 5.08)
          (name "~" (effects (font (size 1.016 1.016))))
          (number "4" (effects (font (size 1.016 1.016))))
        )
        (pin bidirectional line (at 12.7 -2.54 180) (length 5.08)
          (name "~" (effects (font (size 1.016 1.016))))
          (number "5" (effects (font (size 1.016 1.016))))
        )
        (pin bidirectional line (at 12.7 -2.54 180) (length 5.08)
          (name "~" (effects (font (size 1.016 1.016))))
          (number "6" (effects (font (size 1.016 1.016))))
        )
        (pin bidirectional line (at 12.7 7.62 180) (length 5.08)
          (name "~" (effects (font (size 1.016 1.016))))
          (number "7" (effects (font (size 1.016 1.016))))
        )
        (pin bidirectional line (at 12.7 7.62 180) (length 5.08)
          (name "~" (effects (font (size 1.016 1.016))))
          (number "8" (effects (font (size 1.016 1.016))))
        )
      )
    )
  )

  (junction (at 156.21 91.44) (diameter 0) (color 0 0 0 0)
    (uuid 0ef80169-11dc-4c40-a96e-b1e2626e6b99)
  )
  (junction (at 120.65 83.82) (diameter 0) (color 0 0 0 0)
    (uuid 2639e2d2-653d-4295-8b73-fe2490647af4)
  )
  (junction (at 201.93 85.09) (diameter 0) (color 0 0 0 0)
    (uuid 5877a17b-d618-47bb-b5e2-08ed69cdbfac)
  )
  (junction (at 151.13 81.28) (diameter 0) (color 0 0 0 0)
    (uuid 590fdd63-5d3f-4942-b91c-5e10259a5210)
  )
  (junction (at 191.77 97.79) (diameter 0) (color 0 0 0 0)
    (uuid 5bbf99af-03bb-4060-8d4e-401062746303)
  )
  (junction (at 120.65 78.74) (diameter 0) (color 0 0 0 0)
    (uuid 71d50955-76e6-4cea-ac65-4d182c5ae379)
  )

  (wire (pts (xy 151.13 78.74) (xy 151.13 81.28))
    (stroke (width 0) (type default) (color 0 0 0 0))
    (uuid 0320b3c2-e179-400f-8b3f-55d5f43e8bb6)
  )
  (wire (pts (xy 191.77 97.79) (xy 191.77 99.06))
    (stroke (width 0) (type default) (color 0 0 0 0))
    (uuid 050d0d1f-f067-4f57-b855-ada568b4636c)
  )
  (wire (pts (xy 160.02 76.2) (xy 158.75 76.2))
    (stroke (width 0) (type default) (color 0 0 0 0))
    (uuid 064020fb-fd09-4d17-a346-ba725951eee8)
  )
  (wire (pts (xy 146.05 91.44) (xy 143.51 91.44))
    (stroke (width 0) (type default) (color 0 0 0 0))
    (uuid 076ed8b5-7324-46c0-8ad4-17253a032a47)
  )
  (wire (pts (xy 185.42 86.36) (xy 191.77 86.36))
    (stroke (width 0) (type default) (color 0 0 0 0))
    (uuid 1239481e-645f-4271-a853-b246dd0a60e2)
  )
  (wire (pts (xy 201.93 85.09) (xy 201.93 87.63))
    (stroke (width 0) (type default) (color 0 0 0 0))
    (uuid 205e507c-42ce-4ce0-aee7-09081b3bb92c)
  )
  (wire (pts (xy 151.13 81.28) (xy 160.02 81.28))
    (stroke (width 0) (type default) (color 0 0 0 0))
    (uuid 2068c940-39e4-4774-8bf2-06519507c023)
  )
  (wire (pts (xy 146.05 69.85) (xy 146.05 71.12))
    (stroke (width 0) (type default) (color 0 0 0 0))
    (uuid 2623a53c-301e-4b08-8afd-821eb708482c)
  )
  (wire (pts (xy 135.89 81.28) (xy 138.43 81.28))
    (stroke (width 0) (type default) (color 0 0 0 0))
    (uuid 31042898-5a82-454a-ab1a-c0d67f13b0cd)
  )
  (wire (pts (xy 151.13 69.85) (xy 146.05 69.85))
    (stroke (width 0) (type default) (color 0 0 0 0))
    (uuid 437a7a28-4647-443d-8eae-496da2fac535)
  )
  (wire (pts (xy 113.03 91.44) (xy 114.3 91.44))
    (stroke (width 0) (type default) (color 0 0 0 0))
    (uuid 4e3de216-806e-4512-9a8b-02e04c3cb85f)
  )
  (wire (pts (xy 201.93 95.25) (xy 201.93 97.79))
    (stroke (width 0) (type default) (color 0 0 0 0))
    (uuid 54ee116d-174f-46ba-b961-b08f556ce61f)
  )
  (wire (pts (xy 160.02 86.36) (xy 158.75 86.36))
    (stroke (width 0) (type default) (color 0 0 0 0))
    (uuid 5abaf114-3375-4eb4-b01e-7749ee2d394f)
  )
  (wire (pts (xy 120.65 83.82) (xy 120.65 88.9))
    (stroke (width 0) (type default) (color 0 0 0 0))
    (uuid 5d26e6a0-1141-4e71-8d36-d65c6649e92d)
  )
  (wire (pts (xy 191.77 106.68) (xy 191.77 107.95))
    (stroke (width 0) (type default) (color 0 0 0 0))
    (uuid 5f21ef18-f3ef-4978-a816-77d0fa452f60)
  )
  (wire (pts (xy 151.13 71.12) (xy 151.13 69.85))
    (stroke (width 0) (type default) (color 0 0 0 0))
    (uuid 693e5e51-c3ae-4db9-ae83-703a35bbf006)
  )
  (wire (pts (xy 153.67 91.44) (xy 156.21 91.44))
    (stroke (width 0) (type default) (color 0 0 0 0))
    (uuid 6dce018e-1035-452a-84b2-f460ffd4fb17)
  )
  (wire (pts (xy 120.65 78.74) (xy 113.03 78.74))
    (stroke (width 0) (type default) (color 0 0 0 0))
    (uuid 7689599c-8e33-4eb2-82d4-65fc1564e1f7)
  )
  (wire (pts (xy 113.03 86.36) (xy 119.38 86.36))
    (stroke (width 0) (type default) (color 0 0 0 0))
    (uuid 7824c27b-44aa-48a4-8018-d64c3fd40af2)
  )
  (wire (pts (xy 156.21 91.44) (xy 156.21 93.98))
    (stroke (width 0) (type default) (color 0 0 0 0))
    (uuid 89b42dbd-d86a-4d0a-8d0a-bcf079ec5680)
  )
  (wire (pts (xy 156.21 91.44) (xy 160.02 91.44))
    (stroke (width 0) (type default) (color 0 0 0 0))
    (uuid 89fe1bfc-3801-4844-900d-4270de470189)
  )
  (wire (pts (xy 191.77 86.36) (xy 191.77 87.63))
    (stroke (width 0) (type default) (color 0 0 0 0))
    (uuid 9ee223a5-9299-44d7-8ba0-c544b86a7c17)
  )
  (wire (pts (xy 191.77 97.79) (xy 190.5 97.79))
    (stroke (width 0) (type default) (color 0 0 0 0))
    (uuid 9ff74b7f-f721-4f95-87c5-62cc7be65f76)
  )
  (wire (pts (xy 156.21 101.6) (xy 156.21 102.87))
    (stroke (width 0) (type default) (color 0 0 0 0))
    (uuid a108bf74-3a91-4c0a-8c67-2d89e262b919)
  )
  (wire (pts (xy 114.3 91.44) (xy 114.3 92.71))
    (stroke (width 0) (type default) (color 0 0 0 0))
    (uuid a27f7690-1df0-4eed-a7d7-a0520d77a60c)
  )
  (wire (pts (xy 113.03 81.28) (xy 119.38 81.28))
    (stroke (width 0) (type default) (color 0 0 0 0))
    (uuid a6706122-3b0a-42c3-a7e9-fec919a28305)
  )
  (wire (pts (xy 201.93 85.09) (xy 200.66 85.09))
    (stroke (width 0) (type default) (color 0 0 0 0))
    (uuid b0b2bb86-be27-4fd5-ba1f-4dc38c670585)
  )
  (wire (pts (xy 191.77 95.25) (xy 191.77 97.79))
    (stroke (width 0) (type default) (color 0 0 0 0))
    (uuid bc42b952-a004-4fce-a32e-e5aacae5d5b3)
  )
  (wire (pts (xy 120.65 77.47) (xy 120.65 78.74))
    (stroke (width 0) (type default) (color 0 0 0 0))
    (uuid bcdadb00-97df-40d2-ae10-f9b6873ab4de)
  )
  (wire (pts (xy 120.65 83.82) (xy 113.03 83.82))
    (stroke (width 0) (type default) (color 0 0 0 0))
    (uuid be47e531-7b5a-4cb2-a489-bca6d49505e0)
  )
  (wire (pts (xy 146.05 81.28) (xy 151.13 81.28))
    (stroke (width 0) (type default) (color 0 0 0 0))
    (uuid c2e5ae0f-7436-45a9-ae57-6cd42158954a)
  )
  (wire (pts (xy 201.93 83.82) (xy 201.93 85.09))
    (stroke (width 0) (type default) (color 0 0 0 0))
    (uuid c2f81c0c-f2f5-42ef-b5d0-7ba4e9958293)
  )
  (wire (pts (xy 120.65 83.82) (xy 120.65 78.74))
    (stroke (width 0) (type default) (color 0 0 0 0))
    (uuid d4cf3d73-1241-432b-b4ad-dc63c71d7cc2)
  )
  (wire (pts (xy 113.03 88.9) (xy 120.65 88.9))
    (stroke (width 0) (type default) (color 0 0 0 0))
    (uuid e179c0a0-c846-4b5c-be92-27a0837da378)
  )
  (wire (pts (xy 185.42 76.2) (xy 201.93 76.2))
    (stroke (width 0) (type default) (color 0 0 0 0))
    (uuid f144bcc3-e036-4d9f-a4f9-e78e4375c62a)
  )

  (label "Pyro1" (at 186.69 86.36 0)
    (effects (font (size 1.27 1.27)) (justify left bottom))
    (uuid 35052d3d-8db6-4fee-89bf-e9ab9791a3df)
  )
  (label "Pyro2" (at 119.38 86.36 180)
    (effects (font (size 1.27 1.27)) (justify right bottom))
    (uuid 67485b04-72c4-4849-a181-7d2fb0620fd2)
  )
  (label "Pyro1" (at 119.38 81.28 180)
    (effects (font (size 1.27 1.27)) (justify right bottom))
    (uuid 855ea533-7b42-4ea5-a065-16ee1fba0c25)
  )
  (label "Pyro2" (at 186.69 76.2 0)
    (effects (font (size 1.27 1.27)) (justify left bottom))
    (uuid f28ee06a-2b79-4887-94fa-a9f8259667dc)
  )

  (hierarchical_label "P1_Oku" (shape input) (at 190.5 97.79 180)
    (effects (font (size 1.27 1.27)) (justify right))
    (uuid 1cc82308-e15d-45e2-89ab-19d122904210)
  )
  (hierarchical_label "P2_Oku" (shape input) (at 200.66 85.09 180)
    (effects (font (size 1.27 1.27)) (justify right))
    (uuid 80b57149-a537-46a3-8275-f3b16e9d562d)
  )
  (hierarchical_label "P1_Ates" (shape input) (at 143.51 91.44 180)
    (effects (font (size 1.27 1.27)) (justify right))
    (uuid aac6ef4b-9ef4-4a91-a393-319fd6f26027)
  )
  (hierarchical_label "P2_Ates" (shape input) (at 135.89 81.28 180)
    (effects (font (size 1.27 1.27)) (justify right))
    (uuid c5b64c98-7cbf-4368-a955-b83ce788b3ae)
  )

  (symbol (lib_id "roket-rescue:SI4202DY-T1-GE3-SI4202DY-T1-GE3") (at 172.72 83.82 0) (unit 1)
    (in_bom yes) (on_board yes)
    (uuid 00000000-0000-0000-0000-0000609a766f)
    (property "Reference" "U3" (id 0) (at 172.72 66.8782 0))
    (property "Value" "SI4202DY-T1-GE3" (id 1) (at 172.72 69.1896 0))
    (property "Footprint" "others:SI4202DY-T1-GE3" (id 2) (at 172.72 83.82 0)
      (effects (font (size 1.27 1.27)) (justify left bottom) hide)
    )
    (property "Datasheet" "" (id 3) (at 172.72 83.82 0)
      (effects (font (size 1.27 1.27)) (justify left bottom) hide)
    )
    (property "PARTREV" "A" (id 4) (at 172.72 83.82 0)
      (effects (font (size 1.27 1.27)) (justify left bottom) hide)
    )
    (property "MANUFACTURER" "Texas Instruments" (id 5) (at 172.72 83.82 0)
      (effects (font (size 1.27 1.27)) (justify left bottom) hide)
    )
    (property "MAXIMUM_PACKAGE_HEIGHT" "1.75mm" (id 6) (at 172.72 83.82 0)
      (effects (font (size 1.27 1.27)) (justify left bottom) hide)
    )
    (property "STANDARD" "IPC-7351B" (id 7) (at 172.72 83.82 0)
      (effects (font (size 1.27 1.27)) (justify left bottom) hide)
    )
    (pin "1" (uuid c575a8d5-bc91-438f-be31-de77da02707d))
    (pin "2" (uuid 9806d422-6cee-448a-b3d4-3ff413bedd48))
    (pin "3" (uuid 8f1245c1-db92-4bf4-bf73-62373e7ac659))
    (pin "4" (uuid a7546e00-3998-4814-a73b-e5cdf254b4fc))
    (pin "5" (uuid 60834b79-6a02-46a3-9b7a-aa9f6b33ac56))
    (pin "6" (uuid 9e735c0b-ecd7-4d0e-9577-48bbdef0b547))
    (pin "7" (uuid 2e39a84a-3381-47f9-8462-85f71f235988))
    (pin "8" (uuid 44a3e2bf-6441-433c-b31a-a9c235c6fa6f))
  )

  (symbol (lib_id "Device:R_US") (at 191.77 91.44 0) (unit 1)
    (in_bom yes) (on_board yes)
    (uuid 00000000-0000-0000-0000-0000609a7675)
    (property "Reference" "R15" (id 0) (at 193.4972 90.2716 0)
      (effects (font (size 1.27 1.27)) (justify left))
    )
    (property "Value" "560K" (id 1) (at 193.4972 92.583 0)
      (effects (font (size 1.27 1.27)) (justify left))
    )
    (property "Footprint" "Resistor_SMD:R_0805_2012Metric" (id 2) (at 192.786 91.694 90)
      (effects (font (size 1.27 1.27)) hide)
    )
    (property "Datasheet" "~" (id 3) (at 191.77 91.44 0)
      (effects (font (size 1.27 1.27)) hide)
    )
    (pin "1" (uuid 77ef9b4f-1f78-4a21-a7b8-6fe56ddd2ff7))
    (pin "2" (uuid 5c403433-4111-4fa9-a3d6-756f7be7047b))
  )

  (symbol (lib_id "Device:R_US") (at 191.77 102.87 0) (unit 1)
    (in_bom yes) (on_board yes)
    (uuid 00000000-0000-0000-0000-0000609a767b)
    (property "Reference" "R17" (id 0) (at 193.4972 101.7016 0)
      (effects (font (size 1.27 1.27)) (justify left))
    )
    (property "Value" "100K" (id 1) (at 193.4972 104.013 0)
      (effects (font (size 1.27 1.27)) (justify left))
    )
    (property "Footprint" "Resistor_SMD:R_0805_2012Metric" (id 2) (at 192.786 103.124 90)
      (effects (font (size 1.27 1.27)) hide)
    )
    (property "Datasheet" "~" (id 3) (at 191.77 102.87 0)
      (effects (font (size 1.27 1.27)) hide)
    )
    (pin "1" (uuid 37a1c7b4-e771-4a8d-a5b0-a4bbcc17e839))
    (pin "2" (uuid d538fd0e-af2b-4309-a3b4-e2835571d3c6))
  )

  (symbol (lib_id "Device:R_US") (at 201.93 80.01 0) (unit 1)
    (in_bom yes) (on_board yes)
    (uuid 00000000-0000-0000-0000-0000609a7681)
    (property "Reference" "R14" (id 0) (at 203.6572 78.8416 0)
      (effects (font (size 1.27 1.27)) (justify left))
    )
    (property "Value" "560K" (id 1) (at 203.6572 81.153 0)
      (effects (font (size 1.27 1.27)) (justify left))
    )
    (property "Footprint" "Resistor_SMD:R_0805_2012Metric" (id 2) (at 202.946 80.264 90)
      (effects (font (size 1.27 1.27)) hide)
    )
    (property "Datasheet" "~" (id 3) (at 201.93 80.01 0)
      (effects (font (size 1.27 1.27)) hide)
    )
    (pin "1" (uuid 0dd39d89-54ea-41d6-8a99-0a13bd3723b9))
    (pin "2" (uuid 8e40fa18-9efa-4e15-a383-3831c33b86b1))
  )

  (symbol (lib_id "Device:R_US") (at 201.93 91.44 0) (unit 1)
    (in_bom yes) (on_board yes)
    (uuid 00000000-0000-0000-0000-0000609a7687)
    (property "Reference" "R16" (id 0) (at 203.6572 90.2716 0)
      (effects (font (size 1.27 1.27)) (justify left))
    )
    (property "Value" "100K" (id 1) (at 203.6572 92.583 0)
      (effects (font (size 1.27 1.27)) (justify left))
    )
    (property "Footprint" "Resistor_SMD:R_0805_2012Metric" (id 2) (at 202.946 91.694 90)
      (effects (font (size 1.27 1.27)) hide)
    )
    (property "Datasheet" "~" (id 3) (at 201.93 91.44 0)
      (effects (font (size 1.27 1.27)) hide)
    )
    (pin "1" (uuid 33d0fda6-4ceb-4461-96c8-b4a44e5e07e5))
    (pin "2" (uuid 2511525f-5934-41d4-8a07-ce9648a105de))
  )

  (symbol (lib_id "Device:R_US") (at 142.24 81.28 90) (unit 1)
    (in_bom yes) (on_board yes)
    (uuid 00000000-0000-0000-0000-0000609a7693)
    (property "Reference" "R13" (id 0) (at 141.0716 79.5528 90)
      (effects (font (size 1.27 1.27)) (justify left))
    )
    (property "Value" "2K" (id 1) (at 143.383 79.5528 90)
      (effects (font (size 1.27 1.27)) (justify right))
    )
    (property "Footprint" "Resistor_SMD:R_0805_2012Metric" (id 2) (at 142.494 80.264 90)
      (effects (font (size 1.27 1.27)) hide)
    )
    (property "Datasheet" "~" (id 3) (at 142.24 81.28 0)
      (effects (font (size 1.27 1.27)) hide)
    )
    (pin "1" (uuid 0947d5ef-cc2d-4b3d-bd17-3a63cdcf7fa1))
    (pin "2" (uuid b732d0f1-8417-42ff-aaa2-75e4c99ee84a))
  )

  (symbol (lib_id "Device:R_US") (at 149.86 91.44 90) (unit 1)
    (in_bom yes) (on_board yes)
    (uuid 00000000-0000-0000-0000-0000609a769f)
    (property "Reference" "R12" (id 0) (at 148.6916 89.7128 90)
      (effects (font (size 1.27 1.27)) (justify left))
    )
    (property "Value" "2K" (id 1) (at 151.003 89.7128 90)
      (effects (font (size 1.27 1.27)) (justify right))
    )
    (property "Footprint" "Resistor_SMD:R_0805_2012Metric" (id 2) (at 150.114 90.424 90)
      (effects (font (size 1.27 1.27)) hide)
    )
    (property "Datasheet" "~" (id 3) (at 149.86 91.44 0)
      (effects (font (size 1.27 1.27)) hide)
    )
    (pin "1" (uuid 457595d4-8f79-4f64-a5dc-eabc8a71149e))
    (pin "2" (uuid 1aef7524-c9ab-4a5e-9077-6630ed915c51))
  )

  (symbol (lib_id "power:GND") (at 191.77 107.95 0) (unit 1)
    (in_bom yes) (on_board yes)
    (uuid 00000000-0000-0000-0000-0000609a76b2)
    (property "Reference" "#PWR034" (id 0) (at 191.77 114.3 0)
      (effects (font (size 1.27 1.27)) hide)
    )
    (property "Value" "GND" (id 1) (at 191.897 112.3442 0))
    (property "Footprint" "" (id 2) (at 191.77 107.95 0)
      (effects (font (size 1.27 1.27)) hide)
    )
    (property "Datasheet" "" (id 3) (at 191.77 107.95 0)
      (effects (font (size 1.27 1.27)) hide)
    )
    (pin "1" (uuid f923c6d6-d5c8-4f78-8bfa-14ed9b01a7b2))
  )

  (symbol (lib_id "power:GND") (at 201.93 97.79 0) (unit 1)
    (in_bom yes) (on_board yes)
    (uuid 00000000-0000-0000-0000-0000609a76b8)
    (property "Reference" "#PWR033" (id 0) (at 201.93 104.14 0)
      (effects (font (size 1.27 1.27)) hide)
    )
    (property "Value" "GND" (id 1) (at 202.057 102.1842 0))
    (property "Footprint" "" (id 2) (at 201.93 97.79 0)
      (effects (font (size 1.27 1.27)) hide)
    )
    (property "Datasheet" "" (id 3) (at 201.93 97.79 0)
      (effects (font (size 1.27 1.27)) hide)
    )
    (pin "1" (uuid e739294f-dbfe-4728-8116-cee48a99d4e6))
  )

  (symbol (lib_id "power:GND") (at 158.75 76.2 0) (unit 1)
    (in_bom yes) (on_board yes)
    (uuid 00000000-0000-0000-0000-0000609a76c4)
    (property "Reference" "#PWR031" (id 0) (at 158.75 82.55 0)
      (effects (font (size 1.27 1.27)) hide)
    )
    (property "Value" "GND" (id 1) (at 158.877 80.5942 0))
    (property "Footprint" "" (id 2) (at 158.75 76.2 0)
      (effects (font (size 1.27 1.27)) hide)
    )
    (property "Datasheet" "" (id 3) (at 158.75 76.2 0)
      (effects (font (size 1.27 1.27)) hide)
    )
    (pin "1" (uuid 628dfb21-1a77-4115-a285-991fbe4aa4df))
  )

  (symbol (lib_id "power:GND") (at 158.75 86.36 0) (unit 1)
    (in_bom yes) (on_board yes)
    (uuid 00000000-0000-0000-0000-0000609a76d0)
    (property "Reference" "#PWR032" (id 0) (at 158.75 92.71 0)
      (effects (font (size 1.27 1.27)) hide)
    )
    (property "Value" "GND" (id 1) (at 158.877 90.7542 0))
    (property "Footprint" "" (id 2) (at 158.75 86.36 0)
      (effects (font (size 1.27 1.27)) hide)
    )
    (property "Datasheet" "" (id 3) (at 158.75 86.36 0)
      (effects (font (size 1.27 1.27)) hide)
    )
    (pin "1" (uuid 820c581f-fb8a-4444-991c-43bc934dd690))
  )

  (symbol (lib_id "282834-6:282834-6") (at 102.87 83.82 180) (unit 1)
    (in_bom yes) (on_board yes)
    (uuid 00000000-0000-0000-0000-000060abb1a9)
    (property "Reference" "J2" (id 0) (at 105.537 71.882 0))
    (property "Value" "282834-6" (id 1) (at 105.537 74.1934 0))
    (property "Footprint" "TerminalBlock_4Ucon:TerminalBlock_4Ucon_1x06_P3.50mm_Horizontal" (id 2) (at 102.87 83.82 0)
      (effects (font (size 1.27 1.27)) (justify left bottom) hide)
    )
    (property "Datasheet" "" (id 3) (at 102.87 83.82 0)
      (effects (font (size 1.27 1.27)) (justify left bottom) hide)
    )
    (property "Comment" "282834-6" (id 4) (at 102.87 83.82 0)
      (effects (font (size 1.27 1.27)) (justify left bottom) hide)
    )
    (property "EU_RoHS_Compliance" "Compliant with Exemptions" (id 5) (at 102.87 83.82 0)
      (effects (font (size 1.27 1.27)) (justify left bottom) hide)
    )
    (pin "1" (uuid b755ea40-70cc-4d29-8cc2-2b13f4880d6d))
    (pin "2" (uuid 9c6a6e53-f918-4300-863e-fd6bf41835da))
    (pin "3" (uuid efac55c2-ab57-4ea1-a869-8bf8ec50b6cb))
    (pin "4" (uuid 4e18b9c9-94b0-4f15-82eb-af8fa7ac1be3))
    (pin "5" (uuid 98f07fd9-8b41-4293-b8a3-d25436f58d02))
    (pin "6" (uuid 76981e97-b20b-49ad-8949-839f63c220c2))
  )

  (symbol (lib_id "power:GND") (at 114.3 92.71 0) (unit 1)
    (in_bom yes) (on_board yes)
    (uuid 00000000-0000-0000-0000-000060acbbdf)
    (property "Reference" "#PWR028" (id 0) (at 114.3 99.06 0)
      (effects (font (size 1.27 1.27)) hide)
    )
    (property "Value" "GND" (id 1) (at 114.427 97.1042 0))
    (property "Footprint" "" (id 2) (at 114.3 92.71 0)
      (effects (font (size 1.27 1.27)) hide)
    )
    (property "Datasheet" "" (id 3) (at 114.3 92.71 0)
      (effects (font (size 1.27 1.27)) hide)
    )
    (pin "1" (uuid 8ec67ee1-7980-49fc-b4ac-1ba638aa4160))
  )

  (symbol (lib_id "power:+BATT") (at 120.65 77.47 0) (unit 1)
    (in_bom yes) (on_board yes)
    (uuid 00000000-0000-0000-0000-000060b73c84)
    (property "Reference" "#PWR027" (id 0) (at 120.65 81.28 0)
      (effects (font (size 1.27 1.27)) hide)
    )
    (property "Value" "+BATT" (id 1) (at 121.031 73.0758 0))
    (property "Footprint" "" (id 2) (at 120.65 77.47 0)
      (effects (font (size 1.27 1.27)) hide)
    )
    (property "Datasheet" "" (id 3) (at 120.65 77.47 0)
      (effects (font (size 1.27 1.27)) hide)
    )
    (pin "1" (uuid a255b091-e210-4a93-bbda-9620d9c52106))
  )

  (symbol (lib_id "power:GND") (at 156.21 102.87 0) (unit 1)
    (in_bom yes) (on_board yes)
    (uuid 00000000-0000-0000-0000-00006170e0eb)
    (property "Reference" "#PWR025" (id 0) (at 156.21 109.22 0)
      (effects (font (size 1.27 1.27)) hide)
    )
    (property "Value" "GND" (id 1) (at 156.337 107.2642 0))
    (property "Footprint" "" (id 2) (at 156.21 102.87 0)
      (effects (font (size 1.27 1.27)) hide)
    )
    (property "Datasheet" "" (id 3) (at 156.21 102.87 0)
      (effects (font (size 1.27 1.27)) hide)
    )
    (pin "1" (uuid c07d6d57-1170-415b-9881-1b5f83b5676d))
  )

  (symbol (lib_id "power:GND") (at 146.05 71.12 0) (unit 1)
    (in_bom yes) (on_board yes)
    (uuid 00000000-0000-0000-0000-000061770eac)
    (property "Reference" "#PWR029" (id 0) (at 146.05 77.47 0)
      (effects (font (size 1.27 1.27)) hide)
    )
    (property "Value" "GND" (id 1) (at 146.177 75.5142 0))
    (property "Footprint" "" (id 2) (at 146.05 71.12 0)
      (effects (font (size 1.27 1.27)) hide)
    )
    (property "Datasheet" "" (id 3) (at 146.05 71.12 0)
      (effects (font (size 1.27 1.27)) hide)
    )
    (pin "1" (uuid 9479324b-21dd-4eba-b5b3-5e912896b3dc))
  )

  (symbol (lib_id "roket-rescue:Cap-805_cap") (at 156.21 96.52 270) (unit 1)
    (in_bom yes) (on_board yes)
    (uuid bff81813-536f-4f95-b914-1131645cd7c2)
    (property "Reference" "C26" (id 0) (at 158.8262 96.6216 90)
      (effects (font (size 1.27 1.27)) (justify left))
    )
    (property "Value" "22uF" (id 1) (at 158.8262 98.933 90)
      (effects (font (size 1.27 1.27)) (justify left))
    )
    (property "Footprint" "Capacitor_SMD:C_0805_2012Metric" (id 2) (at 156.21 96.52 0)
      (effects (font (size 1.27 1.27)) (justify left bottom) hide)
    )
    (property "Datasheet" "" (id 3) (at 156.21 96.52 0)
      (effects (font (size 1.27 1.27)) (justify left bottom) hide)
    )
    (pin "1" (uuid e72e899e-3141-44e8-9d4f-2a36fc977442))
    (pin "2" (uuid b560d390-7e24-483e-936c-e8f68141a142))
  )

  (symbol (lib_id "roket-rescue:Cap-805_cap") (at 151.13 73.66 270) (unit 1)
    (in_bom yes) (on_board yes)
    (uuid f2f4c15a-ff5d-438c-a4cd-199c22955067)
    (property "Reference" "C25" (id 0) (at 153.7462 73.7616 90)
      (effects (font (size 1.27 1.27)) (justify left))
    )
    (property "Value" "22uF" (id 1) (at 153.7462 76.073 90)
      (effects (font (size 1.27 1.27)) (justify left))
    )
    (property "Footprint" "Capacitor_SMD:C_0805_2012Metric" (id 2) (at 151.13 73.66 0)
      (effects (font (size 1.27 1.27)) (justify left bottom) hide)
    )
    (property "Datasheet" "" (id 3) (at 151.13 73.66 0)
      (effects (font (size 1.27 1.27)) (justify left bottom) hide)
    )
    (pin "1" (uuid 79a8c7f0-65a5-4428-9aef-5a87fd97bddf))
    (pin "2" (uuid bd335a43-f812-4026-ae2f-d676c4fa039d))
  )
)
