(kicad_sch (version 20211123) (generator eeschema)

  (uuid e100e14f-d8a7-44b1-b5bc-eb55cc501678)

  (paper "A4")

  (lib_symbols
    (symbol "Device:R_US" (pin_numbers hide) (pin_names (offset 0)) (in_bom yes) (on_board yes)
      (property "Reference" "R" (id 0) (at 2.54 0 90)
        (effects (font (size 1.27 1.27)))
      )
      (property "Value" "R_US" (id 1) (at -2.54 0 90)
        (effects (font (size 1.27 1.27)))
      )
      (property "Footprint" "" (id 2) (at 1.016 -0.254 90)
        (effects (font (size 1.27 1.27)) hide)
      )
      (property "Datasheet" "~" (id 3) (at 0 0 0)
        (effects (font (size 1.27 1.27)) hide)
      )
      (property "ki_keywords" "R res resistor" (id 4) (at 0 0 0)
        (effects (font (size 1.27 1.27)) hide)
      )
      (property "ki_description" "Resistor, US symbol" (id 5) (at 0 0 0)
        (effects (font (size 1.27 1.27)) hide)
      )
      (property "ki_fp_filters" "R_*" (id 6) (at 0 0 0)
        (effects (font (size 1.27 1.27)) hide)
      )
      (symbol "R_US_0_1"
        (polyline
          (pts
            (xy 0 -2.286)
            (xy 0 -2.54)
          )
          (stroke (width 0) (type default) (color 0 0 0 0))
          (fill (type none))
        )
        (polyline
          (pts
            (xy 0 2.286)
            (xy 0 2.54)
          )
          (stroke (width 0) (type default) (color 0 0 0 0))
          (fill (type none))
        )
        (polyline
          (pts
            (xy 0 -0.762)
            (xy 1.016 -1.143)
            (xy 0 -1.524)
            (xy -1.016 -1.905)
            (xy 0 -2.286)
          )
          (stroke (width 0) (type default) (color 0 0 0 0))
          (fill (type none))
        )
        (polyline
          (pts
            (xy 0 0.762)
            (xy 1.016 0.381)
            (xy 0 0)
            (xy -1.016 -0.381)
            (xy 0 -0.762)
          )
          (stroke (width 0) (type default) (color 0 0 0 0))
          (fill (type none))
        )
        (polyline
          (pts
            (xy 0 2.286)
            (xy 1.016 1.905)
            (xy 0 1.524)
            (xy -1.016 1.143)
            (xy 0 0.762)
          )
          (stroke (width 0) (type default) (color 0 0 0 0))
          (fill (type none))
        )
      )
      (symbol "R_US_1_1"
        (pin passive line (at 0 3.81 270) (length 1.27)
          (name "~" (effects (font (size 1.27 1.27))))
          (number "1" (effects (font (size 1.27 1.27))))
        )
        (pin passive line (at 0 -3.81 90) (length 1.27)
          (name "~" (effects (font (size 1.27 1.27))))
          (number "2" (effects (font (size 1.27 1.27))))
        )
      )
    )
    (symbol "power:+3.3V" (power) (pin_names (offset 0)) (in_bom yes) (on_board yes)
      (property "Reference" "#PWR" (id 0) (at 0 -3.81 0)
        (effects (font (size 1.27 1.27)) hide)
      )
      (property "Value" "+3.3V" (id 1) (at 0 3.556 0)
        (effects (font (size 1.27 1.27)))
      )
      (property "Footprint" "" (id 2) (at 0 0 0)
        (effects (font (size 1.27 1.27)) hide)
      )
      (property "Datasheet" "" (id 3) (at 0 0 0)
        (effects (font (size 1.27 1.27)) hide)
      )
      (property "ki_keywords" "power-flag" (id 4) (at 0 0 0)
        (effects (font (size 1.27 1.27)) hide)
      )
      (property "ki_description" "Power symbol creates a global label with name \"+3.3V\"" (id 5) (at 0 0 0)
        (effects (font (size 1.27 1.27)) hide)
      )
      (symbol "+3.3V_0_1"
        (polyline
          (pts
            (xy -0.762 1.27)
            (xy 0 2.54)
          )
          (stroke (width 0) (type default) (color 0 0 0 0))
          (fill (type none))
        )
        (polyline
          (pts
            (xy 0 0)
            (xy 0 2.54)
          )
          (stroke (width 0) (type default) (color 0 0 0 0))
          (fill (type none))
        )
        (polyline
          (pts
            (xy 0 2.54)
            (xy 0.762 1.27)
          )
          (stroke (width 0) (type default) (color 0 0 0 0))
          (fill (type none))
        )
      )
      (symbol "+3.3V_1_1"
        (pin power_in line (at 0 0 90) (length 0) hide
          (name "+3V3" (effects (font (size 1.27 1.27))))
          (number "1" (effects (font (size 1.27 1.27))))
        )
      )
    )
    (symbol "power:+BATT" (power) (pin_names (offset 0)) (in_bom yes) (on_board yes)
      (property "Reference" "#PWR" (id 0) (at 0 -3.81 0)
        (effects (font (size 1.27 1.27)) hide)
      )
      (property "Value" "+BATT" (id 1) (at 0 3.556 0)
        (effects (font (size 1.27 1.27)))
      )
      (property "Footprint" "" (id 2) (at 0 0 0)
        (effects (font (size 1.27 1.27)) hide)
      )
      (property "Datasheet" "" (id 3) (at 0 0 0)
        (effects (font (size 1.27 1.27)) hide)
      )
      (property "ki_keywords" "power-flag battery" (id 4) (at 0 0 0)
        (effects (font (size 1.27 1.27)) hide)
      )
      (property "ki_description" "Power symbol creates a global label with name \"+BATT\"" (id 5) (at 0 0 0)
        (effects (font (size 1.27 1.27)) hide)
      )
      (symbol "+BATT_0_1"
        (polyline
          (pts
            (xy -0.762 1.27)
            (xy 0 2.54)
          )
          (stroke (width 0) (type default) (color 0 0 0 0))
          (fill (type none))
        )
        (polyline
          (pts
            (xy 0 0)
            (xy 0 2.54)
          )
          (stroke (width 0) (type default) (color 0 0 0 0))
          (fill (type none))
        )
        (polyline
          (pts
            (xy 0 2.54)
            (xy 0.762 1.27)
          )
          (stroke (width 0) (type default) (color 0 0 0 0))
          (fill (type none))
        )
      )
      (symbol "+BATT_1_1"
        (pin power_in line (at 0 0 90) (length 0) hide
          (name "+BATT" (effects (font (size 1.27 1.27))))
          (number "1" (effects (font (size 1.27 1.27))))
        )
      )
    )
    (symbol "power:GND" (power) (pin_names (offset 0)) (in_bom yes) (on_board yes)
      (property "Reference" "#PWR" (id 0) (at 0 -6.35 0)
        (effects (font (size 1.27 1.27)) hide)
      )
      (property "Value" "GND" (id 1) (at 0 -3.81 0)
        (effects (font (size 1.27 1.27)))
      )
      (property "Footprint" "" (id 2) (at 0 0 0)
        (effects (font (size 1.27 1.27)) hide)
      )
      (property "Datasheet" "" (id 3) (at 0 0 0)
        (effects (font (size 1.27 1.27)) hide)
      )
      (property "ki_keywords" "power-flag" (id 4) (at 0 0 0)
        (effects (font (size 1.27 1.27)) hide)
      )
      (property "ki_description" "Power symbol creates a global label with name \"GND\" , ground" (id 5) (at 0 0 0)
        (effects (font (size 1.27 1.27)) hide)
      )
      (symbol "GND_0_1"
        (polyline
          (pts
            (xy 0 0)
            (xy 0 -1.27)
            (xy 1.27 -1.27)
            (xy 0 -2.54)
            (xy -1.27 -1.27)
            (xy 0 -1.27)
          )
          (stroke (width 0) (type default) (color 0 0 0 0))
          (fill (type none))
        )
      )
      (symbol "GND_1_1"
        (pin power_in line (at 0 0 270) (length 0) hide
          (name "GND" (effects (font (size 1.27 1.27))))
          (number "1" (effects (font (size 1.27 1.27))))
        )
      )
    )
    (symbol "power:VCC" (power) (pin_names (offset 0)) (in_bom yes) (on_board yes)
      (property "Reference" "#PWR" (id 0) (at 0 -3.81 0)
        (effects (font (size 1.27 1.27)) hide)
      )
      (property "Value" "VCC" (id 1) (at 0 3.81 0)
        (effects (font (size 1.27 1.27)))
      )
      (property "Footprint" "" (id 2) (at 0 0 0)
        (effects (font (size 1.27 1.27)) hide)
      )
      (property "Datasheet" "" (id 3) (at 0 0 0)
        (effects (font (size 1.27 1.27)) hide)
      )
      (property "ki_keywords" "power-flag" (id 4) (at 0 0 0)
        (effects (font (size 1.27 1.27)) hide)
      )
      (property "ki_description" "Power symbol creates a global label with name \"VCC\"" (id 5) (at 0 0 0)
        (effects (font (size 1.27 1.27)) hide)
      )
      (symbol "VCC_0_1"
        (polyline
          (pts
            (xy -0.762 1.27)
            (xy 0 2.54)
          )
          (stroke (width 0) (type default) (color 0 0 0 0))
          (fill (type none))
        )
        (polyline
          (pts
            (xy 0 0)
            (xy 0 2.54)
          )
          (stroke (width 0) (type default) (color 0 0 0 0))
          (fill (type none))
        )
        (polyline
          (pts
            (xy 0 2.54)
            (xy 0.762 1.27)
          )
          (stroke (width 0) (type default) (color 0 0 0 0))
          (fill (type none))
        )
      )
      (symbol "VCC_1_1"
        (pin power_in line (at 0 0 90) (length 0) hide
          (name "VCC" (effects (font (size 1.27 1.27))))
          (number "1" (effects (font (size 1.27 1.27))))
        )
      )
    )
    (symbol "roket-rescue:Cap-805_cap" (pin_names (offset 1.016) hide) (in_bom yes) (on_board yes)
      (property "Reference" "C" (id 0) (at 0 3.81 0)
        (effects (font (size 1.27 1.27)) (justify left bottom))
      )
      (property "Value" "Cap-805_cap" (id 1) (at 0 -5.08 0)
        (effects (font (size 1.27 1.27)) (justify left bottom))
      )
      (property "Footprint" "CAPC2012X135N" (id 2) (at 0 0 0)
        (effects (font (size 1.27 1.27)) (justify left bottom) hide)
      )
      (property "Datasheet" "" (id 3) (at 0 0 0)
        (effects (font (size 1.27 1.27)) (justify left bottom) hide)
      )
      (property "ki_locked" "" (id 4) (at 0 0 0)
        (effects (font (size 1.27 1.27)))
      )
      (symbol "Cap-805_cap_0_0"
        (rectangle (start 0 -1.905) (end 0.635 1.905)
          (stroke (width 0) (type default) (color 0 0 0 0))
          (fill (type outline))
        )
        (rectangle (start 1.905 -1.905) (end 2.54 1.905)
          (stroke (width 0) (type default) (color 0 0 0 0))
          (fill (type outline))
        )
        (pin passive line (at 5.08 0 180) (length 2.54)
          (name "~" (effects (font (size 1.016 1.016))))
          (number "1" (effects (font (size 1.016 1.016))))
        )
        (pin passive line (at -2.54 0 0) (length 2.54)
          (name "~" (effects (font (size 1.016 1.016))))
          (number "2" (effects (font (size 1.016 1.016))))
        )
      )
    )
    (symbol "roket-rescue:SS24-SS24" (pin_names (offset 1.016) hide) (in_bom yes) (on_board yes)
      (property "Reference" "D" (id 0) (at -5.08 2.54 0)
        (effects (font (size 1.27 1.27)) (justify left bottom))
      )
      (property "Value" "SS24-SS24" (id 1) (at -5.08 -3.81 0)
        (effects (font (size 1.27 1.27)) (justify left bottom))
      )
      (property "Footprint" "DIOM5336X265N" (id 2) (at 0 0 0)
        (effects (font (size 1.27 1.27)) (justify left bottom) hide)
      )
      (property "Datasheet" "" (id 3) (at 0 0 0)
        (effects (font (size 1.27 1.27)) (justify left bottom) hide)
      )
      (property "STANDARD" "IPC 7351B" (id 4) (at 0 0 0)
        (effects (font (size 1.27 1.27)) (justify left bottom) hide)
      )
      (property "PARTREV" "1.1.2" (id 5) (at 0 0 0)
        (effects (font (size 1.27 1.27)) (justify left bottom) hide)
      )
      (property "MANUFACTURER" "ON Semiconductor" (id 6) (at 0 0 0)
        (effects (font (size 1.27 1.27)) (justify left bottom) hide)
      )
      (property "MAXIMUM_PACKAGE_HEIGHT" "2.65 mm" (id 7) (at 0 0 0)
        (effects (font (size 1.27 1.27)) (justify left bottom) hide)
      )
      (property "ki_locked" "" (id 8) (at 0 0 0)
        (effects (font (size 1.27 1.27)))
      )
      (symbol "SS24-SS24_0_0"
        (polyline
          (pts
            (xy -2.54 0)
            (xy -1.27 0)
          )
          (stroke (width 0.254) (type default) (color 0 0 0 0))
          (fill (type none))
        )
        (polyline
          (pts
            (xy -1.27 -1.27)
            (xy 1.27 0)
          )
          (stroke (width 0.254) (type default) (color 0 0 0 0))
          (fill (type none))
        )
        (polyline
          (pts
            (xy -1.27 0)
            (xy -1.27 -1.27)
          )
          (stroke (width 0.254) (type default) (color 0 0 0 0))
          (fill (type none))
        )
        (polyline
          (pts
            (xy -1.27 1.27)
            (xy -1.27 0)
          )
          (stroke (width 0.254) (type default) (color 0 0 0 0))
          (fill (type none))
        )
        (polyline
          (pts
            (xy 0.635 -1.016)
            (xy 0.635 -1.27)
          )
          (stroke (width 0.254) (type default) (color 0 0 0 0))
          (fill (type none))
        )
        (polyline
          (pts
            (xy 1.27 -1.27)
            (xy 0.635 -1.27)
          )
          (stroke (width 0.254) (type default) (color 0 0 0 0))
          (fill (type none))
        )
        (polyline
          (pts
            (xy 1.27 0)
            (xy -1.27 1.27)
          )
          (stroke (width 0.254) (type default) (color 0 0 0 0))
          (fill (type none))
        )
        (polyline
          (pts
            (xy 1.27 0)
            (xy 1.27 -1.27)
          )
          (stroke (width 0.254) (type default) (color 0 0 0 0))
          (fill (type none))
        )
        (polyline
          (pts
            (xy 1.27 1.27)
            (xy 1.27 0)
          )
          (stroke (width 0.254) (type default) (color 0 0 0 0))
          (fill (type none))
        )
        (polyline
          (pts
            (xy 1.905 1.27)
            (xy 1.27 1.27)
          )
          (stroke (width 0.254) (type default) (color 0 0 0 0))
          (fill (type none))
        )
        (polyline
          (pts
            (xy 1.905 1.27)
            (xy 1.905 1.016)
          )
          (stroke (width 0.254) (type default) (color 0 0 0 0))
          (fill (type none))
        )
        (polyline
          (pts
            (xy 2.54 0)
            (xy 1.27 0)
          )
          (stroke (width 0.254) (type default) (color 0 0 0 0))
          (fill (type none))
        )
        (pin passive line (at -5.08 0 0) (length 2.54)
          (name "~" (effects (font (size 1.016 1.016))))
          (number "A" (effects (font (size 1.016 1.016))))
        )
        (pin passive line (at 5.08 0 180) (length 2.54)
          (name "~" (effects (font (size 1.016 1.016))))
          (number "C" (effects (font (size 1.016 1.016))))
        )
      )
    )
    (symbol "roket-rescue:TPS630702RNMR-TPS63070RNMT" (pin_names (offset 1.016)) (in_bom yes) (on_board yes)
      (property "Reference" "U" (id 0) (at -12.7 16.2306 0)
        (effects (font (size 1.27 1.27)) (justify left bottom))
      )
      (property "Value" "TPS630702RNMR-TPS63070RNMT" (id 1) (at -12.7 -19.2278 0)
        (effects (font (size 1.27 1.27)) (justify left bottom))
      )
      (property "Footprint" "VREG_TPS630702RNMR" (id 2) (at 6.35 1.27 0)
        (effects (font (size 1.27 1.27)) (justify left bottom) hide)
      )
      (property "Datasheet" "" (id 3) (at 0 0 0)
        (effects (font (size 1.27 1.27)) (justify left bottom) hide)
      )
      (property "ki_locked" "" (id 4) (at 0 0 0)
        (effects (font (size 1.27 1.27)))
      )
      (symbol "TPS630702RNMR-TPS63070RNMT_0_0"
        (rectangle (start -12.7 -15.24) (end 12.7 15.24)
          (stroke (width 0.4064) (type default) (color 0 0 0 0))
          (fill (type background))
        )
        (pin input line (at -17.78 0 0) (length 5.08)
          (name "PS/SYNC" (effects (font (size 1.016 1.016))))
          (number "1" (effects (font (size 1.016 1.016))))
        )
        (pin power_in line (at 17.78 -10.16 180) (length 5.08)
          (name "PGND" (effects (font (size 1.016 1.016))))
          (number "10" (effects (font (size 1.016 1.016))))
        )
        (pin input line (at -17.78 12.7 0) (length 5.08)
          (name "L1" (effects (font (size 1.016 1.016))))
          (number "11" (effects (font (size 1.016 1.016))))
        )
        (pin input line (at -17.78 10.16 0) (length 5.08)
          (name "VIN" (effects (font (size 1.016 1.016))))
          (number "12_13" (effects (font (size 1.016 1.016))))
        )
        (pin input line (at -17.78 -2.54 0) (length 5.08)
          (name "EN" (effects (font (size 1.016 1.016))))
          (number "14" (effects (font (size 1.016 1.016))))
        )
        (pin input line (at 17.78 -5.08 180) (length 5.08)
          (name "VSEL" (effects (font (size 1.016 1.016))))
          (number "15" (effects (font (size 1.016 1.016))))
        )
        (pin output line (at 17.78 -2.54 180) (length 5.08)
          (name "PG" (effects (font (size 1.016 1.016))))
          (number "2" (effects (font (size 1.016 1.016))))
        )
        (pin output line (at -17.78 -12.7 0) (length 5.08)
          (name "VAUX" (effects (font (size 1.016 1.016))))
          (number "3" (effects (font (size 1.016 1.016))))
        )
        (pin power_in line (at 17.78 -12.7 180) (length 5.08)
          (name "GND" (effects (font (size 1.016 1.016))))
          (number "4" (effects (font (size 1.016 1.016))))
        )
        (pin input line (at 17.78 3.81 180) (length 5.08)
          (name "FB" (effects (font (size 1.016 1.016))))
          (number "5" (effects (font (size 1.016 1.016))))
        )
        (pin output line (at 17.78 -7.62 180) (length 5.08)
          (name "FB2" (effects (font (size 1.016 1.016))))
          (number "6" (effects (font (size 1.016 1.016))))
        )
        (pin output line (at 17.78 10.16 180) (length 5.08)
          (name "VOUT" (effects (font (size 1.016 1.016))))
          (number "7_8" (effects (font (size 1.016 1.016))))
        )
        (pin input line (at 17.78 12.7 180) (length 5.08)
          (name "L2" (effects (font (size 1.016 1.016))))
          (number "9" (effects (font (size 1.016 1.016))))
        )
      )
    )
    (symbol "roket-rescue:UWT1C331MNL1GS-CAPAE1030X1000N" (pin_numbers hide) (pin_names (offset 1.016) hide) (in_bom yes) (on_board yes)
      (property "Reference" "C" (id 0) (at -5.08 3.81 0)
        (effects (font (size 1.27 1.27)) (justify left bottom))
      )
      (property "Value" "UWT1C331MNL1GS-CAPAE1030X1000N" (id 1) (at -5.08 -5.08 0)
        (effects (font (size 1.27 1.27)) (justify left bottom))
      )
      (property "Footprint" "CAPAE830X1080N" (id 2) (at 0 0 0)
        (effects (font (size 1.27 1.27)) (justify left bottom) hide)
      )
      (property "Datasheet" "" (id 3) (at 0 0 0)
        (effects (font (size 1.27 1.27)) (justify left bottom) hide)
      )
      (property "MANUFACTURER" "Nichicon" (id 4) (at 0 0 0)
        (effects (font (size 1.27 1.27)) (justify left bottom) hide)
      )
      (property "STANDARD" "IPC-7351B" (id 5) (at 0 0 0)
        (effects (font (size 1.27 1.27)) (justify left bottom) hide)
      )
      (property "PARTREV" "CAT.8100H" (id 6) (at 0 0 0)
        (effects (font (size 1.27 1.27)) (justify left bottom) hide)
      )
      (property "MAXIMUM_PACKAGE_HEIGHT" "10.8mm" (id 7) (at 0 0 0)
        (effects (font (size 1.27 1.27)) (justify left bottom) hide)
      )
      (property "ki_locked" "" (id 8) (at 0 0 0)
        (effects (font (size 1.27 1.27)))
      )
      (symbol "UWT1C331MNL1GS-CAPAE1030X1000N_0_0"
        (rectangle (start -3.7084 -1.524) (end -2.8194 -1.397)
          (stroke (width 0) (type default) (color 0 0 0 0))
          (fill (type outline))
        )
        (rectangle (start -3.3274 -1.905) (end -3.2004 -1.016)
          (stroke (width 0) (type default) (color 0 0 0 0))
          (fill (type outline))
        )
        (arc (start -0.254 2.54) (mid -1.054 0) (end -0.254 -2.54)
          (stroke (width 0.254) (type default) (color 0 0 0 0))
          (fill (type none))
        )
        (polyline
          (pts
            (xy -5.08 0)
            (xy -2.032 0)
          )
          (stroke (width 0.254) (type default) (color 0 0 0 0))
          (fill (type none))
        )
        (polyline
          (pts
            (xy -2.032 2.54)
            (xy -2.032 -2.54)
          )
          (stroke (width 0.254) (type default) (color 0 0 0 0))
          (fill (type none))
        )
        (polyline
          (pts
            (xy -1.016 0)
            (xy 2.54 0)
          )
          (stroke (width 0.254) (type default) (color 0 0 0 0))
          (fill (type none))
        )
        (pin passive line (at -5.08 0 0) (length 0)
          (name "~" (effects (font (size 1.016 1.016))))
          (number "1" (effects (font (size 1.016 1.016))))
        )
        (pin passive line (at 2.54 0 180) (length 0)
          (name "~" (effects (font (size 1.016 1.016))))
          (number "2" (effects (font (size 1.016 1.016))))
        )
      )
    )
    (symbol "roket-rescue:XFL4020-102MEC-XFL4020-102MEC" (pin_numbers hide) (pin_names (offset 1.016) hide) (in_bom yes) (on_board yes)
      (property "Reference" "L" (id 0) (at -5.08 2.54 0)
        (effects (font (size 1.27 1.27)) (justify left bottom))
      )
      (property "Value" "XFL4020-102MEC-XFL4020-102MEC" (id 1) (at -5.08 -2.54 0)
        (effects (font (size 1.27 1.27)) (justify left bottom))
      )
      (property "Footprint" "IND_XFL4020-102MEC" (id 2) (at 0 0 0)
        (effects (font (size 1.27 1.27)) (justify left bottom) hide)
      )
      (property "Datasheet" "" (id 3) (at 0 0 0)
        (effects (font (size 1.27 1.27)) (justify left bottom) hide)
      )
      (property "DESCRIPTION" "Power inductor, shielded, 20% tol, SMT, RoHS, halogen free" (id 4) (at 0 0 0)
        (effects (font (size 1.27 1.27)) (justify left bottom) hide)
      )
      (property "MAXIMUM_PACKAGE_HEIGHT" "2.1mm" (id 5) (at 0 0 0)
        (effects (font (size 1.27 1.27)) (justify left bottom) hide)
      )
      (property "MANUFACTURER" "Coilcraft" (id 6) (at 0 0 0)
        (effects (font (size 1.27 1.27)) (justify left bottom) hide)
      )
      (property "PARTREV" "11/02/18" (id 7) (at 0 0 0)
        (effects (font (size 1.27 1.27)) (justify left bottom) hide)
      )
      (property "STANDARD" "Manufacturer Recommendations" (id 8) (at 0 0 0)
        (effects (font (size 1.27 1.27)) (justify left bottom) hide)
      )
      (property "ki_locked" "" (id 9) (at 0 0 0)
        (effects (font (size 1.27 1.27)))
      )
      (symbol "XFL4020-102MEC-XFL4020-102MEC_0_0"
        (arc (start -2.54 0) (mid -3.81 1.27) (end -5.08 0)
          (stroke (width 0.254) (type default) (color 0 0 0 0))
          (fill (type none))
        )
        (arc (start 0 0) (mid -1.27 1.27) (end -2.54 0)
          (stroke (width 0.254) (type default) (color 0 0 0 0))
          (fill (type none))
        )
        (polyline
          (pts
            (xy -5.08 0)
            (xy -7.62 0)
          )
          (stroke (width 0.254) (type default) (color 0 0 0 0))
          (fill (type none))
        )
        (polyline
          (pts
            (xy 5.08 0)
            (xy 7.62 0)
          )
          (stroke (width 0.254) (type default) (color 0 0 0 0))
          (fill (type none))
        )
        (arc (start 2.54 0) (mid 1.27 1.27) (end 0 0)
          (stroke (width 0.254) (type default) (color 0 0 0 0))
          (fill (type none))
        )
        (arc (start 5.08 0) (mid 3.81 1.27) (end 2.54 0)
          (stroke (width 0.254) (type default) (color 0 0 0 0))
          (fill (type none))
        )
        (pin passive line (at -12.7 0 0) (length 5.08)
          (name "~" (effects (font (size 1.016 1.016))))
          (number "1" (effects (font (size 1.016 1.016))))
        )
        (pin passive line (at 12.7 0 180) (length 5.08)
          (name "~" (effects (font (size 1.016 1.016))))
          (number "2" (effects (font (size 1.016 1.016))))
        )
      )
    )
  )

  (junction (at 85.09 128.27) (diameter 0) (color 0 0 0 0)
    (uuid 01ff8f47-b692-418f-9a38-373f44416b16)
  )
  (junction (at 93.98 81.28) (diameter 0) (color 0 0 0 0)
    (uuid 342a3f98-747a-4ae5-b8c5-451a9d4563fe)
  )
  (junction (at 45.72 69.85) (diameter 0) (color 0 0 0 0)
    (uuid 64534063-1d21-4f57-b2c1-4349129255b3)
  )
  (junction (at 41.91 60.96) (diameter 0) (color 0 0 0 0)
    (uuid 68bab1fc-d97c-4afa-a52d-0c87feefdda6)
  )
  (junction (at 116.84 57.15) (diameter 0) (color 0 0 0 0)
    (uuid 8227f6e6-74a8-49fc-9ace-c9b8c4ad77f2)
  )
  (junction (at 45.72 60.96) (diameter 0) (color 0 0 0 0)
    (uuid 8c8f00e1-2843-4755-a4fa-dde07954dbed)
  )
  (junction (at 156.21 100.33) (diameter 0) (color 0 0 0 0)
    (uuid 9f467116-992d-4fd7-898e-1f6a80588182)
  )
  (junction (at 154.94 57.15) (diameter 0) (color 0 0 0 0)
    (uuid a07361ae-4e0e-4833-b918-e1627e691016)
  )
  (junction (at 134.62 57.15) (diameter 0) (color 0 0 0 0)
    (uuid a9da1bfb-2bde-47a4-be59-9c5c7c03b348)
  )
  (junction (at 144.78 57.15) (diameter 0) (color 0 0 0 0)
    (uuid b3c5e38a-4708-454e-9c67-b9d2ea032aa0)
  )
  (junction (at 116.84 69.85) (diameter 0) (color 0 0 0 0)
    (uuid c25c1c71-4cc2-4b64-a59d-fb2b70ec1cae)
  )
  (junction (at 93.98 78.74) (diameter 0) (color 0 0 0 0)
    (uuid c4a10c80-a780-41b4-bb7f-cb081f13cb1f)
  )
  (junction (at 33.02 60.96) (diameter 0) (color 0 0 0 0)
    (uuid cd02b162-75f3-4484-bc08-038722d719b5)
  )
  (junction (at 93.98 83.82) (diameter 0) (color 0 0 0 0)
    (uuid d8a842eb-41ea-4cce-ba96-c25055f4e8b8)
  )
  (junction (at 93.98 86.36) (diameter 0) (color 0 0 0 0)
    (uuid e7a8a3f9-15fc-4f17-9250-e7a01d909193)
  )
  (junction (at 107.95 57.15) (diameter 0) (color 0 0 0 0)
    (uuid fe43e76d-ee69-4d7a-afc1-5bb8e24a0e01)
  )

  (wire (pts (xy 33.02 60.96) (xy 33.02 59.69))
    (stroke (width 0) (type default) (color 0 0 0 0))
    (uuid 02a8d0c7-5da8-4462-a565-fc778832483c)
  )
  (wire (pts (xy 85.09 128.27) (xy 85.09 127))
    (stroke (width 0) (type default) (color 0 0 0 0))
    (uuid 039f3b91-5516-44cb-b885-d3f8aacd6545)
  )
  (wire (pts (xy 58.42 86.36) (xy 57.15 86.36))
    (stroke (width 0) (type default) (color 0 0 0 0))
    (uuid 04b64bea-307e-472c-97c1-bf205a092c3f)
  )
  (wire (pts (xy 144.78 66.04) (xy 144.78 64.77))
    (stroke (width 0) (type default) (color 0 0 0 0))
    (uuid 0b62ce65-4061-4cfb-b5c4-a1a9336b07c1)
  )
  (wire (pts (xy 57.15 96.52) (xy 57.15 95.25))
    (stroke (width 0) (type default) (color 0 0 0 0))
    (uuid 276e614a-8323-4878-8e76-65c122139c45)
  )
  (wire (pts (xy 58.42 76.2) (xy 58.42 82.55))
    (stroke (width 0) (type default) (color 0 0 0 0))
    (uuid 2916aca6-1893-463a-acf8-7a043f9f2754)
  )
  (wire (pts (xy 93.98 78.74) (xy 93.98 81.28))
    (stroke (width 0) (type default) (color 0 0 0 0))
    (uuid 33b7364f-fe0f-41b8-a073-e8ccd276961e)
  )
  (wire (pts (xy 116.84 57.15) (xy 107.95 57.15))
    (stroke (width 0) (type default) (color 0 0 0 0))
    (uuid 396127da-4a01-4e23-a385-82c3d428915d)
  )
  (wire (pts (xy 45.72 60.96) (xy 41.91 60.96))
    (stroke (width 0) (type default) (color 0 0 0 0))
    (uuid 3a714d6a-4fcb-43e8-9668-1af7c84d4f32)
  )
  (wire (pts (xy 52.07 63.5) (xy 52.07 60.96))
    (stroke (width 0) (type default) (color 0 0 0 0))
    (uuid 3c5b18b3-a0c3-43d0-9a91-abda7807c4ac)
  )
  (wire (pts (xy 85.09 142.24) (xy 85.09 139.7))
    (stroke (width 0) (type default) (color 0 0 0 0))
    (uuid 3ed0e7f9-a52f-46fe-b45e-96ea301a8674)
  )
  (wire (pts (xy 134.62 57.15) (xy 144.78 57.15))
    (stroke (width 0) (type default) (color 0 0 0 0))
    (uuid 3f008489-a9ae-483a-ab96-1b353f4094e3)
  )
  (wire (pts (xy 116.84 57.15) (xy 134.62 57.15))
    (stroke (width 0) (type default) (color 0 0 0 0))
    (uuid 45778a39-fdf1-4ac0-ad62-cc403d498a4b)
  )
  (wire (pts (xy 154.94 66.04) (xy 154.94 64.77))
    (stroke (width 0) (type default) (color 0 0 0 0))
    (uuid 4b9ed3ff-0df0-4621-b547-58b9f986c8a9)
  )
  (wire (pts (xy 41.91 60.96) (xy 41.91 73.66))
    (stroke (width 0) (type default) (color 0 0 0 0))
    (uuid 5502633d-51dc-41b6-a568-52a07f94c816)
  )
  (wire (pts (xy 63.5 50.8) (xy 54.61 50.8))
    (stroke (width 0) (type default) (color 0 0 0 0))
    (uuid 57550163-3595-435d-89ff-09ccda63cd6c)
  )
  (wire (pts (xy 52.07 60.96) (xy 45.72 60.96))
    (stroke (width 0) (type default) (color 0 0 0 0))
    (uuid 5b41754f-73e5-43cc-8319-5ec0df19cf90)
  )
  (wire (pts (xy 116.84 62.23) (xy 116.84 57.15))
    (stroke (width 0) (type default) (color 0 0 0 0))
    (uuid 65f86fc6-9bc9-4c66-8236-6138ff1c75ac)
  )
  (wire (pts (xy 100.33 127) (xy 100.33 128.27))
    (stroke (width 0) (type default) (color 0 0 0 0))
    (uuid 70ebd2ff-4d7c-4e9e-8606-0bfe4b8c6cfe)
  )
  (wire (pts (xy 101.6 57.15) (xy 101.6 63.5))
    (stroke (width 0) (type default) (color 0 0 0 0))
    (uuid 7e24e271-bbb1-4df2-8e9c-915d760afab8)
  )
  (wire (pts (xy 100.33 128.27) (xy 97.79 128.27))
    (stroke (width 0) (type default) (color 0 0 0 0))
    (uuid 7e4073b5-38e8-4034-b2f1-81054c1e3905)
  )
  (wire (pts (xy 97.79 50.8) (xy 88.9 50.8))
    (stroke (width 0) (type default) (color 0 0 0 0))
    (uuid 81e16174-d917-40d8-8f48-4697103e4002)
  )
  (wire (pts (xy 107.95 57.15) (xy 101.6 57.15))
    (stroke (width 0) (type default) (color 0 0 0 0))
    (uuid 85129463-28e1-4747-8b31-e15684987f24)
  )
  (wire (pts (xy 154.94 54.61) (xy 154.94 57.15))
    (stroke (width 0) (type default) (color 0 0 0 0))
    (uuid 86f80378-6892-4c27-82dc-6725fcdbbec0)
  )
  (wire (pts (xy 41.91 81.28) (xy 41.91 82.55))
    (stroke (width 0) (type default) (color 0 0 0 0))
    (uuid 8b206171-72b6-4f41-adcd-82d469e72f8b)
  )
  (wire (pts (xy 156.21 110.49) (xy 156.21 109.22))
    (stroke (width 0) (type default) (color 0 0 0 0))
    (uuid 8c06ded3-82b4-4f23-9a4c-839868814343)
  )
  (wire (pts (xy 93.98 76.2) (xy 93.98 78.74))
    (stroke (width 0) (type default) (color 0 0 0 0))
    (uuid 8dae7557-8452-4051-b181-047b82396f91)
  )
  (wire (pts (xy 97.79 60.96) (xy 97.79 50.8))
    (stroke (width 0) (type default) (color 0 0 0 0))
    (uuid 94a9448e-fedb-4cc1-92d2-b4e57cf8e83e)
  )
  (wire (pts (xy 58.42 63.5) (xy 52.07 63.5))
    (stroke (width 0) (type default) (color 0 0 0 0))
    (uuid 9a67addb-078a-400c-8734-fd31d3cd3f82)
  )
  (wire (pts (xy 93.98 87.63) (xy 93.98 86.36))
    (stroke (width 0) (type default) (color 0 0 0 0))
    (uuid a8042f04-c07d-4d51-8f79-a5e836d8ad8c)
  )
  (wire (pts (xy 85.09 128.27) (xy 85.09 132.08))
    (stroke (width 0) (type default) (color 0 0 0 0))
    (uuid a8e6c240-396e-4450-b78c-801244b0d4fe)
  )
  (wire (pts (xy 93.98 83.82) (xy 93.98 86.36))
    (stroke (width 0) (type default) (color 0 0 0 0))
    (uuid b32247f6-fa7e-40a7-ba1e-79afa54f349a)
  )
  (wire (pts (xy 93.98 81.28) (xy 93.98 83.82))
    (stroke (width 0) (type default) (color 0 0 0 0))
    (uuid b643e3c6-b804-4e09-bd45-9be12ce91854)
  )
  (wire (pts (xy 156.21 100.33) (xy 156.21 101.6))
    (stroke (width 0) (type default) (color 0 0 0 0))
    (uuid b7b84cb9-a669-48c5-9b59-a321d2abdd7d)
  )
  (wire (pts (xy 58.42 73.66) (xy 58.42 69.85))
    (stroke (width 0) (type default) (color 0 0 0 0))
    (uuid ba306e57-27af-441a-b03c-fcaa69b7b2d8)
  )
  (wire (pts (xy 152.4 100.33) (xy 156.21 100.33))
    (stroke (width 0) (type default) (color 0 0 0 0))
    (uuid bdd276a3-3e63-4ea7-b41c-8bd8ffd2e099)
  )
  (wire (pts (xy 41.91 60.96) (xy 33.02 60.96))
    (stroke (width 0) (type default) (color 0 0 0 0))
    (uuid beefff38-2ba6-44bc-9519-6b979c4ee3be)
  )
  (wire (pts (xy 101.6 63.5) (xy 93.98 63.5))
    (stroke (width 0) (type default) (color 0 0 0 0))
    (uuid bf5e0fc9-b537-4ab1-9f74-58131b451f0b)
  )
  (wire (pts (xy 134.62 66.04) (xy 134.62 64.77))
    (stroke (width 0) (type default) (color 0 0 0 0))
    (uuid c0b21eba-012d-410a-98cc-c395f43f31b2)
  )
  (wire (pts (xy 33.02 69.85) (xy 33.02 68.58))
    (stroke (width 0) (type default) (color 0 0 0 0))
    (uuid c242ef95-1fda-4d49-9b1e-19c02cd316a1)
  )
  (wire (pts (xy 107.95 66.04) (xy 107.95 64.77))
    (stroke (width 0) (type default) (color 0 0 0 0))
    (uuid c379d053-96a5-4e84-81fe-02286020c8da)
  )
  (wire (pts (xy 156.21 100.33) (xy 156.21 99.06))
    (stroke (width 0) (type default) (color 0 0 0 0))
    (uuid c834d6fe-d55d-45a2-8841-ff3dce7ac049)
  )
  (wire (pts (xy 116.84 80.01) (xy 116.84 78.74))
    (stroke (width 0) (type default) (color 0 0 0 0))
    (uuid ca163a34-e790-45a5-88bd-c121afba78a4)
  )
  (wire (pts (xy 54.61 50.8) (xy 54.61 60.96))
    (stroke (width 0) (type default) (color 0 0 0 0))
    (uuid caa18855-573b-4572-9dad-8e8c406e9bca)
  )
  (wire (pts (xy 144.78 57.15) (xy 154.94 57.15))
    (stroke (width 0) (type default) (color 0 0 0 0))
    (uuid d8b0c1ad-7e87-4522-86dc-a019ecd2a634)
  )
  (wire (pts (xy 58.42 69.85) (xy 45.72 69.85))
    (stroke (width 0) (type default) (color 0 0 0 0))
    (uuid dac33bf5-9358-4568-8f5a-c655d38b5029)
  )
  (wire (pts (xy 116.84 69.85) (xy 116.84 71.12))
    (stroke (width 0) (type default) (color 0 0 0 0))
    (uuid dd1aefee-663a-491b-9c5a-4a2c8c3812da)
  )
  (wire (pts (xy 54.61 60.96) (xy 58.42 60.96))
    (stroke (width 0) (type default) (color 0 0 0 0))
    (uuid e2a8a871-ee35-4a5b-82c0-5c90e00af8ca)
  )
  (wire (pts (xy 45.72 69.85) (xy 45.72 68.58))
    (stroke (width 0) (type default) (color 0 0 0 0))
    (uuid e70bf81f-f219-4889-851d-15e1feed8649)
  )
  (wire (pts (xy 156.21 91.44) (xy 156.21 88.9))
    (stroke (width 0) (type default) (color 0 0 0 0))
    (uuid e80c888c-9471-4e4b-8d3f-3b893b07af34)
  )
  (wire (pts (xy 41.91 82.55) (xy 58.42 82.55))
    (stroke (width 0) (type default) (color 0 0 0 0))
    (uuid ef67b2a6-4352-40a5-b9d0-6a3e4cb6e718)
  )
  (wire (pts (xy 87.63 128.27) (xy 85.09 128.27))
    (stroke (width 0) (type default) (color 0 0 0 0))
    (uuid f3731079-05a9-45bd-b73a-f08e88717242)
  )
  (wire (pts (xy 57.15 86.36) (xy 57.15 87.63))
    (stroke (width 0) (type default) (color 0 0 0 0))
    (uuid f4fa3905-8c90-4d28-a103-c6cd96c014d5)
  )
  (wire (pts (xy 93.98 60.96) (xy 97.79 60.96))
    (stroke (width 0) (type default) (color 0 0 0 0))
    (uuid f5178d53-7a72-4ed9-a594-88f9ab34541b)
  )
  (wire (pts (xy 93.98 69.85) (xy 116.84 69.85))
    (stroke (width 0) (type default) (color 0 0 0 0))
    (uuid fa2248ed-18b9-4164-93ef-5f5d711cd6d0)
  )

  (hierarchical_label "Bat_D" (shape input) (at 152.4 100.33 180)
    (effects (font (size 1.27 1.27)) (justify right))
    (uuid e5168683-7792-4dde-bb10-c1480248948f)
  )

  (symbol (lib_id "roket-rescue:UWT1C331MNL1GS-CAPAE1030X1000N") (at 85.09 137.16 270) (unit 1)
    (in_bom yes) (on_board yes)
    (uuid 00000000-0000-0000-0000-000060a273b2)
    (property "Reference" "C18" (id 0) (at 88.392 134.7216 90)
      (effects (font (size 1.27 1.27)) (justify left))
    )
    (property "Value" "UWT1C681MNL1GS" (id 1) (at 88.392 137.033 90)
      (effects (font (size 1.27 1.27)) (justify left))
    )
    (property "Footprint" "others:CAPAE1030X1000N" (id 2) (at 85.09 137.16 0)
      (effects (font (size 1.27 1.27)) (justify left bottom) hide)
    )
    (property "Datasheet" "" (id 3) (at 85.09 137.16 0)
      (effects (font (size 1.27 1.27)) (justify left bottom) hide)
    )
    (property "MANUFACTURER" "Nichicon" (id 4) (at 85.09 137.16 0)
      (effects (font (size 1.27 1.27)) (justify left bottom) hide)
    )
    (property "STANDARD" "IPC-7351B" (id 5) (at 85.09 137.16 0)
      (effects (font (size 1.27 1.27)) (justify left bottom) hide)
    )
    (property "PARTREV" "CAT.8100H" (id 6) (at 85.09 137.16 0)
      (effects (font (size 1.27 1.27)) (justify left bottom) hide)
    )
    (property "MAXIMUM_PACKAGE_HEIGHT" "10.8mm" (id 7) (at 85.09 137.16 0)
      (effects (font (size 1.27 1.27)) (justify left bottom) hide)
    )
    (pin "1" (uuid e64ae9d9-1fd7-4b13-b487-b3ee9586ebbe))
    (pin "2" (uuid 31b9a8e9-abe9-47f8-9d35-44bdd55aa2f7))
  )

  (symbol (lib_id "power:GND") (at 85.09 142.24 0) (unit 1)
    (in_bom yes) (on_board yes)
    (uuid 00000000-0000-0000-0000-000060a2a7ec)
    (property "Reference" "#PWR061" (id 0) (at 85.09 148.59 0)
      (effects (font (size 1.27 1.27)) hide)
    )
    (property "Value" "GND" (id 1) (at 85.217 146.6342 0))
    (property "Footprint" "" (id 2) (at 85.09 142.24 0)
      (effects (font (size 1.27 1.27)) hide)
    )
    (property "Datasheet" "" (id 3) (at 85.09 142.24 0)
      (effects (font (size 1.27 1.27)) hide)
    )
    (pin "1" (uuid fe8c63a9-0cfc-4ad1-b19a-d1d772b1c1ef))
  )

  (symbol (lib_id "roket-rescue:TPS630702RNMR-TPS63070RNMT") (at 76.2 73.66 0) (unit 1)
    (in_bom yes) (on_board yes)
    (uuid 00000000-0000-0000-0000-000060aaa908)
    (property "Reference" "U9" (id 0) (at 76.2 54.102 0))
    (property "Value" "TPS630702RNMR" (id 1) (at 76.2 56.4134 0))
    (property "Footprint" "others:TPS63070RNMT" (id 2) (at 76.2 73.66 0)
      (effects (font (size 1.27 1.27)) (justify left bottom) hide)
    )
    (property "Datasheet" "" (id 3) (at 76.2 73.66 0)
      (effects (font (size 1.27 1.27)) (justify left bottom) hide)
    )
    (pin "1" (uuid 34074378-bbb9-47f7-8fd1-d04d4ce73268))
    (pin "10" (uuid 9c4710e8-2ca7-40f7-8046-05e60c195b69))
    (pin "11" (uuid 53ac184f-978d-483f-80f5-f04a959a87f8))
    (pin "12_13" (uuid c7fc4157-0a05-4705-a531-ef2234e3d19c))
    (pin "14" (uuid 6ffd3512-3862-4cbc-ab92-491e75ee9939))
    (pin "15" (uuid 549ee24a-6e5b-4709-92fc-911ce56c3bec))
    (pin "2" (uuid 393cee60-c0c9-477e-9613-5f6f66c17605))
    (pin "3" (uuid 23d53390-2d05-4dfa-8769-b6a348916712))
    (pin "4" (uuid 350ee3f1-3b50-4cab-9965-296984745f62))
    (pin "5" (uuid 611b35d0-ada4-48b4-9ddf-9124af4ade45))
    (pin "6" (uuid c2bd8177-8c17-4c1e-9757-86a5545eb3d4))
    (pin "7_8" (uuid f6435e39-f80b-4880-8fee-a1fd85ad27e6))
    (pin "9" (uuid 5ef32262-852e-4d62-83f2-0fdadb0a307f))
  )

  (symbol (lib_id "roket-rescue:SS24-SS24") (at 92.71 128.27 0) (unit 1)
    (in_bom yes) (on_board yes)
    (uuid 00000000-0000-0000-0000-000060aab4dd)
    (property "Reference" "D8" (id 0) (at 92.71 122.7582 0))
    (property "Value" "SS24" (id 1) (at 92.71 125.0696 0))
    (property "Footprint" "others:SS24" (id 2) (at 92.71 128.27 0)
      (effects (font (size 1.27 1.27)) (justify left bottom) hide)
    )
    (property "Datasheet" "" (id 3) (at 92.71 128.27 0)
      (effects (font (size 1.27 1.27)) (justify left bottom) hide)
    )
    (property "STANDARD" "IPC 7351B" (id 4) (at 92.71 128.27 0)
      (effects (font (size 1.27 1.27)) (justify left bottom) hide)
    )
    (property "PARTREV" "1.1.2" (id 5) (at 92.71 128.27 0)
      (effects (font (size 1.27 1.27)) (justify left bottom) hide)
    )
    (property "MANUFACTURER" "ON Semiconductor" (id 6) (at 92.71 128.27 0)
      (effects (font (size 1.27 1.27)) (justify left bottom) hide)
    )
    (property "MAXIMUM_PACKAGE_HEIGHT" "2.65 mm" (id 7) (at 92.71 128.27 0)
      (effects (font (size 1.27 1.27)) (justify left bottom) hide)
    )
    (pin "A" (uuid e4f839c8-9b64-4f87-a996-216bfe54d024))
    (pin "C" (uuid 275233f2-042a-405d-825f-159f760234a1))
  )

  (symbol (lib_id "roket-rescue:XFL4020-102MEC-XFL4020-102MEC") (at 76.2 50.8 0) (unit 1)
    (in_bom yes) (on_board yes)
    (uuid 00000000-0000-0000-0000-000060aac7a2)
    (property "Reference" "L1" (id 0) (at 76.2 46.2026 0))
    (property "Value" "XFL4020-102MEC" (id 1) (at 76.2 48.514 0))
    (property "Footprint" "others:XFL4020-102MEC" (id 2) (at 76.2 50.8 0)
      (effects (font (size 1.27 1.27)) (justify left bottom) hide)
    )
    (property "Datasheet" "" (id 3) (at 76.2 50.8 0)
      (effects (font (size 1.27 1.27)) (justify left bottom) hide)
    )
    (property "DESCRIPTION" "Power inductor, shielded, 20% tol, SMT, RoHS, halogen free" (id 4) (at 76.2 50.8 0)
      (effects (font (size 1.27 1.27)) (justify left bottom) hide)
    )
    (property "MAXIMUM_PACKAGE_HEIGHT" "2.1mm" (id 5) (at 76.2 50.8 0)
      (effects (font (size 1.27 1.27)) (justify left bottom) hide)
    )
    (property "MANUFACTURER" "Coilcraft" (id 6) (at 76.2 50.8 0)
      (effects (font (size 1.27 1.27)) (justify left bottom) hide)
    )
    (property "PARTREV" "11/02/18" (id 7) (at 76.2 50.8 0)
      (effects (font (size 1.27 1.27)) (justify left bottom) hide)
    )
    (property "STANDARD" "Manufacturer Recommendations" (id 8) (at 76.2 50.8 0)
      (effects (font (size 1.27 1.27)) (justify left bottom) hide)
    )
    (pin "1" (uuid 7cb4e757-5605-4dde-9e6b-6091d9d65d8d))
    (pin "2" (uuid 21404c5c-9ece-4105-aa01-d3a364a6b8c6))
  )

  (symbol (lib_id "roket-rescue:Cap-805_cap") (at 134.62 59.69 270) (unit 1)
    (in_bom yes) (on_board yes)
    (uuid 00000000-0000-0000-0000-000060aaf6fc)
    (property "Reference" "C20" (id 0) (at 137.2362 59.7916 90)
      (effects (font (size 1.27 1.27)) (justify left))
    )
    (property "Value" "22uF" (id 1) (at 137.2362 62.103 90)
      (effects (font (size 1.27 1.27)) (justify left))
    )
    (property "Footprint" "Capacitor_SMD:C_0805_2012Metric" (id 2) (at 134.62 59.69 0)
      (effects (font (size 1.27 1.27)) (justify left bottom) hide)
    )
    (property "Datasheet" "" (id 3) (at 134.62 59.69 0)
      (effects (font (size 1.27 1.27)) (justify left bottom) hide)
    )
    (pin "1" (uuid 384e162b-5a2c-4e23-9612-a61b71195675))
    (pin "2" (uuid 369bbbf6-e11b-4887-99b8-3cd55626d76a))
  )

  (symbol (lib_id "Device:R_US") (at 116.84 66.04 0) (unit 1)
    (in_bom yes) (on_board yes)
    (uuid 00000000-0000-0000-0000-000060ab02a2)
    (property "Reference" "R20" (id 0) (at 118.5672 64.8716 0)
      (effects (font (size 1.27 1.27)) (justify left))
    )
    (property "Value" "470K" (id 1) (at 118.5672 67.183 0)
      (effects (font (size 1.27 1.27)) (justify left))
    )
    (property "Footprint" "Resistor_SMD:R_0805_2012Metric" (id 2) (at 117.856 66.294 90)
      (effects (font (size 1.27 1.27)) hide)
    )
    (property "Datasheet" "~" (id 3) (at 116.84 66.04 0)
      (effects (font (size 1.27 1.27)) hide)
    )
    (pin "1" (uuid 0af40811-339a-4a1c-b973-34491a4b13ae))
    (pin "2" (uuid d8f4853d-d713-4cc6-9e00-2967b240361c))
  )

  (symbol (lib_id "roket-rescue:Cap-805_cap") (at 144.78 59.69 270) (unit 1)
    (in_bom yes) (on_board yes)
    (uuid 00000000-0000-0000-0000-000060ab0a25)
    (property "Reference" "C21" (id 0) (at 147.3962 59.7916 90)
      (effects (font (size 1.27 1.27)) (justify left))
    )
    (property "Value" "22uF" (id 1) (at 147.3962 62.103 90)
      (effects (font (size 1.27 1.27)) (justify left))
    )
    (property "Footprint" "Capacitor_SMD:C_0805_2012Metric" (id 2) (at 144.78 59.69 0)
      (effects (font (size 1.27 1.27)) (justify left bottom) hide)
    )
    (property "Datasheet" "" (id 3) (at 144.78 59.69 0)
      (effects (font (size 1.27 1.27)) (justify left bottom) hide)
    )
    (pin "1" (uuid aebf0468-3d79-4296-8c04-5d301700f897))
    (pin "2" (uuid 5afd396e-734e-4ca5-b1db-de2d9616e961))
  )

  (symbol (lib_id "roket-rescue:Cap-805_cap") (at 154.94 59.69 270) (unit 1)
    (in_bom yes) (on_board yes)
    (uuid 00000000-0000-0000-0000-000060ab0c66)
    (property "Reference" "C22" (id 0) (at 157.5562 59.7916 90)
      (effects (font (size 1.27 1.27)) (justify left))
    )
    (property "Value" "22uF" (id 1) (at 157.5562 62.103 90)
      (effects (font (size 1.27 1.27)) (justify left))
    )
    (property "Footprint" "Capacitor_SMD:C_0805_2012Metric" (id 2) (at 154.94 59.69 0)
      (effects (font (size 1.27 1.27)) (justify left bottom) hide)
    )
    (property "Datasheet" "" (id 3) (at 154.94 59.69 0)
      (effects (font (size 1.27 1.27)) (justify left bottom) hide)
    )
    (pin "1" (uuid 19b0a0c8-aaf8-4eb2-81f5-1174ec011051))
    (pin "2" (uuid 9a427756-5cd8-45a0-a490-8d940bc02a4f))
  )

  (symbol (lib_id "roket-rescue:Cap-805_cap") (at 107.95 59.69 270) (unit 1)
    (in_bom yes) (on_board yes)
    (uuid 00000000-0000-0000-0000-000060ab1ec5)
    (property "Reference" "C19" (id 0) (at 110.5662 59.7916 90)
      (effects (font (size 1.27 1.27)) (justify left))
    )
    (property "Value" "10uF" (id 1) (at 110.5662 62.103 90)
      (effects (font (size 1.27 1.27)) (justify left))
    )
    (property "Footprint" "Capacitor_SMD:C_0805_2012Metric" (id 2) (at 107.95 59.69 0)
      (effects (font (size 1.27 1.27)) (justify left bottom) hide)
    )
    (property "Datasheet" "" (id 3) (at 107.95 59.69 0)
      (effects (font (size 1.27 1.27)) (justify left bottom) hide)
    )
    (pin "1" (uuid 2908d6c0-22ad-4318-92c5-c5b401027f16))
    (pin "2" (uuid c8423de6-b455-438d-b802-af71360af18d))
  )

  (symbol (lib_id "roket-rescue:Cap-805_cap") (at 33.02 63.5 270) (unit 1)
    (in_bom yes) (on_board yes)
    (uuid 00000000-0000-0000-0000-000060ab2118)
    (property "Reference" "C15" (id 0) (at 35.6362 63.6016 90)
      (effects (font (size 1.27 1.27)) (justify left))
    )
    (property "Value" "22uF" (id 1) (at 35.6362 65.913 90)
      (effects (font (size 1.27 1.27)) (justify left))
    )
    (property "Footprint" "Capacitor_SMD:C_0805_2012Metric" (id 2) (at 33.02 63.5 0)
      (effects (font (size 1.27 1.27)) (justify left bottom) hide)
    )
    (property "Datasheet" "" (id 3) (at 33.02 63.5 0)
      (effects (font (size 1.27 1.27)) (justify left bottom) hide)
    )
    (pin "1" (uuid d6d709dd-9a68-4733-be39-7169cb40ea09))
    (pin "2" (uuid 4b2333a6-c7a2-417d-8709-64c30449da39))
  )

  (symbol (lib_id "roket-rescue:Cap-805_cap") (at 45.72 63.5 270) (unit 1)
    (in_bom yes) (on_board yes)
    (uuid 00000000-0000-0000-0000-000060ab236d)
    (property "Reference" "C16" (id 0) (at 48.3362 63.6016 90)
      (effects (font (size 1.27 1.27)) (justify left))
    )
    (property "Value" "10uF" (id 1) (at 48.3362 65.913 90)
      (effects (font (size 1.27 1.27)) (justify left))
    )
    (property "Footprint" "Capacitor_SMD:C_0805_2012Metric" (id 2) (at 45.72 63.5 0)
      (effects (font (size 1.27 1.27)) (justify left bottom) hide)
    )
    (property "Datasheet" "" (id 3) (at 45.72 63.5 0)
      (effects (font (size 1.27 1.27)) (justify left bottom) hide)
    )
    (pin "1" (uuid 675f53e4-fafc-49f8-8444-505dcb9fa624))
    (pin "2" (uuid 3a688812-2354-4cd9-a257-3844948f756a))
  )

  (symbol (lib_id "roket-rescue:Cap-805_cap") (at 57.15 90.17 270) (unit 1)
    (in_bom yes) (on_board yes)
    (uuid 00000000-0000-0000-0000-000060ab24e7)
    (property "Reference" "C17" (id 0) (at 59.7662 90.2716 90)
      (effects (font (size 1.27 1.27)) (justify left))
    )
    (property "Value" "0.1uF" (id 1) (at 59.7662 92.583 90)
      (effects (font (size 1.27 1.27)) (justify left))
    )
    (property "Footprint" "Capacitor_SMD:C_0805_2012Metric" (id 2) (at 57.15 90.17 0)
      (effects (font (size 1.27 1.27)) (justify left bottom) hide)
    )
    (property "Datasheet" "" (id 3) (at 57.15 90.17 0)
      (effects (font (size 1.27 1.27)) (justify left bottom) hide)
    )
    (pin "1" (uuid 1adf9115-95ce-46fd-a95f-1978493eb2b9))
    (pin "2" (uuid d5e470b3-75a2-414f-aaae-33bfcbc5e83c))
  )

  (symbol (lib_id "Device:R_US") (at 116.84 74.93 0) (unit 1)
    (in_bom yes) (on_board yes)
    (uuid 00000000-0000-0000-0000-000060ab2d62)
    (property "Reference" "R21" (id 0) (at 118.5672 73.7616 0)
      (effects (font (size 1.27 1.27)) (justify left))
    )
    (property "Value" "150K" (id 1) (at 118.5672 76.073 0)
      (effects (font (size 1.27 1.27)) (justify left))
    )
    (property "Footprint" "Resistor_SMD:R_0805_2012Metric" (id 2) (at 117.856 75.184 90)
      (effects (font (size 1.27 1.27)) hide)
    )
    (property "Datasheet" "~" (id 3) (at 116.84 74.93 0)
      (effects (font (size 1.27 1.27)) hide)
    )
    (pin "1" (uuid 162c5980-20d0-4d03-a440-e851a1cc6acb))
    (pin "2" (uuid 9454af58-b554-4712-aa43-cdcd73b31630))
  )

  (symbol (lib_id "Device:R_US") (at 41.91 77.47 0) (unit 1)
    (in_bom yes) (on_board yes)
    (uuid 00000000-0000-0000-0000-000060ab2fab)
    (property "Reference" "R19" (id 0) (at 43.6372 76.3016 0)
      (effects (font (size 1.27 1.27)) (justify left))
    )
    (property "Value" "10K" (id 1) (at 43.6372 78.613 0)
      (effects (font (size 1.27 1.27)) (justify left))
    )
    (property "Footprint" "Resistor_SMD:R_0805_2012Metric" (id 2) (at 42.926 77.724 90)
      (effects (font (size 1.27 1.27)) hide)
    )
    (property "Datasheet" "~" (id 3) (at 41.91 77.47 0)
      (effects (font (size 1.27 1.27)) hide)
    )
    (pin "1" (uuid 7efdf4fd-6f59-4df3-b63e-ed98334d6baf))
    (pin "2" (uuid 7862ddbd-ba90-445c-b6a6-8940a7350060))
  )

  (symbol (lib_id "power:GND") (at 107.95 66.04 0) (unit 1)
    (in_bom yes) (on_board yes)
    (uuid 00000000-0000-0000-0000-000060ab4052)
    (property "Reference" "#PWR064" (id 0) (at 107.95 72.39 0)
      (effects (font (size 1.27 1.27)) hide)
    )
    (property "Value" "GND" (id 1) (at 108.077 70.4342 0))
    (property "Footprint" "" (id 2) (at 107.95 66.04 0)
      (effects (font (size 1.27 1.27)) hide)
    )
    (property "Datasheet" "" (id 3) (at 107.95 66.04 0)
      (effects (font (size 1.27 1.27)) hide)
    )
    (pin "1" (uuid f6610d47-1d96-4fd2-b310-379ef8d276fc))
  )

  (symbol (lib_id "power:GND") (at 134.62 66.04 0) (unit 1)
    (in_bom yes) (on_board yes)
    (uuid 00000000-0000-0000-0000-000060ab4cda)
    (property "Reference" "#PWR066" (id 0) (at 134.62 72.39 0)
      (effects (font (size 1.27 1.27)) hide)
    )
    (property "Value" "GND" (id 1) (at 134.747 70.4342 0))
    (property "Footprint" "" (id 2) (at 134.62 66.04 0)
      (effects (font (size 1.27 1.27)) hide)
    )
    (property "Datasheet" "" (id 3) (at 134.62 66.04 0)
      (effects (font (size 1.27 1.27)) hide)
    )
    (pin "1" (uuid 715119fd-8c32-47ed-ac83-23e1bf8278c2))
  )

  (symbol (lib_id "power:GND") (at 144.78 66.04 0) (unit 1)
    (in_bom yes) (on_board yes)
    (uuid 00000000-0000-0000-0000-000060ab4dd5)
    (property "Reference" "#PWR067" (id 0) (at 144.78 72.39 0)
      (effects (font (size 1.27 1.27)) hide)
    )
    (property "Value" "GND" (id 1) (at 144.907 70.4342 0))
    (property "Footprint" "" (id 2) (at 144.78 66.04 0)
      (effects (font (size 1.27 1.27)) hide)
    )
    (property "Datasheet" "" (id 3) (at 144.78 66.04 0)
      (effects (font (size 1.27 1.27)) hide)
    )
    (pin "1" (uuid 5dfa82cd-6b8f-44b9-9f07-c2006f3d7f3c))
  )

  (symbol (lib_id "power:GND") (at 154.94 66.04 0) (unit 1)
    (in_bom yes) (on_board yes)
    (uuid 00000000-0000-0000-0000-000060ab50cb)
    (property "Reference" "#PWR069" (id 0) (at 154.94 72.39 0)
      (effects (font (size 1.27 1.27)) hide)
    )
    (property "Value" "GND" (id 1) (at 155.067 70.4342 0))
    (property "Footprint" "" (id 2) (at 154.94 66.04 0)
      (effects (font (size 1.27 1.27)) hide)
    )
    (property "Datasheet" "" (id 3) (at 154.94 66.04 0)
      (effects (font (size 1.27 1.27)) hide)
    )
    (pin "1" (uuid a38164fa-defe-4505-9962-04a2229ecc1d))
  )

  (symbol (lib_id "power:GND") (at 116.84 80.01 0) (unit 1)
    (in_bom yes) (on_board yes)
    (uuid 00000000-0000-0000-0000-000060ab5318)
    (property "Reference" "#PWR065" (id 0) (at 116.84 86.36 0)
      (effects (font (size 1.27 1.27)) hide)
    )
    (property "Value" "GND" (id 1) (at 116.967 84.4042 0))
    (property "Footprint" "" (id 2) (at 116.84 80.01 0)
      (effects (font (size 1.27 1.27)) hide)
    )
    (property "Datasheet" "" (id 3) (at 116.84 80.01 0)
      (effects (font (size 1.27 1.27)) hide)
    )
    (pin "1" (uuid 2e0efd31-efe0-451a-94ad-9b6bb1de2521))
  )

  (symbol (lib_id "power:GND") (at 57.15 96.52 0) (unit 1)
    (in_bom yes) (on_board yes)
    (uuid 00000000-0000-0000-0000-000060ab54f3)
    (property "Reference" "#PWR059" (id 0) (at 57.15 102.87 0)
      (effects (font (size 1.27 1.27)) hide)
    )
    (property "Value" "GND" (id 1) (at 57.277 100.9142 0))
    (property "Footprint" "" (id 2) (at 57.15 96.52 0)
      (effects (font (size 1.27 1.27)) hide)
    )
    (property "Datasheet" "" (id 3) (at 57.15 96.52 0)
      (effects (font (size 1.27 1.27)) hide)
    )
    (pin "1" (uuid 8902c8af-6b1d-4038-b448-63a27a2c6a70))
  )

  (symbol (lib_id "power:GND") (at 45.72 69.85 0) (unit 1)
    (in_bom yes) (on_board yes)
    (uuid 00000000-0000-0000-0000-000060ab5689)
    (property "Reference" "#PWR058" (id 0) (at 45.72 76.2 0)
      (effects (font (size 1.27 1.27)) hide)
    )
    (property "Value" "GND" (id 1) (at 45.847 74.2442 0))
    (property "Footprint" "" (id 2) (at 45.72 69.85 0)
      (effects (font (size 1.27 1.27)) hide)
    )
    (property "Datasheet" "" (id 3) (at 45.72 69.85 0)
      (effects (font (size 1.27 1.27)) hide)
    )
    (pin "1" (uuid 5f18af06-cf6f-4bd7-846f-5deb610e6ed5))
  )

  (symbol (lib_id "power:GND") (at 33.02 69.85 0) (unit 1)
    (in_bom yes) (on_board yes)
    (uuid 00000000-0000-0000-0000-000060ab576e)
    (property "Reference" "#PWR057" (id 0) (at 33.02 76.2 0)
      (effects (font (size 1.27 1.27)) hide)
    )
    (property "Value" "GND" (id 1) (at 33.147 74.2442 0))
    (property "Footprint" "" (id 2) (at 33.02 69.85 0)
      (effects (font (size 1.27 1.27)) hide)
    )
    (property "Datasheet" "" (id 3) (at 33.02 69.85 0)
      (effects (font (size 1.27 1.27)) hide)
    )
    (pin "1" (uuid ebd2baa1-017e-43b0-a779-0b0c4097d74c))
  )

  (symbol (lib_id "power:GND") (at 93.98 87.63 0) (unit 1)
    (in_bom yes) (on_board yes)
    (uuid 00000000-0000-0000-0000-000060ab732e)
    (property "Reference" "#PWR062" (id 0) (at 93.98 93.98 0)
      (effects (font (size 1.27 1.27)) hide)
    )
    (property "Value" "GND" (id 1) (at 94.107 92.0242 0))
    (property "Footprint" "" (id 2) (at 93.98 87.63 0)
      (effects (font (size 1.27 1.27)) hide)
    )
    (property "Datasheet" "" (id 3) (at 93.98 87.63 0)
      (effects (font (size 1.27 1.27)) hide)
    )
    (pin "1" (uuid 020fb5f8-7154-449f-9427-c21c224740aa))
  )

  (symbol (lib_id "power:VCC") (at 33.02 59.69 0) (unit 1)
    (in_bom yes) (on_board yes)
    (uuid 00000000-0000-0000-0000-000060abd311)
    (property "Reference" "#PWR056" (id 0) (at 33.02 63.5 0)
      (effects (font (size 1.27 1.27)) hide)
    )
    (property "Value" "VCC" (id 1) (at 33.401 55.2958 0))
    (property "Footprint" "" (id 2) (at 33.02 59.69 0)
      (effects (font (size 1.27 1.27)) hide)
    )
    (property "Datasheet" "" (id 3) (at 33.02 59.69 0)
      (effects (font (size 1.27 1.27)) hide)
    )
    (pin "1" (uuid 38162fed-4241-49c3-ba52-4d7eb6f38e66))
  )

  (symbol (lib_id "power:VCC") (at 100.33 127 0) (unit 1)
    (in_bom yes) (on_board yes)
    (uuid 00000000-0000-0000-0000-000060abe055)
    (property "Reference" "#PWR063" (id 0) (at 100.33 130.81 0)
      (effects (font (size 1.27 1.27)) hide)
    )
    (property "Value" "VCC" (id 1) (at 100.711 122.6058 0))
    (property "Footprint" "" (id 2) (at 100.33 127 0)
      (effects (font (size 1.27 1.27)) hide)
    )
    (property "Datasheet" "" (id 3) (at 100.33 127 0)
      (effects (font (size 1.27 1.27)) hide)
    )
    (pin "1" (uuid 39ea8942-9876-43bf-aacf-236b60323d63))
  )

  (symbol (lib_id "power:+BATT") (at 85.09 127 0) (unit 1)
    (in_bom yes) (on_board yes)
    (uuid 00000000-0000-0000-0000-000060abe964)
    (property "Reference" "#PWR060" (id 0) (at 85.09 130.81 0)
      (effects (font (size 1.27 1.27)) hide)
    )
    (property "Value" "+BATT" (id 1) (at 85.471 122.6058 0))
    (property "Footprint" "" (id 2) (at 85.09 127 0)
      (effects (font (size 1.27 1.27)) hide)
    )
    (property "Datasheet" "" (id 3) (at 85.09 127 0)
      (effects (font (size 1.27 1.27)) hide)
    )
    (pin "1" (uuid 9fe4fb24-77a8-4e2a-9feb-dfc655c00e5b))
  )

  (symbol (lib_id "Device:R_US") (at 156.21 95.25 0) (unit 1)
    (in_bom yes) (on_board yes)
    (uuid 00000000-0000-0000-0000-000060aca012)
    (property "Reference" "R22" (id 0) (at 157.9372 94.0816 0)
      (effects (font (size 1.27 1.27)) (justify left))
    )
    (property "Value" "560K" (id 1) (at 157.9372 96.393 0)
      (effects (font (size 1.27 1.27)) (justify left))
    )
    (property "Footprint" "Resistor_SMD:R_0805_2012Metric" (id 2) (at 157.226 95.504 90)
      (effects (font (size 1.27 1.27)) hide)
    )
    (property "Datasheet" "~" (id 3) (at 156.21 95.25 0)
      (effects (font (size 1.27 1.27)) hide)
    )
    (pin "1" (uuid 3aca95fe-41d9-4d1c-9685-ff8c90572f11))
    (pin "2" (uuid 841f4832-9861-4f03-93e4-ca1a333176d4))
  )

  (symbol (lib_id "Device:R_US") (at 156.21 105.41 0) (unit 1)
    (in_bom yes) (on_board yes)
    (uuid 00000000-0000-0000-0000-000060aca018)
    (property "Reference" "R23" (id 0) (at 157.9372 104.2416 0)
      (effects (font (size 1.27 1.27)) (justify left))
    )
    (property "Value" "100K" (id 1) (at 157.9372 106.553 0)
      (effects (font (size 1.27 1.27)) (justify left))
    )
    (property "Footprint" "Resistor_SMD:R_0805_2012Metric" (id 2) (at 157.226 105.664 90)
      (effects (font (size 1.27 1.27)) hide)
    )
    (property "Datasheet" "~" (id 3) (at 156.21 105.41 0)
      (effects (font (size 1.27 1.27)) hide)
    )
    (pin "1" (uuid a4b40835-b0b5-42b6-9024-b5fa6083b163))
    (pin "2" (uuid a74a64ec-ab37-459a-8ee6-7dbb29a0f512))
  )

  (symbol (lib_id "power:GND") (at 156.21 110.49 0) (unit 1)
    (in_bom yes) (on_board yes)
    (uuid 00000000-0000-0000-0000-000060aca01e)
    (property "Reference" "#PWR071" (id 0) (at 156.21 116.84 0)
      (effects (font (size 1.27 1.27)) hide)
    )
    (property "Value" "GND" (id 1) (at 156.337 114.8842 0))
    (property "Footprint" "" (id 2) (at 156.21 110.49 0)
      (effects (font (size 1.27 1.27)) hide)
    )
    (property "Datasheet" "" (id 3) (at 156.21 110.49 0)
      (effects (font (size 1.27 1.27)) hide)
    )
    (pin "1" (uuid dd67b92c-6e04-492c-9ee8-af598bdc8f29))
  )

  (symbol (lib_id "power:+BATT") (at 156.21 88.9 0) (unit 1)
    (in_bom yes) (on_board yes)
    (uuid 00000000-0000-0000-0000-000060acabd1)
    (property "Reference" "#PWR070" (id 0) (at 156.21 92.71 0)
      (effects (font (size 1.27 1.27)) hide)
    )
    (property "Value" "+BATT" (id 1) (at 156.591 84.5058 0))
    (property "Footprint" "" (id 2) (at 156.21 88.9 0)
      (effects (font (size 1.27 1.27)) hide)
    )
    (property "Datasheet" "" (id 3) (at 156.21 88.9 0)
      (effects (font (size 1.27 1.27)) hide)
    )
    (pin "1" (uuid a8e51474-750f-43cf-a948-b70f413b0bdf))
  )

  (symbol (lib_id "power:+3.3V") (at 154.94 54.61 0) (unit 1)
    (in_bom yes) (on_board yes)
    (uuid 2b9a2d5f-5cc4-4e2a-82f1-2a8a02d7c38c)
    (property "Reference" "#PWR068" (id 0) (at 154.94 58.42 0)
      (effects (font (size 1.27 1.27)) hide)
    )
    (property "Value" "+3.3V" (id 1) (at 155.321 50.2158 0))
    (property "Footprint" "" (id 2) (at 154.94 54.61 0)
      (effects (font (size 1.27 1.27)) hide)
    )
    (property "Datasheet" "" (id 3) (at 154.94 54.61 0)
      (effects (font (size 1.27 1.27)) hide)
    )
    (pin "1" (uuid 879b4a40-2cb4-4a49-8833-1ab82d5905e7))
  )
)
