EESchema Schematic File Version 4
EELAYER 30 0
EELAYER END
$Descr A4 11693 8268
encoding utf-8
Sheet 1 15
Title ""
Date ""
Rev ""
Comp ""
Comment1 ""
Comment2 ""
Comment3 ""
Comment4 ""
$EndDescr
$Sheet
S 3000 4350 700  200 
U 6092FBF4
F0 "power" 50
F1 "power.sch" 50
F2 "Bat_D" I R 3700 4450 50 
$EndSheet
$Sheet
S 3000 3900 650  200 
U 609303B5
F0 "Buzzer" 50
F1 "Buzzer.sch" 50
F2 "Buzzer" I R 3650 4000 50 
$EndSheet
$Sheet
S 3000 3450 650  200 
U 609303F8
F0 "Servo" 50
F1 "Servo.sch" 50
F2 "Servo" I R 3650 3550 50 
$EndSheet
$Sheet
S 3000 4800 700  550 
U 6093043F
F0 "Mosfet" 50
F1 "Mosfet.sch" 50
F2 "P2_Oku" I R 3700 5000 50 
F3 "P1_Oku" I R 3700 4900 50 
F4 "P1_Ates" I R 3700 5150 50 
F5 "P2_Ates" I R 3700 5250 50 
$EndSheet
$Sheet
S 3000 2650 650  550 
U 609304A1
F0 "Led_Buton" 50
F1 "Led_Buton.sch" 50
F2 "Led1" I R 3650 3000 50 
F3 "Led2" I R 3650 3100 50 
F4 "IO0" I R 3650 2750 50 
F5 "EN" I R 3650 2850 50 
$EndSheet
$Sheet
S 8650 5950 700  300 
U 60930501
F0 "Oled" 50
F1 "Oled.sch" 50
F2 "SCL_OLED" I L 8650 6150 50 
F3 "SDA_OLED" I L 8650 6050 50 
$EndSheet
$Sheet
S 8650 3900 700  500 
U 609305A3
F0 "H3LIS331DL" 50
F1 "H3LIS331DL.sch" 50
F2 "CS" I L 8650 4300 50 
F3 "MOSI" I L 8650 4200 50 
F4 "SCLK" I L 8650 4000 50 
F5 "MISO" I L 8650 4100 50 
$EndSheet
$Sheet
S 8650 4650 700  500 
U 609305FE
F0 "MS5611" 50
F1 "MS5611.sch" 50
F2 "MOSI" I L 8650 4950 50 
F3 "MISO" I L 8650 4850 50 
F4 "SCLK" I L 8650 4750 50 
F5 "CS" I L 8650 5050 50 
$EndSheet
$Sheet
S 8650 5450 700  300 
U 6093064A
F0 "GPS" 50
F1 "GPS.sch" 50
F2 "RX" I L 8650 5550 50 
F3 "TX" I L 8650 5650 50 
$EndSheet
$Sheet
S 3000 1850 650  550 
U 609302F8
F0 "Programmer" 50
F1 "Programmer.sch" 50
F2 "RXD0" I R 3650 1950 50 
F3 "TXD0" I R 3650 2050 50 
F4 "EN" I R 3650 2200 50 
F5 "I0O" I R 3650 2300 50 
$EndSheet
Wire Wire Line
	4200 1950 3650 1950
Wire Wire Line
	4200 2050 3650 2050
Wire Wire Line
	4200 4000 3650 4000
Wire Wire Line
	4200 4450 3700 4450
Text Label 6900 3750 0    50   ~ 0
SCL
Text Label 6900 3650 0    50   ~ 0
SDA
Wire Wire Line
	6900 3650 6600 3650
Wire Wire Line
	6600 3750 6900 3750
Text Label 8350 6150 2    50   ~ 0
SCL
Text Label 8350 6050 2    50   ~ 0
SDA
Wire Wire Line
	8350 6050 8650 6050
Wire Wire Line
	8650 6150 8350 6150
Text Label 4000 2300 0    50   ~ 0
IO0
Wire Wire Line
	4200 3550 3650 3550
$Sheet
S 8650 2950 700  750 
U 6093055C
F0 "BNO080" 50
F1 "BNO080.sch" 50
F2 "SCLK" I L 8650 3050 50 
F3 "MISO" I L 8650 3150 50 
F4 "MOSI" I L 8650 3250 50 
F5 "CS" I L 8650 3350 50 
F6 "INT" I L 8650 3500 50 
F7 "RST" I L 8650 3600 50 
$EndSheet
$Sheet
S 8650 1800 700  950 
U 6093034B
F0 "Lora" 50
F1 "Lora.sch" 50
F2 "NSS" I L 8650 2200 50 
F3 "SCK" I L 8650 1900 50 
F4 "MOSI" I L 8650 2100 50 
F5 "MISO" I L 8650 2000 50 
F6 "NRST" I L 8650 2350 50 
F7 "BUSY" I L 8650 2450 50 
F8 "DIO1" I L 8650 2550 50 
F9 "TXEN" I L 8650 2650 50 
$EndSheet
Text Label 6900 2450 0    50   ~ 0
MISO
Text Label 6900 2550 0    50   ~ 0
MOSI
Text Label 6900 2650 0    50   ~ 0
SCLK
Text Label 6900 2850 0    50   ~ 0
CS_1
Wire Wire Line
	6600 2450 6900 2450
Wire Wire Line
	6600 2550 6900 2550
Wire Wire Line
	6900 2650 6600 2650
Wire Wire Line
	6900 2850 6600 2850
Wire Wire Line
	8650 2000 8350 2000
Wire Wire Line
	8650 2100 8350 2100
Wire Wire Line
	8350 1900 8650 1900
Text Label 8350 4100 2    50   ~ 0
MISO
Text Label 8350 4200 2    50   ~ 0
MOSI
Text Label 8350 4000 2    50   ~ 0
SCLK
Wire Wire Line
	8650 4100 8350 4100
Wire Wire Line
	8650 4200 8350 4200
Wire Wire Line
	8350 4000 8650 4000
Text Label 8350 4850 2    50   ~ 0
MISO
Text Label 8350 4950 2    50   ~ 0
MOSI
Text Label 8350 4750 2    50   ~ 0
SCLK
Wire Wire Line
	8650 4850 8350 4850
Wire Wire Line
	8650 4950 8350 4950
Wire Wire Line
	8350 4750 8650 4750
Text Label 8350 3150 2    50   ~ 0
MISO
Text Label 8350 3250 2    50   ~ 0
MOSI
Text Label 8350 3050 2    50   ~ 0
SCLK
Wire Wire Line
	8650 3150 8350 3150
Wire Wire Line
	8650 3250 8350 3250
Wire Wire Line
	8350 3050 8650 3050
Text Label 6900 2950 0    50   ~ 0
CS_2
Wire Wire Line
	6900 2950 6600 2950
Text Label 6900 3050 0    50   ~ 0
CS_3
Wire Wire Line
	6900 3050 6600 3050
Text Label 6900 3150 0    50   ~ 0
CS_4
Wire Wire Line
	6900 3150 6600 3150
Text Label 6900 3350 0    50   ~ 0
BNO_RST
Text Label 6900 3450 0    50   ~ 0
BNO_INT
Text Label 6900 1950 0    50   ~ 0
LORA_NRST
Text Label 6900 2050 0    50   ~ 0
LORA_BUSY
Text Label 6900 2150 0    50   ~ 0
LORA_DIO1
Text Label 6900 2250 0    50   ~ 0
LORA_TXEN
Wire Wire Line
	6900 3350 6600 3350
Wire Wire Line
	6600 3450 6900 3450
Wire Wire Line
	6600 2250 6900 2250
Wire Wire Line
	6600 2150 6900 2150
Wire Wire Line
	6600 2050 6900 2050
Wire Wire Line
	6600 1950 6900 1950
Text Label 8350 3600 2    50   ~ 0
BNO_RST
Text Label 8350 3500 2    50   ~ 0
BNO_INT
Wire Wire Line
	8350 3600 8650 3600
Wire Wire Line
	8650 3500 8350 3500
Text Label 8350 2350 2    50   ~ 0
LORA_NRST
Text Label 8350 2450 2    50   ~ 0
LORA_BUSY
Text Label 8350 2550 2    50   ~ 0
LORA_DIO1
Text Label 8350 2650 2    50   ~ 0
LORA_TXEN
Wire Wire Line
	8650 2650 8350 2650
Wire Wire Line
	8650 2550 8350 2550
Wire Wire Line
	8650 2450 8350 2450
Wire Wire Line
	8650 2350 8350 2350
Wire Wire Line
	8350 2200 8650 2200
Text Label 8350 3350 2    50   ~ 0
CS_2
Wire Wire Line
	8350 3350 8650 3350
Text Label 8350 4300 2    50   ~ 0
CS_3
Wire Wire Line
	8350 4300 8650 4300
Text Label 8350 5050 2    50   ~ 0
CS_4
Wire Wire Line
	8350 5050 8650 5050
Text Label 8350 2200 2    50   ~ 0
CS_1
Text Label 8350 2000 2    50   ~ 0
MISO
Text Label 8350 2100 2    50   ~ 0
MOSI
Text Label 8350 1900 2    50   ~ 0
SCLK
Text Label 8350 5650 2    50   ~ 0
TX
Text Label 8350 5550 2    50   ~ 0
RX
Wire Wire Line
	8350 5550 8650 5550
Wire Wire Line
	8650 5650 8350 5650
Text Label 6900 3950 0    50   ~ 0
TX
Text Label 6900 4050 0    50   ~ 0
RX
Wire Wire Line
	6900 4050 6600 4050
Wire Wire Line
	6600 3950 6900 3950
$Sheet
S 3000 5600 700  750 
U 616DCCBE
F0 "IO_coklayici" 50
F1 "IO_coklayici.sch" 50
F2 "SDA" I R 3700 6250 50 
F3 "SCL" I R 3700 6150 50 
F4 "Led1" I R 3700 6000 50 
F5 "Led2" I R 3700 5900 50 
F6 "Pyro1" I R 3700 5800 50 
F7 "Pyro2" I R 3700 5700 50 
$EndSheet
$Sheet
S 4200 1800 2400 3650
U 609302C0
F0 "Mcu" 50
F1 "Mcu.sch" 50
F2 "EN" I L 4200 2200 50 
F3 "SENSOR_VP" I L 4200 4900 50 
F4 "SENSOR_VN" I L 4200 5000 50 
F5 "IO34" I R 6600 4650 50 
F6 "IO35" I L 4200 4450 50 
F7 "TXD0" I L 4200 2050 50 
F8 "RXD0" I L 4200 1950 50 
F9 "IO0" I L 4200 2300 50 
F10 "IO2" I R 6600 3150 50 
F11 "IO4" I R 6600 2150 50 
F12 "IO5" I R 6600 2950 50 
F13 "IO12" I L 4200 4000 50 
F14 "IO13" I L 4200 3550 50 
F15 "IO14" I R 6600 3350 50 
F16 "IO15" I R 6600 2850 50 
F17 "IO16" I R 6600 2250 50 
F18 "IO17" I R 6600 3050 50 
F19 "IO18" I R 6600 2650 50 
F20 "IO19" I R 6600 2450 50 
F21 "IO21" I R 6600 3650 50 
F22 "IO22" I R 6600 3750 50 
F23 "IO23" I R 6600 2550 50 
F24 "IO25" I R 6600 3450 50 
F25 "IO26" I R 6600 3950 50 
F26 "IO27" I R 6600 4050 50 
F27 "IO32" I R 6600 1950 50 
F28 "IO33" I R 6600 2050 50 
$EndSheet
Text Label 3800 3000 0    50   ~ 0
Led1
Text Label 3800 3100 0    50   ~ 0
Led2
Wire Wire Line
	3650 3100 3800 3100
Wire Wire Line
	3800 3000 3650 3000
Text Label 3850 5900 0    50   ~ 0
Led1
Text Label 3850 6000 0    50   ~ 0
Led2
Wire Wire Line
	3700 6000 3850 6000
Wire Wire Line
	3850 5900 3700 5900
Wire Wire Line
	4200 4900 3700 4900
Wire Wire Line
	4200 5000 3700 5000
Wire Wire Line
	3800 5250 3700 5250
Wire Wire Line
	3900 5800 3700 5800
Text Label 4000 6150 0    50   ~ 0
SCL
Text Label 4000 6250 0    50   ~ 0
SDA
Wire Wire Line
	4000 6250 3700 6250
Wire Wire Line
	3700 6150 4000 6150
Wire Wire Line
	3700 5700 3800 5700
Wire Wire Line
	3800 5250 3800 5700
Wire Wire Line
	3700 5150 3900 5150
Wire Wire Line
	3900 5150 3900 5800
Wire Wire Line
	3650 2300 3800 2300
Wire Wire Line
	3650 2200 3900 2200
Wire Wire Line
	3650 2750 3800 2750
Wire Wire Line
	3800 2750 3800 2300
Connection ~ 3800 2300
Wire Wire Line
	3800 2300 4200 2300
Wire Wire Line
	3650 2850 3900 2850
Wire Wire Line
	3900 2850 3900 2200
Connection ~ 3900 2200
Wire Wire Line
	3900 2200 4200 2200
$EndSCHEMATC
